2017-01-03 00:33:10	접속 캐릭=메	계정=matis	IP=14.138.119.26
2017-01-03 00:33:32	종료 캐릭=메 계정=matis IP=14.138.119.26
2017-01-03 00:33:36	접속 캐릭=메	계정=matis	IP=14.138.119.26
2017-01-03 00:34:30	종료 캐릭=메 계정=matis IP=14.138.119.26
2017-01-03 00:34:35	접속 캐릭=메	계정=matis	IP=14.138.119.26
2017-01-03 00:45:38	종료 캐릭=메 계정=matis IP=14.138.119.26
2017-01-03 00:45:43	접속 캐릭=메	계정=matis	IP=14.138.119.26
2017-01-03 01:32:09	접속 캐릭=메	계정=matis	IP=14.138.119.26
2017-01-03 01:33:48	종료 캐릭=메 계정=matis IP=14.138.119.26
2017-01-03 01:33:54	접속 캐릭=메	계정=matis	IP=14.138.119.26
2017-01-03 02:00:14	접속 캐릭=메	계정=matis	IP=14.138.119.26
2017-01-03 02:01:24	종료 캐릭=메 계정=matis IP=14.138.119.26
2017-01-03 02:01:29	접속 캐릭=메	계정=matis	IP=14.138.119.26
2017-01-03 02:06:03	접속 캐릭=메	계정=matis	IP=14.138.119.26
2017-01-03 02:07:42	종료 캐릭=메 계정=matis IP=14.138.119.26
2017-01-03 04:24:52	접속 캐릭=메	계정=matis	IP=14.138.119.26
2017-01-03 04:31:20	접속 캐릭=메	계정=matis	IP=14.138.119.26
2017-01-03 04:42:19	접속 캐릭=메	계정=matis	IP=14.138.119.26
2017-01-03 04:45:28	접속 캐릭=메	계정=matis	IP=14.138.119.26
2017-01-03 04:47:10	접속 캐릭=메	계정=matis	IP=14.138.119.26
2017-01-03 04:47:32	종료 캐릭=메 계정=matis IP=14.138.119.26
2017-01-03 04:48:15	접속 캐릭=메	계정=matis	IP=14.138.119.26
2017-01-03 04:50:27	접속 캐릭=메	계정=matis	IP=14.138.119.26
2017-01-03 04:53:59	접속 캐릭=메	계정=matis	IP=14.138.119.26
2017-01-03 04:57:12	접속 캐릭=메	계정=matis	IP=14.138.119.26
2017-01-03 04:59:38	종료 캐릭=메 계정=matis IP=14.138.119.26
2017-01-03 04:59:42	접속 캐릭=메	계정=matis	IP=14.138.119.26
2017-01-03 04:59:52	종료 캐릭=메 계정=matis IP=14.138.119.26
2017-01-03 04:59:57	접속 캐릭=메	계정=matis	IP=14.138.119.26
2017-01-03 05:00:16	종료 캐릭=메 계정=matis IP=14.138.119.26
2017-01-03 05:00:20	접속 캐릭=메	계정=matis	IP=14.138.119.26
2017-01-03 05:01:06	종료 캐릭=메 계정=matis IP=14.138.119.26
2017-01-03 05:07:15	접속 캐릭=메	계정=matis	IP=14.138.119.26
2017-01-03 05:11:44	접속 캐릭=메	계정=matis	IP=14.138.119.26
2017-01-03 05:16:29	접속 캐릭=메	계정=matis	IP=14.138.119.26
2017-01-03 05:21:59	접속 캐릭=메	계정=matis	IP=14.138.119.26
2017-01-03 05:22:44	종료 캐릭=메 계정=matis IP=14.138.119.26
2017-01-03 05:25:23	접속 캐릭=메	계정=matis	IP=14.138.119.26
2017-01-03 05:27:36	접속 캐릭=메	계정=matis	IP=14.138.119.26
2017-01-03 05:30:15	접속 캐릭=메	계정=matis	IP=14.138.119.26
2017-01-03 05:39:30	접속 캐릭=메	계정=matis	IP=14.138.119.26
2017-01-03 06:02:02	접속 캐릭=메	계정=matis	IP=14.138.119.26
2017-01-03 21:38:03	접속 캐릭=메	계정=matis	IP=14.138.119.22
2017-01-03 22:26:44	접속 캐릭=메	계정=matis	IP=14.138.119.22
2017-01-03 22:32:07	접속 캐릭=메	계정=matis	IP=14.138.119.22
2017-01-03 22:32:28	종료 캐릭=메 계정=matis IP=14.138.119.22
2017-01-03 22:33:15	접속 캐릭=메	계정=matis	IP=14.138.119.22
2017-01-03 22:37:09	종료 캐릭=메 계정=matis IP=14.138.119.22
