2017-03-08 00:14:29	종료 캐릭=요정 계정=leegyuhwa IP=220.116.185.70
2017-03-08 12:28:28	접속 캐릭=메티스	계정=guswns1	IP=211.199.12.26
2017-03-08 12:30:07	종료 캐릭=메티스 계정=guswns1 IP=211.199.12.26
2017-03-08 12:48:41	접속 캐릭=메티스	계정=guswns1	IP=203.232.45.92
2017-03-08 13:18:43	접속 캐릭=요정	계정=leegyuhwa	IP=220.116.185.70
2017-03-08 13:29:16	종료 캐릭=요정 계정=leegyuhwa IP=220.116.185.70
2017-03-08 13:29:18	접속 캐릭=전사	계정=leegyuhwa	IP=220.116.185.70
2017-03-08 13:40:20	종료 캐릭=메티스 계정=guswns1 IP=203.232.45.92
2017-03-08 13:40:45	접속 캐릭=메티스	계정=guswns1	IP=203.232.45.92
