2017-01-15 22:00:32	접속 캐릭=우정	계정=youngnam01	IP=125.185.80.14
2017-01-15 22:06:45	접속 캐릭=우정	계정=youngnam01	IP=125.185.80.14
2017-01-15 22:10:59	접속 캐릭=우정	계정=youngnam01	IP=125.185.80.14
2017-01-15 22:14:27	종료 캐릭=우정 계정=youngnam01 IP=125.185.80.14
2017-01-15 22:22:43	접속 캐릭=우정	계정=youngnam01	IP=125.185.80.14
2017-01-15 22:25:46	종료 캐릭=우정 계정=youngnam01 IP=125.185.80.14
2017-01-15 22:26:43	접속 캐릭=메티스	계정=youngnam01	IP=125.185.80.14
2017-01-15 22:27:44	종료 캐릭=메티스 계정=youngnam01 IP=125.185.80.14
2017-01-15 22:29:08	접속 캐릭=메티스	계정=youngnam01	IP=125.185.80.14
2017-01-15 22:38:11	접속 캐릭=메티스	계정=youngnam01	IP=125.185.80.14
2017-01-15 22:42:29	접속 캐릭=메티스	계정=youngnam01	IP=125.185.80.14
2017-01-15 22:51:47	종료 캐릭=메티스 계정=youngnam01 IP=125.185.80.14
2017-01-15 22:52:14	접속 캐릭=메티스	계정=youngnam01	IP=125.185.80.14
2017-01-15 22:54:33	접속 캐릭=한나	계정=tkdgh12	IP=121.156.89.23
2017-01-15 22:55:19	종료 캐릭=한나 계정=tkdgh12 IP=121.156.89.23
2017-01-15 22:55:58	접속 캐릭=한나	계정=tkdgh12	IP=121.156.89.23
2017-01-15 22:56:34	종료 캐릭=한나 계정=tkdgh12 IP=121.156.89.23
2017-01-15 22:57:22	접속 캐릭=한나	계정=tkdgh12	IP=121.156.89.23
2017-01-15 23:03:40	접속 캐릭=메티스	계정=youngnam01	IP=125.185.80.14
2017-01-15 23:03:44	접속 캐릭=한나	계정=tkdgh12	IP=121.156.89.23
2017-01-15 23:07:30	종료 캐릭=메티스 계정=youngnam01 IP=125.185.80.14
2017-01-15 23:07:55	접속 캐릭=메티스	계정=youngnam01	IP=125.185.80.14
2017-01-15 23:19:40	종료 캐릭=한나 계정=tkdgh12 IP=121.156.89.23
2017-01-15 23:20:28	접속 캐릭=한나	계정=tkdgh12	IP=121.156.89.23
2017-01-15 23:21:27	접속 캐릭=신비수	계정=si9176	IP=125.189.189.96
2017-01-15 23:23:11	종료 캐릭=신비수 계정=si9176 IP=125.189.189.96
2017-01-15 23:23:56	접속 캐릭=신비수	계정=si9176	IP=125.189.189.96
2017-01-15 23:24:45	종료 캐릭=한나 계정=tkdgh12 IP=121.156.89.23
2017-01-15 23:24:46	종료 캐릭=메티스 계정=youngnam01 IP=125.185.80.14
2017-01-15 23:25:10	접속 캐릭=메티스	계정=youngnam01	IP=125.185.80.14
2017-01-15 23:25:12	접속 캐릭=한나	계정=tkdgh12	IP=121.156.89.23
2017-01-15 23:25:55	종료 캐릭=신비수 계정=si9176 IP=125.189.189.96
2017-01-15 23:28:50	접속 캐릭=메티스	계정=youngnam01	IP=125.185.80.14
2017-01-15 23:28:57	접속 캐릭=신비수	계정=si9176	IP=125.189.189.96
2017-01-15 23:28:58	접속 캐릭=한나	계정=tkdgh12	IP=121.156.89.23
2017-01-15 23:37:00	종료 캐릭=메티스 계정=youngnam01 IP=125.185.80.14
2017-01-15 23:37:36	종료 캐릭=한나 계정=tkdgh12 IP=121.156.89.23
2017-01-15 23:37:42	접속 캐릭=메티스	계정=youngnam01	IP=125.185.80.14
2017-01-15 23:37:55	종료 캐릭=신비수 계정=si9176 IP=125.189.189.96
2017-01-15 23:38:15	접속 캐릭=한나	계정=tkdgh12	IP=121.156.89.23
2017-01-15 23:38:28	접속 캐릭=신비수	계정=si9176	IP=125.189.189.96
2017-01-15 23:39:32	종료 캐릭=신비수 계정=si9176 IP=125.189.189.96
2017-01-15 23:40:05	접속 캐릭=신비수	계정=si9176	IP=125.189.189.96
