2016-12-13 00:12:48	접속 캐릭=토스	계정=matis	IP=218.159.12.90
2016-12-13 00:29:58	접속 캐릭=토스	계정=matis	IP=218.159.12.90
2016-12-13 00:34:27	접속 캐릭=토스	계정=matis	IP=218.159.12.90
2016-12-13 00:44:39	접속 캐릭=토스	계정=matis	IP=218.159.12.90
2016-12-13 00:48:55	종료 캐릭=토스 계정=matis IP=218.159.12.90
2016-12-13 01:04:18	접속 캐릭=토스	계정=matis	IP=218.159.12.90
2016-12-13 01:08:19	종료 캐릭=토스 계정=matis IP=218.159.12.90
2016-12-13 01:42:14	접속 캐릭=토스	계정=matis	IP=218.159.12.90
2016-12-13 01:49:57	접속 캐릭=토스	계정=matis	IP=218.159.12.90
2016-12-13 01:57:04	접속 캐릭=코오	계정=matis2	IP=218.159.12.90
2016-12-13 04:12:03	접속 캐릭=토스	계정=matis	IP=218.159.12.90
2016-12-13 04:12:59	종료 캐릭=토스 계정=matis IP=218.159.12.90
2016-12-13 04:13:21	접속 캐릭=토스	계정=matis	IP=218.159.12.90
2016-12-13 04:13:47	접속 캐릭=코오	계정=matis2	IP=218.159.12.90
2016-12-13 04:26:23	접속 캐릭=토스	계정=matis	IP=218.159.12.90
2016-12-13 05:28:26	접속 캐릭=토스	계정=matis	IP=218.159.12.90
2016-12-13 05:29:22	종료 캐릭=토스 계정=matis IP=218.159.12.90
2016-12-13 05:47:59	접속 캐릭=토스	계정=matis	IP=218.159.12.90
2016-12-13 06:18:47	접속 캐릭=토스	계정=matis	IP=218.159.12.90
2016-12-13 06:20:33	접속 캐릭=토스	계정=matis	IP=218.159.12.90
2016-12-13 06:20:56	종료 캐릭=토스 계정=matis IP=218.159.12.90
2016-12-13 06:30:16	접속 캐릭=토스	계정=matis	IP=218.159.12.90
2016-12-13 06:32:45	종료 캐릭=토스 계정=matis IP=218.159.12.90
2016-12-13 06:36:44	접속 캐릭=토스	계정=matis	IP=218.159.12.90
2016-12-13 06:37:46	종료 캐릭=토스 계정=matis IP=218.159.12.90
2016-12-13 06:42:02	접속 캐릭=토스	계정=matis	IP=218.159.12.90
2016-12-13 06:42:54	종료 캐릭=토스 계정=matis IP=218.159.12.90
2016-12-13 06:45:30	접속 캐릭=토스	계정=matis	IP=218.159.12.90
2016-12-13 06:45:51	종료 캐릭=토스 계정=matis IP=218.159.12.90
2016-12-13 06:48:40	접속 캐릭=토스	계정=matis	IP=218.159.12.90
2016-12-13 06:49:09	종료 캐릭=토스 계정=matis IP=218.159.12.90
2016-12-13 14:41:44	접속 캐릭=토스	계정=matis	IP=218.159.12.90
2016-12-13 15:27:50	접속 캐릭=토스	계정=matis	IP=218.159.12.90
2016-12-13 15:30:43	종료 캐릭=토스 계정=matis IP=218.159.12.90
2016-12-13 20:08:59	접속 캐릭=토스	계정=matis	IP=218.159.12.90
2016-12-13 20:10:37	종료 캐릭=토스 계정=matis IP=218.159.12.90
2016-12-13 20:12:52	접속 캐릭=토스	계정=matis	IP=218.159.12.90
2016-12-13 20:20:19	접속 캐릭=토스	계정=matis	IP=218.159.12.90
2016-12-13 20:23:56	접속 캐릭=토스	계정=matis	IP=218.159.12.90
2016-12-13 20:27:54	종료 캐릭=토스 계정=matis IP=218.159.12.90
2016-12-13 20:33:39	접속 캐릭=토스	계정=matis	IP=218.159.12.90
2016-12-13 20:34:25	종료 캐릭=토스 계정=matis IP=218.159.12.90
2016-12-13 20:40:09	접속 캐릭=토스	계정=matis	IP=218.159.12.90
2016-12-13 20:41:15	종료 캐릭=토스 계정=matis IP=218.159.12.90
2016-12-13 20:45:35	접속 캐릭=토스	계정=matis	IP=218.159.12.90
2016-12-13 20:46:38	종료 캐릭=토스 계정=matis IP=218.159.12.90
2016-12-13 20:52:21	접속 캐릭=토스	계정=matis	IP=218.159.12.90
2016-12-13 21:00:16	접속 캐릭=토스	계정=matis	IP=218.159.12.90
2016-12-13 21:05:07	접속 캐릭=토스	계정=matis	IP=218.159.12.90
2016-12-13 21:12:37	접속 캐릭=토스	계정=matis	IP=218.159.12.90
2016-12-13 22:35:05	접속 캐릭=토스	계정=matis	IP=218.159.12.90
2016-12-13 22:45:55	접속 캐릭=다므스	계정=a0512	IP=125.136.142.115
