2016-12-14 05:06:29	삭제	matis:[응]	[296987423]신규 혈맹 가입 주문서(0)
2016-12-14 05:06:29	삭제	matis:[응]	[296987424]속도향상 물약(3)
2016-12-14 05:06:29	삭제	matis:[응]	[296987425]초보자 가이드북
2016-12-14 05:06:29	삭제	matis:[응]	[296987429]기란 마을 귀환 부적
2016-12-14 05:06:29	삭제	matis:[응]	[297019608]장신구 마법 주문서(2)
2016-12-14 05:06:29	삭제	matis:[응]	[296987440]흑요석(485)
2016-12-14 05:06:29	삭제	matis:[응]	[296987447]+5포효의 이도류
2016-12-14 05:06:29	삭제	matis:[응]	[297083823]+9현자의 목걸이
2016-12-14 05:06:29	삭제	matis:[응]	[297051748]+10빛나는 사이하의 목걸이
2016-12-14 05:06:29	삭제	matis:[응]	[297051742]+9빛나는 사이하의 목걸이
2016-12-14 05:06:29	삭제	matis:[응]	[297083836]+9용기의 벨트
2016-12-14 05:06:29	삭제	matis:[응]	[296987448]+5론드의 이도류
2016-12-14 05:06:29	삭제	matis:[응]	[297148274]+5태풍의 도끼
2016-12-14 05:06:29	삭제	matis:[응]	[297148283]+3지휘관의 투구
2016-12-14 05:06:29	삭제	matis:[응]	[297276908]코인: 무기(0)
