2016-10-15 20:02:32	접속 캐릭=린올사냥꾼	계정=qwe123	IP=121.154.162.162
2016-10-15 20:31:34	접속 캐릭=린올사냥꾼	계정=qwe123	IP=121.154.162.162
2016-10-15 20:36:27	접속 캐릭=린올사냥꾼	계정=qwe123	IP=121.154.162.162
2016-10-15 20:36:38	종료 캐릭=린올사냥꾼 계정=qwe123 IP=121.154.162.162
2016-10-15 20:38:09	접속 캐릭=린올사냥꾼	계정=qwe123	IP=121.154.162.162
2016-10-15 20:38:20	종료 캐릭=린올사냥꾼 계정=qwe123 IP=121.154.162.162
2016-10-15 20:40:09	접속 캐릭=린올사냥꾼	계정=qwe123	IP=121.154.162.162
2016-10-15 20:41:43	종료 캐릭=린올사냥꾼 계정=qwe123 IP=121.154.162.162
2016-10-15 20:42:10	접속 캐릭=린올사냥꾼	계정=qwe123	IP=121.154.162.162
2016-10-15 20:42:15	종료 캐릭=린올사냥꾼 계정=qwe123 IP=121.154.162.162
2016-10-15 20:48:12	접속 캐릭=린올사냥꾼	계정=qwe123	IP=121.154.162.162
2016-10-15 20:48:50	종료 캐릭=린올사냥꾼 계정=qwe123 IP=121.154.162.162
2016-10-15 20:48:54	접속 캐릭=린올사냥꾼	계정=qwe123	IP=121.154.162.162
2016-10-15 20:51:16	접속 캐릭=린올사냥꾼	계정=qwe123	IP=121.154.162.162
2016-10-15 20:54:53	접속 캐릭=린올사냥꾼	계정=qwe123	IP=121.154.162.162
2016-10-15 20:55:03	종료 캐릭=린올사냥꾼 계정=qwe123 IP=121.154.162.162
2016-10-15 21:02:58	접속 캐릭=린올사냥꾼	계정=qwe123	IP=121.154.162.162
2016-10-15 21:09:46	접속 캐릭=린올사냥꾼	계정=qwe123	IP=121.154.162.162
2016-10-15 21:09:56	종료 캐릭=린올사냥꾼 계정=qwe123 IP=121.154.162.162
2016-10-15 21:13:17	접속 캐릭=린올사냥꾼	계정=qwe123	IP=121.154.162.162
2016-10-15 21:21:58	접속 캐릭=린올사냥꾼	계정=qwe123	IP=121.154.162.162
2016-10-15 21:39:30	접속 캐릭=린올사냥꾼	계정=qwe123	IP=121.154.162.162
2016-10-15 22:41:14	접속 캐릭=린올사냥꾼	계정=qwe123	IP=121.154.162.162
2016-10-15 23:09:33	접속 캐릭=린올사냥꾼	계정=qwe123	IP=121.154.162.162
2016-10-15 23:12:10	접속 캐릭=린올사냥꾼	계정=qwe123	IP=121.154.162.162
2016-10-15 23:19:49	접속 캐릭=린올사냥꾼	계정=qwe123	IP=121.154.162.162
2016-10-15 23:20:46	종료 캐릭=린올사냥꾼 계정=qwe123 IP=121.154.162.162
2016-10-15 23:20:50	접속 캐릭=린올사냥꾼	계정=qwe123	IP=121.154.162.162
2016-10-15 23:21:17	종료 캐릭=린올사냥꾼 계정=qwe123 IP=121.154.162.162
2016-10-15 23:21:22	접속 캐릭=린올사냥꾼	계정=qwe123	IP=121.154.162.162
