2016-11-08 15:31:10	접속 캐릭=아아아	계정=mbcznvx	IP=127.0.0.1
2016-11-08 15:38:15	접속 캐릭=아아아	계정=mbcznvx	IP=127.0.0.1
2016-11-08 15:41:47	접속 캐릭=아아아	계정=mbcznvx	IP=127.0.0.1
2016-11-08 15:52:12	접속 캐릭=아아아	계정=mbcznvx	IP=127.0.0.1
2016-11-08 15:53:05	종료 캐릭=아아아 계정=mbcznvx IP=127.0.0.1
2016-11-08 15:53:10	접속 캐릭=아아아	계정=mbcznvx	IP=127.0.0.1
2016-11-08 15:56:12	접속 캐릭=아아아	계정=mbcznvx	IP=127.0.0.1
2016-11-08 19:57:30	접속 캐릭=아아아	계정=mbcznvx	IP=127.0.0.1
2016-11-08 19:58:54	종료 캐릭=아아아 계정=mbcznvx IP=127.0.0.1
2016-11-08 19:58:58	접속 캐릭=아아아	계정=mbcznvx	IP=127.0.0.1
2016-11-08 20:11:45	접속 캐릭=아아아	계정=mbcznvx	IP=127.0.0.1
2016-11-08 20:14:52	접속 캐릭=아아아	계정=mbcznvx	IP=127.0.0.1
2016-11-08 20:25:44	접속 캐릭=아아아	계정=mbcznvx	IP=127.0.0.1
2016-11-08 20:28:22	접속 캐릭=아아아	계정=mbcznvx	IP=127.0.0.1
2016-11-08 20:53:18	접속 캐릭=아아아	계정=mbcznvx	IP=127.0.0.1
2016-11-08 21:11:11	접속 캐릭=아아아	계정=mbcznvx	IP=127.0.0.1
2016-11-08 21:24:35	종료 캐릭=아아아 계정=mbcznvx IP=127.0.0.1
2016-11-08 21:25:01	접속 캐릭=아아아	계정=mbcznvx	IP=127.0.0.1
2016-11-08 21:30:40	접속 캐릭=아아아	계정=mbcznvx	IP=127.0.0.1
2016-11-08 21:32:35	접속 캐릭=아아아	계정=mbcznvx	IP=127.0.0.1
2016-11-08 22:50:58	종료 캐릭=아아아 계정=mbcznvx IP=127.0.0.1
2016-11-08 22:59:11	접속 캐릭=아아아	계정=mbcznvx	IP=127.0.0.1
2016-11-08 23:02:08	접속 캐릭=아아아	계정=mbcznvx	IP=127.0.0.1
2016-11-08 23:08:58	종료 캐릭=아아아 계정=mbcznvx IP=127.0.0.1
2016-11-08 23:09:34	접속 캐릭=아아아	계정=mbcznvx	IP=127.0.0.1
2016-11-08 23:41:02	접속 캐릭=아아아	계정=mbcznvx	IP=127.0.0.1
2016-11-08 23:44:34	종료 캐릭=아아아 계정=mbcznvx IP=127.0.0.1
2016-11-08 23:45:08	접속 캐릭=아아아	계정=mbcznvx	IP=127.0.0.1
2016-11-08 23:45:55	종료 캐릭=아아아 계정=mbcznvx IP=127.0.0.1
2016-11-08 23:45:59	접속 캐릭=아아아	계정=mbcznvx	IP=127.0.0.1
2016-11-08 23:46:19	종료 캐릭=아아아 계정=mbcznvx IP=127.0.0.1
2016-11-08 23:46:21	접속 캐릭=냐아아	계정=mbcznvx	IP=127.0.0.1
2016-11-08 23:46:47	종료 캐릭=냐아아 계정=mbcznvx IP=127.0.0.1
2016-11-08 23:46:49	접속 캐릭=아아아	계정=mbcznvx	IP=127.0.0.1
2016-11-08 23:47:11	종료 캐릭=아아아 계정=mbcznvx IP=127.0.0.1
2016-11-08 23:47:13	접속 캐릭=냐아아	계정=mbcznvx	IP=127.0.0.1
2016-11-08 23:47:25	종료 캐릭=냐아아 계정=mbcznvx IP=127.0.0.1
2016-11-08 23:47:27	접속 캐릭=아아아	계정=mbcznvx	IP=127.0.0.1
2016-11-08 23:48:30	종료 캐릭=아아아 계정=mbcznvx IP=127.0.0.1
2016-11-08 23:48:32	접속 캐릭=냐아아	계정=mbcznvx	IP=127.0.0.1
2016-11-08 23:48:51	종료 캐릭=냐아아 계정=mbcznvx IP=127.0.0.1
2016-11-08 23:48:53	접속 캐릭=아아아	계정=mbcznvx	IP=127.0.0.1
2016-11-08 23:49:06	종료 캐릭=아아아 계정=mbcznvx IP=127.0.0.1
2016-11-08 23:49:08	접속 캐릭=냐아아	계정=mbcznvx	IP=127.0.0.1
2016-11-08 23:50:49	종료 캐릭=냐아아 계정=mbcznvx IP=127.0.0.1
2016-11-08 23:50:51	접속 캐릭=아아아	계정=mbcznvx	IP=127.0.0.1
2016-11-08 23:51:04	종료 캐릭=아아아 계정=mbcznvx IP=127.0.0.1
2016-11-08 23:51:06	접속 캐릭=냐아아	계정=mbcznvx	IP=127.0.0.1
2016-11-08 23:51:19	종료 캐릭=냐아아 계정=mbcznvx IP=127.0.0.1
2016-11-08 23:51:34	접속 캐릭=냐아아	계정=mbcznvx	IP=127.0.0.1
2016-11-08 23:51:43	종료 캐릭=냐아아 계정=mbcznvx IP=127.0.0.1
2016-11-08 23:51:52	접속 캐릭=냐아아	계정=mbcznvx	IP=127.0.0.1
2016-11-08 23:52:45	종료 캐릭=냐아아 계정=mbcznvx IP=127.0.0.1
