2016-12-05 00:17:37	줍기	matis:[토스]	[294964301]기운을 잃은 지휘관의 투구(1)
2016-12-05 00:17:38	줍기	matis:[토스]	[294964336]오만의 탑 \aG[8층]\aA 이동 주문서(1)
2016-12-05 00:17:52	줍기	matis:[토스]	[294964427]오만의 탑 \aG[5층]\aA 이동 주문서(1)
2016-12-05 00:17:54	줍기	matis:[토스]	[294964388]오만의 탑 \aG[5층]\aA 이동 주문서(1)
2016-12-05 00:17:54	줍기	matis:[토스]	[294964401]오만의 탑 \aG[5층]\aA 이동 주문서(1)
2016-12-05 19:46:28	삭제	matis:[토스]	[295542238]패키지 이동주문서(0)
