2017-03-26 12:24:29	삭제	asdf1234:[메티스]	[905657866]초보자 가이드북
2017-03-26 12:32:32	삭제	asdf1234:[메티스]	[905701571]마법서 (힐 올)(0)
2017-03-26 12:32:32	삭제	asdf1234:[메티스]	[905701570]마법서 (블레스 웨폰)(0)
2017-03-26 12:32:32	삭제	asdf1234:[메티스]	[905701566]마법서 (캔슬레이션)(0)
2017-03-26 12:32:32	삭제	asdf1234:[메티스]	[905701567]마법서 (이럽션)(0)
2017-03-26 12:32:32	삭제	asdf1234:[메티스]	[905701569]마법서 (위크니스)(0)
2017-03-26 12:32:32	삭제	asdf1234:[메티스]	[905701568]마법서 (선 버스트)(0)
2017-03-26 12:32:32	삭제	asdf1234:[메티스]	[905701565]마법서 (헤이스트)(0)
2017-03-26 12:32:32	삭제	asdf1234:[메티스]	[905701564]마법서 (인챈트 마이티)(0)
2017-03-26 12:32:32	삭제	asdf1234:[메티스]	[905701563]마법서 (크리에이트 좀비)(0)
2017-03-26 12:32:32	삭제	asdf1234:[메티스]	[905701562]마법서 (다크니스)(0)
2017-03-26 12:32:55	삭제	asdf1234:[메티스]	[905701558]마법서 (테이밍 몬스터)(0)
2017-03-26 12:32:55	삭제	asdf1234:[메티스]	[905701559]마법서 (리무브 커스)(0)
2017-03-26 12:32:55	삭제	asdf1234:[메티스]	[905701560]마법서 (콘 오브 콜드)(0)
2017-03-26 12:32:55	삭제	asdf1234:[메티스]	[905701561]마법서 (마나 드레인)(0)
2017-03-26 12:32:55	삭제	asdf1234:[메티스]	[905701557]마법서 (그레이터 힐)(0)
2017-03-26 12:32:55	삭제	asdf1234:[메티스]	[905701556]마법서 (콜 라이트닝)(0)
2017-03-26 12:32:55	삭제	asdf1234:[메티스]	[905701555]마법서 (커스: 패럴라이즈)(0)
2017-03-26 12:32:55	삭제	asdf1234:[메티스]	[905701554]마법서 (어스 재일)(0)
2017-03-26 12:32:55	삭제	asdf1234:[메티스]	[905701550]마법서 (뱀파이어릭 터치)(0)
2017-03-26 12:32:55	삭제	asdf1234:[메티스]	[905701551]마법서 (슬로우)(0)
2017-03-26 12:32:55	삭제	asdf1234:[메티스]	[905701552]마법서 (카운터 매직)(0)
2017-03-26 12:32:55	삭제	asdf1234:[메티스]	[905701553]마법서 (메디테이션)(0)
2017-03-26 12:33:16	삭제	asdf1234:[메티스]	[905700997]4~6단계 마법서(0)
2017-03-26 12:33:16	삭제	asdf1234:[메티스]	[905700998]4~10단계 마법서(0)
2017-03-26 12:33:16	삭제	asdf1234:[메티스]	[905701548]마법서 (인챈트 덱스터리티)(0)
2017-03-26 12:33:16	삭제	asdf1234:[메티스]	[905701547]마법서 (파이어볼)(0)
2017-03-26 12:33:16	삭제	asdf1234:[메티스]	[905701003]마법서 (앱솔루트 배리어)(0)
2017-03-26 12:33:16	삭제	asdf1234:[메티스]	[905701549]마법서 (웨폰 브레이크)(0)
2017-03-26 12:36:48	삭제	asdf1234:[메티스]	[905704284]고기(12)
2017-03-26 20:41:20	삭제	jms3206:[토시오]	[905751529]아크프리패스 상자(0)
2017-03-26 20:43:45	삭제	jms3206:[토시오]	[905751525]신규 혈맹 가입 주문서(0)
2017-03-26 20:43:47	삭제	jms3206:[토시오]	[905751526]속도향상 물약(2)
2017-03-26 20:43:52	삭제	jms3206:[토시오]	[905751528]마법인형 : 쫄법사(0)
2017-03-26 21:29:00	삭제	kobongsu:[데스나이트]	[905764041]+7파푸리온의 예지력
2017-03-26 21:39:50	삭제	kobongsu:[데스나이트]	[905773406]+5체력의 가더
2017-03-26 21:39:50	삭제	kobongsu:[데스나이트]	[905769193]+5체력의 가더
2017-03-26 21:39:50	삭제	kobongsu:[데스나이트]	[905769962]+5체력의 가더
2017-03-26 21:39:50	삭제	kobongsu:[데스나이트]	[905770735]+5체력의 가더
2017-03-26 21:39:50	삭제	kobongsu:[데스나이트]	[905760625]+5체력의 가더
2017-03-26 21:41:54	삭제	kobongsu:[데스나이트]	[905745889]단검
2017-03-26 21:43:00	버리기	asdf1234:[메티스]	[905782428]+7야수왕의 크로우
2017-03-26 21:43:06	줍기	kobongsu:[데스나이트]	[905782428]+7야수왕의 크로우
2017-03-26 21:43:36	버리기	asdf1234:[메티스]	[905782709]+7\aH붉은 그림자의 이도류
2017-03-26 21:43:37	줍기	kobongsu:[데스나이트]	[905782709]+7\aH붉은 그림자의 이도류
2017-03-26 21:45:06	삭제	asdf1234:[메티스]	[905782709]+7\aH붉은 그림자의 이도류
2017-03-26 21:45:19	버리기	asdf1234:[메티스]	[905783229]+7\aF타이탄의 분노
2017-03-26 21:45:21	버리기	asdf1234:[메티스]	[905783496]+7\aF타이탄의 분노
2017-03-26 21:45:22	줍기	jms3206:[토시오]	[905783229]+7\aF타이탄의 분노
2017-03-26 21:45:23	줍기	jms3206:[토시오]	[905783496]+7\aF타이탄의 분노
2017-03-26 21:45:52	버리기	asdf1234:[메티스]	[905783723]+7\aH붉은 그림자의 이도류
2017-03-26 21:45:53	줍기	kobongsu:[데스나이트]	[905783723]+7\aH붉은 그림자의 이도류
2017-03-26 21:45:58	삭제	jms3206:[토시오]	[905751790]+9태풍의 도끼
2017-03-26 21:45:58	삭제	jms3206:[토시오]	[905753444]+9태풍의 도끼
2017-03-26 21:48:52	삭제	kobongsu:[데스나이트]	[905782428]+7야수왕의 크로우
2017-03-26 21:53:39	삭제	jms3206:[토시오]	[905777107]+9태풍의 도끼
2017-03-26 21:53:39	삭제	jms3206:[토시오]	[905776973]+9태풍의 도끼
2017-03-26 21:53:39	삭제	jms3206:[토시오]	[905776487]+9태풍의 도끼
2017-03-26 21:53:39	삭제	jms3206:[토시오]	[905775461]+9태풍의 도끼
2017-03-26 21:53:39	삭제	jms3206:[토시오]	[905775905]+9태풍의 도끼
2017-03-26 21:53:39	삭제	jms3206:[토시오]	[905774411]+9태풍의 도끼
2017-03-26 21:53:39	삭제	jms3206:[토시오]	[905774551]+9태풍의 도끼
2017-03-26 21:53:39	삭제	jms3206:[토시오]	[905776002]+9태풍의 도끼
2017-03-26 21:53:39	삭제	jms3206:[토시오]	[905776408]+9태풍의 도끼
2017-03-26 21:53:39	삭제	jms3206:[토시오]	[905775138]+9태풍의 도끼
2017-03-26 21:55:43	삭제	kobongsu:[데스나이트]	[905788247]갑옷 마법 주문서(0)
2017-03-26 22:04:26	줍기	asdf1234:[메티스]	[905792200]생명의 나뭇잎(1)
2017-03-26 22:17:47	삭제	kobongsu:[데스나이트]	[905745889]단검
2017-03-26 22:18:57	버리기	asdf1234:[메티스]	[905707458]NPC 드랍확인막대(1)
2017-03-26 22:18:57	버리기	asdf1234:[메티스]	[905799038]할파스의 집념(1)
2017-03-26 22:18:57	버리기	asdf1234:[메티스]	[905792200]생명의 나뭇잎(1)
2017-03-26 22:19:00	버리기	asdf1234:[메티스]	[905796337]빈 주문서 (레벨 2)(2)
2017-03-26 22:19:03	버리기	asdf1234:[메티스]	[905792806]빈 주문서 (레벨 1)(2)
2017-03-26 22:19:06	버리기	asdf1234:[메티스]	[905792416]고대의 무기 연금 두루마리(5)
2017-03-26 22:19:09	버리기	asdf1234:[메티스]	[905792202]빈 주문서 (레벨 5)(4)
2017-03-26 22:24:17	줍기	asdf1234:[메티스]	[905801972]영생의 빛
2017-03-26 22:40:06	줍기	kobongsu:[데스나이트]	[905792095]고대 정령의 수정(1)
2017-03-26 22:41:00	줍기	kobongsu:[데스나이트]	[905793264]용기의 물약(1)
2017-03-26 22:41:10	줍기	kobongsu:[데스나이트]	[905793593]고대 마물의 가죽
2017-03-26 22:41:11	줍기	kobongsu:[데스나이트]	[905793476]고대의 갑옷 주술 두루마리(1)
2017-03-26 22:41:12	줍기	kobongsu:[데스나이트]	[905793591]용기의 물약(1)
2017-03-26 22:43:02	줍기	kobongsu:[데스나이트]	[905811314]생명의 나뭇잎(1)
2017-03-26 22:46:34	줍기	kobongsu:[데스나이트]	[905814073]고대의 갑옷 주술 두루마리(2)
2017-03-26 22:47:11	줍기	kobongsu:[데스나이트]	[905814290]고대의 갑옷 주술 두루마리(2)
2017-03-26 22:47:11	줍기	kobongsu:[데스나이트]	[905814418]고대의 갑옷 주술 두루마리(1)
2017-03-26 22:47:12	줍기	kobongsu:[데스나이트]	[905814419]마프르의 유산(1)
2017-03-26 22:47:13	줍기	kobongsu:[데스나이트]	[905814416]마나 회복 물약(1)
2017-03-26 22:47:50	줍기	jms3206:[토시오]	[905812938]엘븐 와퍼(1)
2017-03-26 22:48:06	줍기	kobongsu:[데스나이트]	[905814658]고대의 갑옷 주술 두루마리(1)
2017-03-26 22:48:06	줍기	kobongsu:[데스나이트]	[905814666]에바의 유산(1)
2017-03-26 22:48:59	줍기	jms3206:[토시오]	[905812946]기술서 (리덕션 아머)(1)
2017-03-26 22:49:50	줍기	kobongsu:[데스나이트]	[905815863]양손검
2017-03-26 22:49:51	줍기	kobongsu:[데스나이트]	[905815809]고대의 갑옷 주술 두루마리(2)
2017-03-26 22:51:06	줍기	kobongsu:[데스나이트]	[905816037]고대의 갑옷 주술 두루마리(1)
2017-03-26 22:51:08	줍기	kobongsu:[데스나이트]	[905816074]고대의 갑옷 주술 두루마리(1)
2017-03-26 22:51:10	줍기	kobongsu:[데스나이트]	[905816366]고대 마물의 가죽
2017-03-26 22:51:53	줍기	kobongsu:[데스나이트]	[905816789]마프르의 유산(1)
2017-03-26 22:51:55	줍기	kobongsu:[데스나이트]	[905816788]고대의 갑옷 주술 두루마리(2)
2017-03-26 22:53:11	줍기	kobongsu:[데스나이트]	[905817633]지혜의 물약(1)
2017-03-26 22:53:24	줍기	jms3206:[토시오]	[905817926]오만의 탑 \aG[1층]\aA 이동 주문서(1)
2017-03-26 22:53:25	줍기	jms3206:[토시오]	[905817932]오만의 탑 \aG[1층]\aA 이동 주문서(1)
2017-03-26 22:54:21	줍기	kobongsu:[데스나이트]	[905818179]마나 회복 물약(1)
2017-03-26 22:54:22	줍기	kobongsu:[데스나이트]	[905818181]영생의 빛
2017-03-26 22:54:23	줍기	jms3206:[토시오]	[905817340]오만의 탑 \aG[8층]\aA 이동 주문서(1)
2017-03-26 22:55:23	버리기	jms3206:[토시오]	[905812946]기술서 (리덕션 아머)(1)
2017-03-26 22:55:28	삭제	jms3206:[토시오]	[905817925]키메라의 가죽 (뱀)(2)
2017-03-26 22:55:28	삭제	jms3206:[토시오]	[905817924]키메라의 가죽 (사자)(2)
2017-03-26 22:55:28	삭제	jms3206:[토시오]	[905817923]키메라의 가죽 (산양)(2)
2017-03-26 22:55:28	삭제	jms3206:[토시오]	[905817922]키메라의 가죽 (용)(2)
2017-03-26 22:56:52	줍기	jms3206:[토시오]	[905819761]마나 회복 물약(1)
2017-03-26 22:57:07	줍기	jms3206:[토시오]	[905820019]오만의 탑 \aG[3층]\aA 이동 주문서(1)
2017-03-26 22:57:12	줍기	jms3206:[토시오]	[905820017]마나 회복 물약(1)
2017-03-26 22:57:58	줍기	jms3206:[토시오]	[905820352]오만의 탑 \aG[1층]\aA 이동 주문서(1)
2017-03-26 22:57:59	줍기	jms3206:[토시오]	[905820349]기운을 잃은 봉인된 오만의 탑 1층 이동 부적(1)
2017-03-26 22:58:03	줍기	jms3206:[토시오]	[905820338]오만의 탑 \aG[6층]\aA 이동 주문서(1)
2017-03-26 22:58:40	줍기	jms3206:[토시오]	[905820834]기운을 잃은 봉인된 오만의 탑 3층 이동 부적(1)
2017-03-26 23:01:12	줍기	jms3206:[토시오]	[905822177]마나 회복 물약(1)
2017-03-26 23:02:01	줍기	jms3206:[토시오]	[905822373]오만의 탑 \aG[2층]\aA 이동 주문서(1)
2017-03-26 23:02:50	줍기	jms3206:[토시오]	[905823098]오만의 탑 \aG[4층]\aA 이동 주문서(1)
2017-03-26 23:03:38	버리기	asdf1234:[메티스]	[905800630]픽시의깃털(6)
2017-03-26 23:03:41	버리기	asdf1234:[메티스]	[905801972]영생의 빛
2017-03-26 23:03:44	버리기	asdf1234:[메티스]	[905792120]고대의 무기 연금 두루마리(10)
2017-03-26 23:03:54	삭제	asdf1234:[메티스]	[905800631]빈 주문서 (레벨 4)(3)
2017-03-26 23:03:54	삭제	asdf1234:[메티스]	[905800459]빈 주문서 (레벨 2)(3)
2017-03-26 23:03:54	삭제	asdf1234:[메티스]	[905800633]빈 주문서 (레벨 1)(3)
2017-03-26 23:03:54	삭제	asdf1234:[메티스]	[905800632]빈 주문서 (레벨 5)(2)
2017-03-26 23:05:35	줍기	jms3206:[토시오]	[905824186]오만의 탑 \aG[3층]\aA 이동 주문서(1)
2017-03-26 23:06:43	줍기	jms3206:[토시오]	[905820927]오만의 탑 \aG[1층]\aA 이동 주문서(1)
2017-03-26 23:08:06	줍기	jms3206:[토시오]	[905825622]오만의 탑 \aG[6층]\aA 이동 주문서(1)
2017-03-26 23:09:06	줍기	jms3206:[토시오]	[905826362]오만의 탑 \aG[10층]\aA 이동 주문서(1)
2017-03-26 23:10:30	줍기	jms3206:[토시오]	[905822381]기운을 잃은 봉인된 오만의 탑 4층 이동 부적(1)
2017-03-26 23:10:40	줍기	jms3206:[토시오]	[905826896]오만의 탑 \aG[6층]\aA 이동 주문서(1)
2017-03-26 23:11:26	줍기	jms3206:[토시오]	[905824140]기운을 잃은 봉인된 오만의 탑 3층 이동 부적(1)
2017-03-26 23:12:00	줍기	jms3206:[토시오]	[905828029]오만의 탑 \aG[4층]\aA 이동 주문서(1)
2017-03-26 23:17:47	줍기	jms3206:[토시오]	[905830999]마물의 기운(1)
2017-03-26 23:17:52	줍기	jms3206:[토시오]	[905830992]마물의 기운(5)
2017-03-26 23:18:02	줍기	jms3206:[토시오]	[905830994]마물의 기운(5)
2017-03-26 23:18:03	줍기	jms3206:[토시오]	[905830996]마물의 기운(5)
2017-03-26 23:18:19	줍기	jms3206:[토시오]	[905831263]마물의 기운(2)
2017-03-26 23:39:07	줍기	jms3206:[토시오]	[905831514]마물의 기운(3)
2017-03-26 23:39:13	줍기	jms3206:[토시오]	[905831492]마물의 기운(2)
2017-03-26 23:39:51	줍기	jms3206:[토시오]	[905842769]마물의 기운(2)
2017-03-26 23:40:42	줍기	jms3206:[토시오]	[905842988]악마의 이도류
2017-03-26 23:43:41	줍기	jms3206:[토시오]	[905845036]기운을 잃은 바포메트의 지팡이(1)
2017-03-26 23:43:42	줍기	jms3206:[토시오]	[905845038]영혼석(데몬)
2017-03-26 23:43:45	줍기	jms3206:[토시오]	[905845049]마물의 기운(2)
2017-03-26 23:44:24	줍기	jms3206:[토시오]	[905845415]마물의 기운(3)
2017-03-26 23:44:37	줍기	jms3206:[토시오]	[905845420]마물의 기운(2)
2017-03-26 23:44:38	줍기	jms3206:[토시오]	[905845493]마물의 기운(3)
2017-03-26 23:44:44	줍기	jms3206:[토시오]	[905845598]악마의 피(1)
2017-03-26 23:45:04	줍기	jms3206:[토시오]	[905845782]마물의 기운(1)
2017-03-26 23:45:18	줍기	jms3206:[토시오]	[905845861]마물의 기운(3)
2017-03-26 23:45:54	줍기	jms3206:[토시오]	[905846201]마물의 기운(5)
2017-03-26 23:46:10	줍기	jms3206:[토시오]	[905846212]마물의 기운(3)
2017-03-26 23:47:00	줍기	jms3206:[토시오]	[905846789]마물의 기운(5)
2017-03-26 23:47:08	줍기	jms3206:[토시오]	[905846845]영혼석(하딘의 분신)
2017-03-26 23:47:50	줍기	jms3206:[토시오]	[905847262]악마의 피(1)
2017-03-26 23:47:51	줍기	jms3206:[토시오]	[905847264]영혼석(하딘의 분신)
2017-03-26 23:47:58	줍기	jms3206:[토시오]	[905847111]영혼석(데몬)
2017-03-26 23:49:38	삭제	kobongsu:[데스나이트]	[905745889]단검
2017-03-26 23:49:48	버리기	jms3206:[토시오]	[905842988]악마의 이도류
2017-03-26 23:54:46	삭제	jms3206:[토시오]	[905849267]훈련소 열쇠
2017-03-26 23:54:46	삭제	jms3206:[토시오]	[905849264]훈련소 열쇠
2017-03-26 23:54:46	삭제	jms3206:[토시오]	[905849265]훈련소 열쇠
2017-03-26 23:54:46	삭제	jms3206:[토시오]	[905849266]훈련소 열쇠
