2016-12-01 00:05:29	접속 캐릭=끝	계정=matis	IP=175.205.201.146
2016-12-01 00:12:39	종료 캐릭=끝 계정=matis IP=175.205.201.146
2016-12-01 00:12:44	접속 캐릭=끝	계정=matis	IP=175.205.201.146
2016-12-01 00:29:42	접속 캐릭=끝	계정=matis	IP=175.205.201.146
2016-12-01 00:32:18	접속 캐릭=끝	계정=matis	IP=175.205.201.146
2016-12-01 00:34:26	종료 캐릭=끝 계정=matis IP=175.205.201.146
2016-12-01 00:34:31	접속 캐릭=끝	계정=matis	IP=175.205.201.146
2016-12-01 00:43:00	종료 캐릭=끝 계정=matis IP=175.205.201.146
2016-12-01 00:43:04	접속 캐릭=끝	계정=matis	IP=175.205.201.146
2016-12-01 00:43:47	종료 캐릭=끝 계정=matis IP=175.205.201.146
2016-12-01 00:45:50	접속 캐릭=끝	계정=matis	IP=175.205.201.146
2016-12-01 00:47:07	종료 캐릭=끝 계정=matis IP=175.205.201.146
2016-12-01 00:47:56	접속 캐릭=끝	계정=matis	IP=175.205.201.146
2016-12-01 00:49:48	접속 캐릭=끝	계정=matis	IP=175.205.201.146
2016-12-01 00:51:27	종료 캐릭=끝 계정=matis IP=175.205.201.146
2016-12-01 00:51:31	접속 캐릭=끝	계정=matis	IP=175.205.201.146
2016-12-01 00:52:32	종료 캐릭=끝 계정=matis IP=175.205.201.146
2016-12-01 00:57:00	접속 캐릭=끝	계정=matis	IP=175.205.201.146
2016-12-01 00:58:17	종료 캐릭=끝 계정=matis IP=175.205.201.146
2016-12-01 00:59:08	접속 캐릭=끝	계정=matis	IP=175.205.201.146
2016-12-01 01:02:51	종료 캐릭=끝 계정=matis IP=175.205.201.146
2016-12-01 01:58:35	접속 캐릭=끝	계정=matis	IP=175.205.201.146
2016-12-01 01:59:03	종료 캐릭=끝 계정=matis IP=175.205.201.146
2016-12-01 02:00:39	접속 캐릭=끝	계정=matis	IP=175.205.201.146
2016-12-01 02:04:27	접속 캐릭=끝	계정=matis	IP=175.205.201.146
2016-12-01 02:07:21	접속 캐릭=끝	계정=matis	IP=175.205.201.146
2016-12-01 02:09:50	접속 캐릭=끝	계정=matis	IP=175.205.201.146
2016-12-01 02:10:48	종료 캐릭=끝 계정=matis IP=175.205.201.146
2016-12-01 02:10:53	접속 캐릭=끝	계정=matis	IP=175.205.201.146
2016-12-01 02:11:17	종료 캐릭=끝 계정=matis IP=175.205.201.146
2016-12-01 02:36:04	접속 캐릭=끝	계정=matis	IP=175.205.201.146
2016-12-01 02:43:00	종료 캐릭=끝 계정=matis IP=175.205.201.146
2016-12-01 02:43:05	접속 캐릭=끝	계정=matis	IP=175.205.201.146
2016-12-01 03:00:28	종료 캐릭=끝 계정=matis IP=175.205.201.146
2016-12-01 03:02:33	접속 캐릭=끝	계정=matis	IP=175.205.201.146
2016-12-01 03:24:33	접속 캐릭=끝	계정=matis	IP=175.205.201.146
2016-12-01 03:41:25	접속 캐릭=끝	계정=matis	IP=175.205.201.146
2016-12-01 03:45:03	종료 캐릭=끝 계정=matis IP=175.205.201.146
2016-12-01 03:45:15	접속 캐릭=끝	계정=matis	IP=175.205.201.146
2016-12-01 03:46:29	종료 캐릭=끝 계정=matis IP=175.205.201.146
2016-12-01 03:48:47	접속 캐릭=끝	계정=matis	IP=175.205.201.146
2016-12-01 03:49:33	종료 캐릭=끝 계정=matis IP=175.205.201.146
2016-12-01 03:49:48	접속 캐릭=끝	계정=matis	IP=175.205.201.146
2016-12-01 03:50:07	종료 캐릭=끝 계정=matis IP=175.205.201.146
2016-12-01 03:55:34	접속 캐릭=끝	계정=matis	IP=175.205.201.146
2016-12-01 04:04:23	접속 캐릭=끝	계정=matis	IP=175.205.201.146
2016-12-01 04:22:21	접속 캐릭=끝	계정=matis	IP=175.205.201.146
2016-12-01 04:26:18	접속 캐릭=끝	계정=matis	IP=175.205.201.146
2016-12-01 04:32:20	접속 캐릭=끝	계정=matis	IP=175.205.201.146
2016-12-01 04:34:28	접속 캐릭=끝	계정=matis	IP=175.205.201.146
2016-12-01 04:36:15	종료 캐릭=끝 계정=matis IP=175.205.201.146
2016-12-01 04:36:26	접속 캐릭=끝	계정=matis	IP=175.205.201.146
2016-12-01 04:37:49	접속 캐릭=끝	계정=matis	IP=175.205.201.146
2016-12-01 04:41:19	접속 캐릭=멧	계정=matis	IP=175.205.201.146
2016-12-01 04:41:42	종료 캐릭=멧 계정=matis IP=175.205.201.146
2016-12-01 04:42:21	접속 캐릭=끝	계정=matis	IP=175.205.201.146
2016-12-01 04:42:32	종료 캐릭=끝 계정=matis IP=175.205.201.146
2016-12-01 04:42:34	접속 캐릭=멧	계정=matis	IP=175.205.201.146
2016-12-01 04:46:14	종료 캐릭=멧 계정=matis IP=175.205.201.146
2016-12-01 04:46:18	접속 캐릭=멧	계정=matis	IP=175.205.201.146
2016-12-01 04:47:42	종료 캐릭=멧 계정=matis IP=175.205.201.146
2016-12-01 04:47:46	접속 캐릭=멧	계정=matis	IP=175.205.201.146
2016-12-01 04:49:41	접속 캐릭=멧	계정=matis	IP=175.205.201.146
2016-12-01 04:50:21	종료 캐릭=멧 계정=matis IP=175.205.201.146
2016-12-01 04:50:48	접속 캐릭=멧	계정=matis	IP=175.205.201.146
2016-12-01 04:52:11	종료 캐릭=멧 계정=matis IP=175.205.201.146
2016-12-01 04:52:27	접속 캐릭=멧	계정=matis	IP=175.205.201.146
2016-12-01 04:58:32	접속 캐릭=멧	계정=matis	IP=175.205.201.146
2016-12-01 14:00:21	종료 캐릭=멧 계정=matis IP=175.205.201.146
2016-12-01 14:00:25	접속 캐릭=멧	계정=matis	IP=175.205.201.146
2016-12-01 14:04:00	접속 캐릭=멧	계정=matis	IP=175.205.201.146
2016-12-01 14:05:53	종료 캐릭=멧 계정=matis IP=175.205.201.146
2016-12-01 14:08:03	접속 캐릭=멧	계정=matis	IP=175.205.201.146
2016-12-01 14:08:30	종료 캐릭=멧 계정=matis IP=175.205.201.146
2016-12-01 14:10:48	접속 캐릭=멧	계정=matis	IP=175.205.201.146
2016-12-01 14:11:16	종료 캐릭=멧 계정=matis IP=175.205.201.146
2016-12-01 14:27:22	접속 캐릭=끝	계정=matis	IP=175.205.201.146
2016-12-01 15:16:24	종료 캐릭=끝 계정=matis IP=175.205.201.146
2016-12-01 17:36:41	접속 캐릭=멧	계정=matis	IP=175.205.201.146
2016-12-01 18:39:52	접속 캐릭=멧	계정=matis	IP=175.205.201.146
2016-12-01 18:51:57	접속 캐릭=끝	계정=matis	IP=175.205.201.146
2016-12-01 18:53:36	종료 캐릭=끝 계정=matis IP=175.205.201.146
2016-12-01 20:58:25	접속 캐릭=멧	계정=matis	IP=175.205.201.146
