2016-09-27 17:23:37	외침	[메티스]	ㄹㄹ
2016-09-27 17:23:44	외침	[메티스]	ㄹㄹ
2016-09-27 18:07:07	외침	[메티스]	ㅎㅎ
2016-09-27 18:10:22	외침	[메티스]	ㄹㄹㄹ
2016-09-27 18:10:24	외침	[메티스]	ㄹ.
2016-09-27 18:12:39	외침	[메티스]	ㄴㄴ
2016-09-27 18:12:50	외침	[메티스]	ㅎㅎㅎㅎㅎㅎㅎ
2016-09-27 18:12:52	외침	[메티스]	ㄴㄴ
2016-09-27 18:12:59	외침	[메티스]	ㅁㄴㄻㄴㄹ
2016-09-27 20:27:42	외침	[메티스]	ㄹ
2016-09-27 20:33:33	외침	[메티스]	ㄹ.테
2016-09-27 21:34:53	외침	[메티스]	ㄴㄴ
2016-09-27 21:34:59	외침	[메티스]	ㄹㄹ
2016-09-27 21:35:00	외침	[메티스]	ㄹ
2016-09-27 21:35:00	외침	[메티스]	ㄹ
2016-09-27 21:36:34	외침	[메티스]	ㅇㅇ
2016-09-27 21:37:14	외침	[메티스]	ㄴㄴ
2016-09-27 21:37:58	외침	[메티스]	ㄹㄹ
2016-09-27 21:38:13	외침	[메티스]	ㄴㄴ
