2017-04-01 01:18:22	버리기	gkgk1:[하하]	[905639330]성장의 문장 주머니(100)
2017-04-01 02:52:48	버리기	gkgk1:[하하]	[905767657]드래곤의 유물 주머니(299)
2017-04-01 02:52:51	줍기	gkgk1:[하하]	[905767657]드래곤의 유물 주머니(299)
2017-04-01 03:18:38	버리기	gkgk1:[하하]	[905866359]강화된 드래곤의 유물 주머니(완력)(1)
