2016-12-08 02:46:48	외침	[토스]	dfd
2016-12-08 02:46:49	외침	[토스]	zd.
2016-12-08 03:28:32	외침	[토스]	ㄷㄷ
2016-12-08 23:08:54	외침	[토스]	장비교환권
2016-12-08 23:56:59	전체	[둘러보자]	접속했습니다
2016-12-08 23:58:53	외침	[둘러보자]	오
2016-12-08 23:59:16	외침	[둘러보자]	집행급무기만
