2017-03-02 00:36:13	버리기	guswns1:[메티스]	[905614953]랭커변신주문서(10)
2017-03-02 00:36:16	줍기	leegyuhwa:[요정]	[905614982]랭커변신주문서(10)
2017-03-02 00:37:27	버리기	guswns1:[메티스]	[905615447]드래곤 슬레이어
2017-03-02 00:38:47	줍기	guswns1:[메티스]	[905615447]드래곤 슬레이어
2017-03-02 00:45:09	버리기	guswns1:[메티스]	[905615447]드래곤 슬레이어
2017-03-02 00:45:11	줍기	leegyuhwa:[요정]	[905615447]드래곤 슬레이어
2017-03-02 00:45:29	버리기	guswns1:[메티스]	[905618804]+10드래곤 슬레이어
2017-03-02 00:45:30	줍기	leegyuhwa:[요정]	[905618804]+10드래곤 슬레이어
2017-03-02 00:47:59	버리기	guswns1:[메티스]	[905619585]+6발라카스의 인내력
2017-03-02 00:47:59	버리기	guswns1:[메티스]	[905619653]+6안타라스의 인내력
2017-03-02 00:47:59	버리기	guswns1:[메티스]	[905619746]+6린드비오르의 인내력
2017-03-02 00:47:59	버리기	guswns1:[메티스]	[905619703]+6파푸리온의 인내력
2017-03-02 00:48:00	줍기	leegyuhwa:[요정]	[905619585]+6발라카스의 인내력
2017-03-02 00:48:01	줍기	leegyuhwa:[요정]	[905619653]+6안타라스의 인내력
2017-03-02 00:48:02	줍기	leegyuhwa:[요정]	[905619703]+6파푸리온의 인내력
2017-03-02 00:48:02	줍기	leegyuhwa:[요정]	[905619746]+6린드비오르의 인내력
2017-03-02 00:48:38	버리기	guswns1:[메티스]	[905619910]안타라스의 숨결
2017-03-02 00:48:38	버리기	guswns1:[메티스]	[905619942]안타라스의 숨결
2017-03-02 00:48:38	버리기	guswns1:[메티스]	[905619946]안타라스의 숨결
2017-03-02 00:48:38	버리기	guswns1:[메티스]	[905619945]안타라스의 숨결
2017-03-02 00:48:38	버리기	guswns1:[메티스]	[905619944]안타라스의 숨결
2017-03-02 00:48:38	버리기	guswns1:[메티스]	[905619943]안타라스의 숨결
2017-03-02 00:48:38	버리기	guswns1:[메티스]	[905619947]안타라스의 숨결
2017-03-02 00:48:38	버리기	guswns1:[메티스]	[905619948]안타라스의 숨결
2017-03-02 00:48:43	버리기	guswns1:[메티스]	[905619949]안타라스의 숨결
2017-03-02 00:48:43	버리기	guswns1:[메티스]	[905619950]안타라스의 숨결
2017-03-02 00:48:43	버리기	guswns1:[메티스]	[905619956]안타라스의 숨결
2017-03-02 00:48:43	버리기	guswns1:[메티스]	[905619955]안타라스의 숨결
2017-03-02 00:48:43	버리기	guswns1:[메티스]	[905619954]안타라스의 숨결
2017-03-02 00:48:43	버리기	guswns1:[메티스]	[905619953]안타라스의 숨결
2017-03-02 00:48:43	버리기	guswns1:[메티스]	[905619957]안타라스의 숨결
2017-03-02 00:48:43	버리기	guswns1:[메티스]	[905619958]안타라스의 숨결
2017-03-02 00:48:48	줍기	leegyuhwa:[요정]	[905619910]안타라스의 숨결
2017-03-02 00:48:49	줍기	leegyuhwa:[요정]	[905619942]안타라스의 숨결
2017-03-02 00:48:49	버리기	guswns1:[메티스]	[905619959]안타라스의 숨결
2017-03-02 00:48:49	버리기	guswns1:[메티스]	[905619960]안타라스의 숨결
2017-03-02 00:48:49	버리기	guswns1:[메티스]	[905619964]안타라스의 숨결
2017-03-02 00:48:49	버리기	guswns1:[메티스]	[905619963]안타라스의 숨결
2017-03-02 00:48:50	줍기	leegyuhwa:[요정]	[905619943]안타라스의 숨결
2017-03-02 00:48:51	줍기	leegyuhwa:[요정]	[905619944]안타라스의 숨결
2017-03-02 00:48:51	줍기	leegyuhwa:[요정]	[905619945]안타라스의 숨결
2017-03-02 00:48:52	줍기	leegyuhwa:[요정]	[905619946]안타라스의 숨결
2017-03-02 00:48:53	줍기	leegyuhwa:[요정]	[905619947]안타라스의 숨결
2017-03-02 00:48:53	줍기	leegyuhwa:[요정]	[905619948]안타라스의 숨결
2017-03-02 00:48:54	줍기	leegyuhwa:[요정]	[905619949]안타라스의 숨결
2017-03-02 00:48:55	줍기	leegyuhwa:[요정]	[905619950]안타라스의 숨결
2017-03-02 00:49:04	줍기	leegyuhwa:[요정]	[905619953]안타라스의 숨결
2017-03-02 00:49:05	줍기	leegyuhwa:[요정]	[905619954]안타라스의 숨결
2017-03-02 00:49:05	줍기	leegyuhwa:[요정]	[905619955]안타라스의 숨결
2017-03-02 00:49:06	줍기	leegyuhwa:[요정]	[905619956]안타라스의 숨결
2017-03-02 00:49:07	줍기	leegyuhwa:[요정]	[905619957]안타라스의 숨결
2017-03-02 00:49:08	줍기	leegyuhwa:[요정]	[905619958]안타라스의 숨결
2017-03-02 00:49:09	줍기	leegyuhwa:[요정]	[905619959]안타라스의 숨결
2017-03-02 00:49:09	삭제	guswns1:[메티스]	[905619982]안타라스의 숨결
2017-03-02 00:49:09	삭제	guswns1:[메티스]	[905619981]안타라스의 숨결
2017-03-02 00:49:09	삭제	guswns1:[메티스]	[905619977]안타라스의 숨결
2017-03-02 00:49:09	삭제	guswns1:[메티스]	[905619978]안타라스의 숨결
2017-03-02 00:49:09	삭제	guswns1:[메티스]	[905619979]안타라스의 숨결
2017-03-02 00:49:09	삭제	guswns1:[메티스]	[905619980]안타라스의 숨결
2017-03-02 00:49:09	삭제	guswns1:[메티스]	[905619976]안타라스의 숨결
2017-03-02 00:49:09	삭제	guswns1:[메티스]	[905619975]안타라스의 숨결
2017-03-02 00:49:09	삭제	guswns1:[메티스]	[905619974]안타라스의 숨결
2017-03-02 00:49:09	삭제	guswns1:[메티스]	[905619973]안타라스의 숨결
2017-03-02 00:49:09	삭제	guswns1:[메티스]	[905619969]안타라스의 숨결
2017-03-02 00:49:09	삭제	guswns1:[메티스]	[905619970]안타라스의 숨결
2017-03-02 00:49:09	삭제	guswns1:[메티스]	[905619971]안타라스의 숨결
2017-03-02 00:49:09	삭제	guswns1:[메티스]	[905619972]안타라스의 숨결
2017-03-02 00:49:09	삭제	guswns1:[메티스]	[905619968]안타라스의 숨결
2017-03-02 00:49:09	삭제	guswns1:[메티스]	[905619967]안타라스의 숨결
2017-03-02 00:49:09	삭제	guswns1:[메티스]	[905619966]안타라스의 숨결
2017-03-02 00:49:09	삭제	guswns1:[메티스]	[905619965]안타라스의 숨결
2017-03-02 00:49:09	삭제	guswns1:[메티스]	[905619962]안타라스의 숨결
2017-03-02 00:49:09	삭제	guswns1:[메티스]	[905619961]안타라스의 숨결
2017-03-02 00:49:10	줍기	leegyuhwa:[요정]	[905619960]안타라스의 숨결
2017-03-02 00:49:11	줍기	leegyuhwa:[요정]	[905619963]안타라스의 숨결
2017-03-02 00:49:12	줍기	leegyuhwa:[요정]	[905619964]안타라스의 숨결
2017-03-02 00:51:04	버리기	guswns1:[메티스]	[905621000]발라카스의 숨결(20)
2017-03-02 00:51:13	줍기	leegyuhwa:[요정]	[905621000]발라카스의 숨결(20)
2017-03-02 00:51:33	버리기	guswns1:[메티스]	[905621185]파푸리온의 숨결(20)
2017-03-02 00:51:39	줍기	leegyuhwa:[요정]	[905621185]파푸리온의 숨결(20)
2017-03-02 00:52:12	삭제	guswns1:[메티스]	[905621402]린드비오르의 숨결
2017-03-02 00:52:12	삭제	guswns1:[메티스]	[905621401]린드비오르의 숨결
2017-03-02 00:52:12	삭제	guswns1:[메티스]	[905621400]린드비오르의 숨결
2017-03-02 00:52:12	삭제	guswns1:[메티스]	[905621396]린드비오르의 숨결
2017-03-02 00:52:12	삭제	guswns1:[메티스]	[905621397]린드비오르의 숨결
2017-03-02 00:52:12	삭제	guswns1:[메티스]	[905621399]린드비오르의 숨결
2017-03-02 00:52:12	삭제	guswns1:[메티스]	[905621398]린드비오르의 숨결
2017-03-02 00:52:12	삭제	guswns1:[메티스]	[905621395]린드비오르의 숨결
2017-03-02 00:52:12	삭제	guswns1:[메티스]	[905621394]린드비오르의 숨결
2017-03-02 00:52:12	삭제	guswns1:[메티스]	[905621393]린드비오르의 숨결
2017-03-02 00:52:12	삭제	guswns1:[메티스]	[905621392]린드비오르의 숨결
2017-03-02 00:52:12	삭제	guswns1:[메티스]	[905621388]린드비오르의 숨결
2017-03-02 00:52:12	삭제	guswns1:[메티스]	[905621389]린드비오르의 숨결
2017-03-02 00:52:12	삭제	guswns1:[메티스]	[905621390]린드비오르의 숨결
2017-03-02 00:52:12	삭제	guswns1:[메티스]	[905621391]린드비오르의 숨결
2017-03-02 00:52:12	삭제	guswns1:[메티스]	[905621387]린드비오르의 숨결
2017-03-02 00:52:12	삭제	guswns1:[메티스]	[905621386]린드비오르의 숨결
2017-03-02 00:52:12	삭제	guswns1:[메티스]	[905621385]린드비오르의 숨결
2017-03-02 00:52:12	삭제	guswns1:[메티스]	[905621384]린드비오르의 숨결
2017-03-02 00:52:12	삭제	guswns1:[메티스]	[905621383]린드비오르의 숨결
2017-03-02 00:52:28	버리기	guswns1:[메티스]	[905621586]린드비오르의 숨결(20)
2017-03-02 00:52:44	줍기	leegyuhwa:[요정]	[905621586]린드비오르의 숨결(20)
2017-03-02 00:52:57	버리기	leegyuhwa:[요정]	[905619964]안타라스의 숨결
2017-03-02 00:52:57	버리기	leegyuhwa:[요정]	[905619958]안타라스의 숨결
2017-03-02 00:52:57	버리기	leegyuhwa:[요정]	[905619959]안타라스의 숨결
2017-03-02 00:52:57	버리기	leegyuhwa:[요정]	[905619963]안타라스의 숨결
2017-03-02 00:52:57	버리기	leegyuhwa:[요정]	[905619957]안타라스의 숨결
2017-03-02 00:52:57	버리기	leegyuhwa:[요정]	[905619960]안타라스의 숨결
2017-03-02 00:52:57	버리기	leegyuhwa:[요정]	[905619956]안타라스의 숨결
2017-03-02 00:52:57	버리기	leegyuhwa:[요정]	[905619955]안타라스의 숨결
2017-03-02 00:53:01	줍기	leegyuhwa:[요정]	[905619955]안타라스의 숨결
2017-03-02 00:53:01	줍기	leegyuhwa:[요정]	[905619956]안타라스의 숨결
2017-03-02 00:53:02	줍기	leegyuhwa:[요정]	[905619957]안타라스의 숨결
2017-03-02 00:53:04	줍기	leegyuhwa:[요정]	[905619958]안타라스의 숨결
2017-03-02 00:53:04	줍기	leegyuhwa:[요정]	[905619959]안타라스의 숨결
2017-03-02 00:53:05	줍기	leegyuhwa:[요정]	[905619960]안타라스의 숨결
2017-03-02 00:53:06	줍기	leegyuhwa:[요정]	[905619963]안타라스의 숨결
2017-03-02 00:53:06	줍기	leegyuhwa:[요정]	[905619964]안타라스의 숨결
2017-03-02 00:58:16	버리기	guswns1:[메티스]	[905623836]+9완력의 문장
2017-03-02 00:58:21	줍기	guswns1:[메티스]	[905623836]+9완력의 문장
2017-03-02 00:58:24	버리기	guswns1:[메티스]	[905623836]+9완력의 문장
2017-03-02 00:58:34	줍기	guswns1:[메티스]	[905623836]+9완력의 문장
2017-03-02 01:02:57	버리기	guswns1:[메티스]	[905625636]마법인형 : 데스나이트
2017-03-02 01:02:58	줍기	leegyuhwa:[요정]	[905625636]마법인형 : 데스나이트
2017-03-02 01:05:07	버리기	guswns1:[메티스]	[905625479]축복받은 드래곤의 다이아몬드(1)
2017-03-02 01:05:12	버리기	guswns1:[메티스]	[905625699]드래곤의 고급 다이아몬드(1)
2017-03-02 01:05:15	버리기	guswns1:[메티스]	[905625433]드래곤의 다이아몬드(1)
2017-03-02 01:06:50	줍기	leegyuhwa:[요정]	[905625479]축복받은 드래곤의 다이아몬드(1)
2017-03-02 01:06:54	줍기	leegyuhwa:[요정]	[905626474]드래곤의 고급 다이아몬드(1)
2017-03-02 01:06:55	줍기	leegyuhwa:[요정]	[905625433]드래곤의 다이아몬드(1)
