2017-01-05 20:34:09	kjm1223:[달료]	실패	[298531595]+1\aH진명황의 집행검
2017-01-05 20:39:01	kjm1223:[달료]	실패	[298531701]+9진 레이피어
2017-01-05 20:39:11	kjm1223:[달료]	실패	[298531640]\aF타이탄의 분노
2017-01-05 20:39:12	kjm1223:[달료]	성공	[298531639]+1\aF타이탄의 분노
2017-01-05 20:39:13	kjm1223:[달료]	실패	[298531639]+1\aF타이탄의 분노
2017-01-05 20:39:16	kjm1223:[달료]	실패	[298531687]+7완력의 부츠
2017-01-05 20:39:18	kjm1223:[달료]	실패	[298531686]+7수호성의 파워 글로브
2017-01-05 20:39:20	kjm1223:[달료]	실패	[298531643]+7발라카스의 완력
2017-01-05 20:39:23	kjm1223:[달료]	실패	[298531698]+7거대 여왕 개미의 금빛 날개
2017-01-05 20:41:07	kjm1223:[달료]	실패	[298531667]+7신성한 마법 방어 투구
2017-01-05 21:04:31	matis:[메티스]	성공	[298532194]+1드래곤 슬레이어
2017-01-05 21:04:32	matis:[메티스]	성공	[298532194]+2드래곤 슬레이어
2017-01-05 21:04:33	matis:[메티스]	성공	[298532194]+3드래곤 슬레이어
2017-01-05 21:04:35	matis:[메티스]	성공	[298532194]+4드래곤 슬레이어
2017-01-05 21:05:04	dhodi:[용]	성공	[298531557]+2\aF크로노스의 공포
2017-01-05 21:05:05	dhodi:[용]	성공	[298531557]+3\aF크로노스의 공포
2017-01-05 21:05:05	dhodi:[용]	성공	[298531557]+4\aF크로노스의 공포
2017-01-05 21:05:06	dhodi:[용]	성공	[298531557]+5\aF크로노스의 공포
2017-01-05 21:05:12	dhodi:[용]	성공	[298531576]+9뱀파이어의 망토
2017-01-05 21:05:13	dhodi:[용]	성공	[298531576]+10뱀파이어의 망토
2017-01-05 21:05:18	dhodi:[용]	성공	[298531574]+8신성한 마법 방어 투구
2017-01-05 21:05:19	dhodi:[용]	성공	[298531574]+9신성한 마법 방어 투구
2017-01-05 21:05:19	dhodi:[용]	성공	[298531574]+10신성한 마법 방어 투구
2017-01-05 21:05:22	dhodi:[용]	성공	[298531590]+8완력의 부츠
2017-01-05 21:05:22	dhodi:[용]	성공	[298531590]+9완력의 부츠
2017-01-05 21:05:23	dhodi:[용]	성공	[298531590]+10완력의 부츠
2017-01-05 21:05:23	dhodi:[용]	성공	[298531591]+8수호성의 파워 글로브
2017-01-05 21:05:24	dhodi:[용]	성공	[298531591]+9수호성의 파워 글로브
2017-01-05 21:05:25	dhodi:[용]	성공	[298531591]+10수호성의 파워 글로브
2017-01-05 21:05:33	dhodi:[용]	성공	[298531597]+8발라카스의 예지력
2017-01-05 21:05:34	dhodi:[용]	성공	[298531597]+9발라카스의 예지력
2017-01-05 21:05:34	dhodi:[용]	성공	[298531597]+10발라카스의 예지력
2017-01-05 21:05:35	dhodi:[용]	성공	[298531593]+5수호의 가더
2017-01-05 21:05:36	dhodi:[용]	성공	[298531593]+6수호의 가더
2017-01-05 21:05:39	dhodi:[용]	성공	[298532192]+7격분의 장갑
2017-01-05 21:05:39	dhodi:[용]	성공	[298532192]+8격분의 장갑
2017-01-05 21:05:40	dhodi:[용]	성공	[298532192]+9격분의 장갑
2017-01-05 21:05:40	dhodi:[용]	성공	[298532192]+10격분의 장갑
2017-01-05 21:06:29	dhodi:[용]	성공	[298532206]+1드래곤 슬레이어
2017-01-05 21:06:29	dhodi:[용]	성공	[298532206]+2드래곤 슬레이어
2017-01-05 21:06:29	dhodi:[용]	성공	[298532206]+3드래곤 슬레이어
2017-01-05 21:06:29	dhodi:[용]	성공	[298532206]+4드래곤 슬레이어
2017-01-05 21:06:30	dhodi:[용]	성공	[298532206]+5드래곤 슬레이어
2017-01-05 21:08:31	dhodi:[용]	성공	[298532206]+6드래곤 슬레이어
2017-01-05 21:08:35	dhodi:[용]	성공	[298531557]+6\aF크로노스의 공포
2017-01-05 21:09:07	dhodi:[용]	성공	[298531557]+7\aF크로노스의 공포
2017-01-05 21:09:08	dhodi:[용]	성공	[298531557]+8\aF크로노스의 공포
2017-01-05 21:09:08	dhodi:[용]	성공	[298531557]+9\aF크로노스의 공포
2017-01-05 21:09:08	dhodi:[용]	성공	[298531557]+10\aF크로노스의 공포
2017-01-05 21:09:08	dhodi:[용]	성공	[298531557]+11\aF크로노스의 공포
2017-01-05 21:09:09	dhodi:[용]	성공	[298531557]+12\aF크로노스의 공포
2017-01-05 21:09:09	dhodi:[용]	성공	[298531557]+13\aF크로노스의 공포
2017-01-05 21:09:09	dhodi:[용]	성공	[298531557]+14\aF크로노스의 공포
2017-01-05 21:09:10	dhodi:[용]	성공	[298531557]+15\aF크로노스의 공포
2017-01-05 21:09:10	dhodi:[용]	성공	[298531557]+16\aF크로노스의 공포
2017-01-05 21:09:10	dhodi:[용]	성공	[298531557]+17\aF크로노스의 공포
2017-01-05 21:09:10	dhodi:[용]	성공	[298531557]+18\aF크로노스의 공포
2017-01-05 21:09:10	dhodi:[용]	성공	[298531557]+19\aF크로노스의 공포
2017-01-05 21:09:11	dhodi:[용]	성공	[298531557]+20\aF크로노스의 공포
2017-01-05 21:09:11	dhodi:[용]	성공	[298531557]+21\aF크로노스의 공포
2017-01-05 21:09:11	dhodi:[용]	성공	[298531557]+22\aF크로노스의 공포
2017-01-05 21:09:11	dhodi:[용]	성공	[298531557]+23\aF크로노스의 공포
2017-01-05 21:09:12	dhodi:[용]	성공	[298531557]+24\aF크로노스의 공포
2017-01-05 21:09:12	dhodi:[용]	성공	[298531557]+25\aF크로노스의 공포
2017-01-05 21:09:12	dhodi:[용]	성공	[298531557]+26\aF크로노스의 공포
2017-01-05 21:09:12	dhodi:[용]	성공	[298531557]+27\aF크로노스의 공포
2017-01-05 21:09:13	dhodi:[용]	성공	[298531557]+28\aF크로노스의 공포
2017-01-05 21:09:13	dhodi:[용]	성공	[298531557]+29\aF크로노스의 공포
2017-01-05 21:09:13	dhodi:[용]	성공	[298531557]+30\aF크로노스의 공포
2017-01-05 21:09:13	dhodi:[용]	성공	[298531557]+31\aF크로노스의 공포
2017-01-05 21:09:14	dhodi:[용]	성공	[298531557]+32\aF크로노스의 공포
2017-01-05 21:09:14	dhodi:[용]	성공	[298531557]+33\aF크로노스의 공포
2017-01-05 21:09:14	dhodi:[용]	성공	[298531557]+34\aF크로노스의 공포
2017-01-05 21:09:14	dhodi:[용]	성공	[298531557]+35\aF크로노스의 공포
2017-01-05 21:09:15	dhodi:[용]	성공	[298531557]+36\aF크로노스의 공포
2017-01-05 21:09:16	dhodi:[용]	성공	[298531557]+37\aF크로노스의 공포
2017-01-05 21:09:16	dhodi:[용]	성공	[298531557]+38\aF크로노스의 공포
2017-01-05 21:09:16	dhodi:[용]	성공	[298531557]+39\aF크로노스의 공포
2017-01-05 21:09:17	dhodi:[용]	성공	[298531557]+40\aF크로노스의 공포
2017-01-05 21:09:17	dhodi:[용]	성공	[298531557]+41\aF크로노스의 공포
2017-01-05 21:09:20	dhodi:[용]	성공	[298531557]+42\aF크로노스의 공포
2017-01-05 21:09:20	dhodi:[용]	성공	[298531557]+43\aF크로노스의 공포
2017-01-05 21:09:20	dhodi:[용]	성공	[298531557]+44\aF크로노스의 공포
2017-01-05 21:09:21	dhodi:[용]	성공	[298531557]+45\aF크로노스의 공포
2017-01-05 21:09:21	dhodi:[용]	성공	[298531557]+46\aF크로노스의 공포
2017-01-05 21:09:21	dhodi:[용]	성공	[298531557]+47\aF크로노스의 공포
2017-01-05 21:09:22	dhodi:[용]	성공	[298531557]+48\aF크로노스의 공포
2017-01-05 21:09:22	dhodi:[용]	성공	[298531557]+49\aF크로노스의 공포
2017-01-05 21:09:22	dhodi:[용]	성공	[298531557]+50\aF크로노스의 공포
2017-01-05 21:09:22	dhodi:[용]	성공	[298531557]+51\aF크로노스의 공포
2017-01-05 21:09:23	dhodi:[용]	성공	[298531557]+52\aF크로노스의 공포
2017-01-05 21:09:23	dhodi:[용]	성공	[298531557]+53\aF크로노스의 공포
2017-01-05 21:09:23	dhodi:[용]	성공	[298531557]+54\aF크로노스의 공포
2017-01-05 21:09:24	dhodi:[용]	성공	[298531557]+55\aF크로노스의 공포
2017-01-05 21:09:35	dhodi:[용]	성공	[298531557]+56\aF크로노스의 공포
2017-01-05 21:09:36	dhodi:[용]	성공	[298531557]+57\aF크로노스의 공포
2017-01-05 21:09:36	dhodi:[용]	성공	[298531557]+58\aF크로노스의 공포
2017-01-05 21:09:36	dhodi:[용]	성공	[298531557]+59\aF크로노스의 공포
2017-01-05 21:09:37	dhodi:[용]	성공	[298531557]+60\aF크로노스의 공포
2017-01-05 21:09:37	dhodi:[용]	성공	[298531557]+61\aF크로노스의 공포
2017-01-05 21:09:37	dhodi:[용]	성공	[298531557]+62\aF크로노스의 공포
2017-01-05 21:09:37	dhodi:[용]	성공	[298531557]+63\aF크로노스의 공포
2017-01-05 21:09:38	dhodi:[용]	성공	[298531557]+64\aF크로노스의 공포
2017-01-05 21:09:38	dhodi:[용]	성공	[298531557]+65\aF크로노스의 공포
2017-01-05 21:09:39	dhodi:[용]	성공	[298531557]+66\aF크로노스의 공포
2017-01-05 21:09:39	dhodi:[용]	성공	[298531557]+67\aF크로노스의 공포
2017-01-05 21:09:39	dhodi:[용]	성공	[298531557]+68\aF크로노스의 공포
2017-01-05 21:09:40	dhodi:[용]	성공	[298531557]+69\aF크로노스의 공포
2017-01-05 21:09:40	dhodi:[용]	성공	[298531557]+70\aF크로노스의 공포
2017-01-05 21:09:40	dhodi:[용]	성공	[298531557]+71\aF크로노스의 공포
2017-01-05 21:09:40	dhodi:[용]	성공	[298531557]+72\aF크로노스의 공포
2017-01-05 21:09:41	dhodi:[용]	성공	[298531557]+73\aF크로노스의 공포
2017-01-05 21:09:41	dhodi:[용]	성공	[298531557]+74\aF크로노스의 공포
2017-01-05 21:09:41	dhodi:[용]	성공	[298531557]+75\aF크로노스의 공포
2017-01-05 21:09:42	dhodi:[용]	성공	[298531557]+76\aF크로노스의 공포
2017-01-05 21:09:42	dhodi:[용]	성공	[298531557]+77\aF크로노스의 공포
2017-01-05 21:09:42	dhodi:[용]	성공	[298531557]+78\aF크로노스의 공포
2017-01-05 21:09:43	dhodi:[용]	성공	[298531557]+79\aF크로노스의 공포
2017-01-05 21:09:43	dhodi:[용]	성공	[298531557]+80\aF크로노스의 공포
2017-01-05 21:09:43	dhodi:[용]	성공	[298531557]+81\aF크로노스의 공포
2017-01-05 21:09:44	dhodi:[용]	성공	[298531557]+82\aF크로노스의 공포
2017-01-05 21:09:44	dhodi:[용]	성공	[298531557]+83\aF크로노스의 공포
2017-01-05 21:09:44	dhodi:[용]	성공	[298531557]+84\aF크로노스의 공포
2017-01-05 21:09:45	dhodi:[용]	성공	[298531557]+85\aF크로노스의 공포
2017-01-05 21:09:45	dhodi:[용]	성공	[298531557]+86\aF크로노스의 공포
2017-01-05 21:09:45	dhodi:[용]	성공	[298531557]+87\aF크로노스의 공포
2017-01-05 21:09:45	dhodi:[용]	성공	[298531557]+88\aF크로노스의 공포
2017-01-05 21:09:45	dhodi:[용]	성공	[298531557]+89\aF크로노스의 공포
2017-01-05 21:09:45	dhodi:[용]	성공	[298531557]+90\aF크로노스의 공포
2017-01-05 21:09:45	dhodi:[용]	성공	[298531557]+91\aF크로노스의 공포
2017-01-05 21:09:46	dhodi:[용]	성공	[298531557]+92\aF크로노스의 공포
2017-01-05 21:09:46	dhodi:[용]	성공	[298531557]+93\aF크로노스의 공포
2017-01-05 21:09:46	dhodi:[용]	성공	[298531557]+94\aF크로노스의 공포
2017-01-05 21:09:46	dhodi:[용]	성공	[298531557]+95\aF크로노스의 공포
2017-01-05 21:09:46	dhodi:[용]	성공	[298531557]+96\aF크로노스의 공포
2017-01-05 21:09:52	dhodi:[용]	성공	[298531557]+97\aF크로노스의 공포
2017-01-05 21:09:52	dhodi:[용]	성공	[298531557]+98\aF크로노스의 공포
2017-01-05 21:09:53	dhodi:[용]	성공	[298531557]+99\aF크로노스의 공포
2017-01-05 21:09:53	dhodi:[용]	성공	[298531557]+100\aF크로노스의 공포
2017-01-05 21:09:55	dhodi:[용]	성공	[298532206]+7드래곤 슬레이어
2017-01-05 21:09:56	dhodi:[용]	성공	[298532206]+8드래곤 슬레이어
2017-01-05 21:09:56	dhodi:[용]	성공	[298532206]+9드래곤 슬레이어
2017-01-05 21:09:56	dhodi:[용]	성공	[298532206]+10드래곤 슬레이어
2017-01-05 21:09:56	dhodi:[용]	성공	[298532206]+11드래곤 슬레이어
2017-01-05 21:09:57	dhodi:[용]	성공	[298532206]+12드래곤 슬레이어
2017-01-05 21:09:57	dhodi:[용]	성공	[298532206]+13드래곤 슬레이어
2017-01-05 21:09:57	dhodi:[용]	성공	[298532206]+14드래곤 슬레이어
2017-01-05 21:09:57	dhodi:[용]	성공	[298532206]+15드래곤 슬레이어
2017-01-05 21:09:58	dhodi:[용]	성공	[298532206]+16드래곤 슬레이어
2017-01-05 21:09:58	dhodi:[용]	성공	[298532206]+17드래곤 슬레이어
2017-01-05 21:09:58	dhodi:[용]	성공	[298532206]+18드래곤 슬레이어
2017-01-05 21:09:59	dhodi:[용]	성공	[298532206]+19드래곤 슬레이어
2017-01-05 21:09:59	dhodi:[용]	성공	[298532206]+20드래곤 슬레이어
2017-01-05 21:09:59	dhodi:[용]	성공	[298532206]+21드래곤 슬레이어
2017-01-05 21:09:59	dhodi:[용]	성공	[298532206]+22드래곤 슬레이어
2017-01-05 21:09:59	dhodi:[용]	성공	[298532206]+23드래곤 슬레이어
2017-01-05 21:10:00	dhodi:[용]	성공	[298532206]+24드래곤 슬레이어
2017-01-05 21:10:00	dhodi:[용]	성공	[298532206]+25드래곤 슬레이어
2017-01-05 21:10:00	dhodi:[용]	성공	[298532206]+26드래곤 슬레이어
2017-01-05 21:10:01	dhodi:[용]	성공	[298532206]+27드래곤 슬레이어
2017-01-05 21:10:01	dhodi:[용]	성공	[298532206]+28드래곤 슬레이어
2017-01-05 21:10:01	dhodi:[용]	성공	[298532206]+29드래곤 슬레이어
2017-01-05 21:10:01	dhodi:[용]	성공	[298532206]+30드래곤 슬레이어
2017-01-05 21:10:02	dhodi:[용]	성공	[298532206]+31드래곤 슬레이어
2017-01-05 21:10:02	dhodi:[용]	성공	[298532206]+32드래곤 슬레이어
2017-01-05 21:10:02	dhodi:[용]	성공	[298532206]+33드래곤 슬레이어
2017-01-05 21:10:02	dhodi:[용]	성공	[298532206]+34드래곤 슬레이어
2017-01-05 21:10:02	dhodi:[용]	성공	[298532206]+35드래곤 슬레이어
2017-01-05 21:10:03	dhodi:[용]	성공	[298532206]+36드래곤 슬레이어
2017-01-05 21:10:03	dhodi:[용]	성공	[298532206]+37드래곤 슬레이어
2017-01-05 21:10:03	dhodi:[용]	성공	[298532206]+38드래곤 슬레이어
2017-01-05 21:10:03	dhodi:[용]	성공	[298532206]+39드래곤 슬레이어
2017-01-05 21:10:04	dhodi:[용]	성공	[298532206]+40드래곤 슬레이어
2017-01-05 21:10:04	dhodi:[용]	성공	[298532206]+41드래곤 슬레이어
2017-01-05 21:10:04	dhodi:[용]	성공	[298532206]+42드래곤 슬레이어
2017-01-05 21:10:04	dhodi:[용]	성공	[298532206]+43드래곤 슬레이어
2017-01-05 21:10:04	dhodi:[용]	성공	[298532206]+44드래곤 슬레이어
2017-01-05 21:10:05	dhodi:[용]	성공	[298532206]+45드래곤 슬레이어
2017-01-05 21:10:05	dhodi:[용]	성공	[298532206]+46드래곤 슬레이어
2017-01-05 21:10:05	dhodi:[용]	성공	[298532206]+47드래곤 슬레이어
2017-01-05 21:10:05	dhodi:[용]	성공	[298532206]+48드래곤 슬레이어
2017-01-05 21:10:06	dhodi:[용]	성공	[298532206]+49드래곤 슬레이어
2017-01-05 21:10:06	dhodi:[용]	성공	[298532206]+50드래곤 슬레이어
2017-01-05 21:10:06	dhodi:[용]	성공	[298532206]+51드래곤 슬레이어
2017-01-05 21:10:07	dhodi:[용]	성공	[298532206]+52드래곤 슬레이어
2017-01-05 21:10:07	dhodi:[용]	성공	[298532206]+53드래곤 슬레이어
2017-01-05 21:10:07	dhodi:[용]	성공	[298532206]+54드래곤 슬레이어
2017-01-05 21:10:07	dhodi:[용]	성공	[298532206]+55드래곤 슬레이어
2017-01-05 21:10:07	dhodi:[용]	성공	[298532206]+56드래곤 슬레이어
2017-01-05 21:10:08	dhodi:[용]	성공	[298532206]+57드래곤 슬레이어
2017-01-05 21:10:08	dhodi:[용]	성공	[298532206]+58드래곤 슬레이어
2017-01-05 21:10:08	dhodi:[용]	성공	[298532206]+59드래곤 슬레이어
2017-01-05 21:10:09	dhodi:[용]	성공	[298532206]+60드래곤 슬레이어
2017-01-05 21:10:09	dhodi:[용]	실패	[298532206]+60드래곤 슬레이어
2017-01-05 21:10:50	dhodi:[용]	성공	[298531597]+11발라카스의 예지력
2017-01-05 21:10:51	dhodi:[용]	성공	[298531597]+12발라카스의 예지력
2017-01-05 21:10:51	dhodi:[용]	성공	[298531597]+13발라카스의 예지력
2017-01-05 21:10:51	dhodi:[용]	성공	[298531597]+14발라카스의 예지력
2017-01-05 21:10:51	dhodi:[용]	성공	[298531597]+15발라카스의 예지력
2017-01-05 21:10:52	dhodi:[용]	성공	[298531597]+16발라카스의 예지력
2017-01-05 21:10:52	dhodi:[용]	성공	[298531597]+17발라카스의 예지력
2017-01-05 21:10:52	dhodi:[용]	성공	[298531597]+18발라카스의 예지력
2017-01-05 21:10:52	dhodi:[용]	성공	[298531597]+19발라카스의 예지력
2017-01-05 21:10:52	dhodi:[용]	성공	[298531597]+20발라카스의 예지력
2017-01-05 21:10:53	dhodi:[용]	성공	[298531593]+7수호의 가더
2017-01-05 21:10:53	dhodi:[용]	성공	[298531593]+8수호의 가더
2017-01-05 21:10:53	dhodi:[용]	성공	[298531593]+9수호의 가더
2017-01-05 21:10:54	dhodi:[용]	성공	[298531593]+10수호의 가더
2017-01-05 21:10:54	dhodi:[용]	성공	[298531593]+11수호의 가더
2017-01-05 21:10:54	dhodi:[용]	성공	[298531593]+12수호의 가더
2017-01-05 21:10:54	dhodi:[용]	성공	[298531593]+13수호의 가더
2017-01-05 21:10:55	dhodi:[용]	성공	[298531593]+14수호의 가더
2017-01-05 21:10:55	dhodi:[용]	성공	[298531593]+15수호의 가더
2017-01-05 21:10:55	dhodi:[용]	성공	[298531593]+16수호의 가더
2017-01-05 21:10:55	dhodi:[용]	성공	[298531593]+17수호의 가더
2017-01-05 21:10:56	dhodi:[용]	성공	[298531593]+18수호의 가더
2017-01-05 21:10:56	dhodi:[용]	성공	[298531593]+19수호의 가더
2017-01-05 21:10:56	dhodi:[용]	성공	[298531593]+20수호의 가더
2017-01-05 21:10:58	dhodi:[용]	성공	[298531590]+11완력의 부츠
2017-01-05 21:10:58	dhodi:[용]	성공	[298532192]+11격분의 장갑
2017-01-05 21:10:58	dhodi:[용]	성공	[298532192]+12격분의 장갑
2017-01-05 21:10:58	dhodi:[용]	성공	[298531590]+12완력의 부츠
2017-01-05 21:10:59	dhodi:[용]	성공	[298531590]+13완력의 부츠
2017-01-05 21:10:59	dhodi:[용]	성공	[298531590]+14완력의 부츠
2017-01-05 21:10:59	dhodi:[용]	성공	[298531590]+15완력의 부츠
2017-01-05 21:10:59	dhodi:[용]	성공	[298531590]+16완력의 부츠
2017-01-05 21:11:00	dhodi:[용]	성공	[298531590]+17완력의 부츠
2017-01-05 21:11:00	dhodi:[용]	성공	[298531590]+18완력의 부츠
2017-01-05 21:11:00	dhodi:[용]	성공	[298531590]+19완력의 부츠
2017-01-05 21:11:01	dhodi:[용]	성공	[298531590]+20완력의 부츠
2017-01-05 21:11:01	dhodi:[용]	성공	[298532192]+13격분의 장갑
2017-01-05 21:11:02	dhodi:[용]	성공	[298532192]+14격분의 장갑
2017-01-05 21:11:02	dhodi:[용]	성공	[298532192]+15격분의 장갑
2017-01-05 21:11:02	dhodi:[용]	성공	[298532192]+16격분의 장갑
2017-01-05 21:11:02	dhodi:[용]	성공	[298532192]+17격분의 장갑
2017-01-05 21:11:02	dhodi:[용]	성공	[298532192]+18격분의 장갑
2017-01-05 21:11:03	dhodi:[용]	성공	[298532192]+19격분의 장갑
2017-01-05 21:11:03	dhodi:[용]	성공	[298532192]+20격분의 장갑
2017-01-05 21:11:04	dhodi:[용]	성공	[298531576]+11뱀파이어의 망토
2017-01-05 21:11:05	dhodi:[용]	성공	[298531576]+12뱀파이어의 망토
2017-01-05 21:11:05	dhodi:[용]	성공	[298531576]+13뱀파이어의 망토
2017-01-05 21:11:05	dhodi:[용]	성공	[298531576]+14뱀파이어의 망토
2017-01-05 21:11:05	dhodi:[용]	성공	[298531576]+15뱀파이어의 망토
2017-01-05 21:11:06	dhodi:[용]	성공	[298531576]+16뱀파이어의 망토
2017-01-05 21:11:06	dhodi:[용]	성공	[298531576]+17뱀파이어의 망토
2017-01-05 21:11:06	dhodi:[용]	성공	[298531576]+18뱀파이어의 망토
2017-01-05 21:11:07	dhodi:[용]	성공	[298531576]+19뱀파이어의 망토
2017-01-05 21:11:07	dhodi:[용]	성공	[298531576]+20뱀파이어의 망토
2017-01-05 21:11:09	dhodi:[용]	성공	[298531574]+11신성한 마법 방어 투구
2017-01-05 21:11:09	dhodi:[용]	성공	[298531574]+12신성한 마법 방어 투구
2017-01-05 21:11:10	dhodi:[용]	성공	[298531574]+13신성한 마법 방어 투구
2017-01-05 21:11:10	dhodi:[용]	성공	[298531574]+14신성한 마법 방어 투구
2017-01-05 21:11:10	dhodi:[용]	성공	[298531574]+15신성한 마법 방어 투구
2017-01-05 21:11:10	dhodi:[용]	성공	[298531574]+16신성한 마법 방어 투구
2017-01-05 21:11:10	dhodi:[용]	성공	[298531574]+17신성한 마법 방어 투구
2017-01-05 21:11:10	dhodi:[용]	성공	[298531574]+18신성한 마법 방어 투구
2017-01-05 21:11:11	dhodi:[용]	성공	[298531574]+19신성한 마법 방어 투구
2017-01-05 21:11:11	dhodi:[용]	성공	[298531574]+20신성한 마법 방어 투구
2017-01-05 21:12:00	dhodi:[용]	성공	[298531588]+8유니콘의 완력 각반
2017-01-05 21:12:01	dhodi:[용]	성공	[298531588]+9유니콘의 완력 각반
2017-01-05 21:12:01	dhodi:[용]	성공	[298531588]+10유니콘의 완력 각반
2017-01-05 21:12:01	dhodi:[용]	성공	[298531588]+11유니콘의 완력 각반
2017-01-05 21:12:02	dhodi:[용]	성공	[298531588]+12유니콘의 완력 각반
2017-01-05 21:12:02	dhodi:[용]	성공	[298531588]+13유니콘의 완력 각반
2017-01-05 21:12:02	dhodi:[용]	성공	[298531588]+14유니콘의 완력 각반
2017-01-05 21:12:03	dhodi:[용]	성공	[298531588]+15유니콘의 완력 각반
2017-01-05 21:12:03	dhodi:[용]	성공	[298531588]+16유니콘의 완력 각반
2017-01-05 21:12:03	dhodi:[용]	성공	[298531588]+17유니콘의 완력 각반
2017-01-05 21:12:04	dhodi:[용]	성공	[298531588]+18유니콘의 완력 각반
2017-01-05 21:12:04	dhodi:[용]	성공	[298531588]+19유니콘의 완력 각반
2017-01-05 21:12:04	dhodi:[용]	성공	[298531588]+20유니콘의 완력 각반
2017-01-05 21:13:31	dhodi:[용]	성공	[298532235]+1룸티스의 검은빛 귀걸이
2017-01-05 21:13:31	dhodi:[용]	성공	[298532235]+2룸티스의 검은빛 귀걸이
2017-01-05 21:13:32	dhodi:[용]	성공	[298532235]+3룸티스의 검은빛 귀걸이
2017-01-05 21:13:33	dhodi:[용]	성공	[298532235]+4룸티스의 검은빛 귀걸이
2017-01-05 21:13:34	dhodi:[용]	성공	[298532235]+5룸티스의 검은빛 귀걸이
2017-01-05 21:13:37	dhodi:[용]	성공	[298532235]+6룸티스의 검은빛 귀걸이
2017-01-05 21:13:41	dhodi:[용]	성공	[298531568]+6룸티스의 검은빛 귀걸이
2017-01-05 21:13:45	dhodi:[용]	성공	[298531568]+7룸티스의 검은빛 귀걸이
2017-01-05 21:13:46	dhodi:[용]	성공	[298531568]+8룸티스의 검은빛 귀걸이
2017-01-05 21:13:47	dhodi:[용]	성공	[298532235]+7룸티스의 검은빛 귀걸이
2017-01-05 21:13:48	dhodi:[용]	성공	[298532235]+8룸티스의 검은빛 귀걸이
2017-01-05 21:14:02	dhodi:[용]	성공	[298532238]+1스냅퍼의 용사 반지
2017-01-05 21:14:05	dhodi:[용]	성공	[298532238]+2스냅퍼의 용사 반지
2017-01-05 21:14:06	dhodi:[용]	성공	[298532238]+3스냅퍼의 용사 반지
2017-01-05 21:14:24	dhodi:[용]	성공	[298531570]+10커츠의 검
2017-01-05 21:14:24	dhodi:[용]	성공	[298531570]+11커츠의 검
2017-01-05 21:14:25	dhodi:[용]	성공	[298531570]+12커츠의 검
2017-01-05 21:14:25	dhodi:[용]	성공	[298531570]+13커츠의 검
2017-01-05 21:14:25	dhodi:[용]	성공	[298531570]+14커츠의 검
2017-01-05 21:14:26	dhodi:[용]	성공	[298531570]+15커츠의 검
2017-01-05 21:14:26	dhodi:[용]	성공	[298531570]+16커츠의 검
2017-01-05 21:14:26	dhodi:[용]	성공	[298531570]+17커츠의 검
2017-01-05 21:14:26	dhodi:[용]	성공	[298531570]+18커츠의 검
2017-01-05 21:14:26	dhodi:[용]	성공	[298531570]+19커츠의 검
2017-01-05 21:14:26	dhodi:[용]	성공	[298531570]+20커츠의 검
2017-01-05 21:14:27	dhodi:[용]	성공	[298531570]+21커츠의 검
2017-01-05 21:14:27	dhodi:[용]	성공	[298531570]+22커츠의 검
2017-01-05 21:14:27	dhodi:[용]	성공	[298531570]+23커츠의 검
2017-01-05 21:14:27	dhodi:[용]	성공	[298531570]+24커츠의 검
2017-01-05 21:14:28	dhodi:[용]	성공	[298531570]+25커츠의 검
2017-01-05 21:14:28	dhodi:[용]	성공	[298531570]+26커츠의 검
2017-01-05 21:14:28	dhodi:[용]	성공	[298531570]+27커츠의 검
2017-01-05 21:14:28	dhodi:[용]	성공	[298531570]+28커츠의 검
2017-01-05 21:14:29	dhodi:[용]	성공	[298531570]+29커츠의 검
2017-01-05 21:14:29	dhodi:[용]	성공	[298531570]+30커츠의 검
2017-01-05 21:14:29	dhodi:[용]	성공	[298531570]+31커츠의 검
2017-01-05 21:14:29	dhodi:[용]	성공	[298531570]+32커츠의 검
2017-01-05 21:14:30	dhodi:[용]	성공	[298531570]+33커츠의 검
2017-01-05 21:14:30	dhodi:[용]	성공	[298531570]+34커츠의 검
2017-01-05 21:14:30	dhodi:[용]	성공	[298531570]+35커츠의 검
2017-01-05 21:14:30	dhodi:[용]	성공	[298531570]+36커츠의 검
2017-01-05 21:14:30	dhodi:[용]	성공	[298531570]+37커츠의 검
2017-01-05 21:14:31	dhodi:[용]	성공	[298531570]+38커츠의 검
2017-01-05 21:14:31	dhodi:[용]	성공	[298531570]+39커츠의 검
2017-01-05 21:14:31	dhodi:[용]	성공	[298531570]+40커츠의 검
2017-01-05 21:14:32	dhodi:[용]	성공	[298531570]+41커츠의 검
2017-01-05 21:14:32	dhodi:[용]	성공	[298531570]+42커츠의 검
2017-01-05 21:14:32	dhodi:[용]	성공	[298531570]+43커츠의 검
2017-01-05 21:14:32	dhodi:[용]	성공	[298531570]+44커츠의 검
2017-01-05 21:14:33	dhodi:[용]	성공	[298531570]+45커츠의 검
2017-01-05 21:14:33	dhodi:[용]	성공	[298531570]+46커츠의 검
2017-01-05 21:14:34	dhodi:[용]	성공	[298531570]+47커츠의 검
2017-01-05 21:14:34	dhodi:[용]	성공	[298531570]+48커츠의 검
2017-01-05 21:14:35	dhodi:[용]	성공	[298531570]+49커츠의 검
2017-01-05 21:29:47	dhodi:[용]	성공	[298532233]+1룸티스의붉은빛귀걸이
2017-01-05 21:29:47	dhodi:[용]	성공	[298532233]+2룸티스의붉은빛귀걸이
2017-01-05 21:29:48	dhodi:[용]	성공	[298532233]+3룸티스의붉은빛귀걸이
2017-01-05 21:29:51	dhodi:[용]	성공	[298532233]+4룸티스의붉은빛귀걸이
2017-01-05 21:29:51	dhodi:[용]	성공	[298532233]+5룸티스의붉은빛귀걸이
2017-01-05 21:29:53	dhodi:[용]	성공	[298532233]+6룸티스의붉은빛귀걸이
2017-01-05 21:29:54	dhodi:[용]	성공	[298532233]+7룸티스의붉은빛귀걸이
2017-01-05 21:29:55	dhodi:[용]	성공	[298532233]+8룸티스의붉은빛귀걸이
2017-01-05 21:36:56	dhodi:[용]	성공	[298531577]+6에이션트 자이언트의 반지
2017-01-05 21:36:57	dhodi:[용]	성공	[298531577]+7에이션트 자이언트의 반지
2017-01-05 21:37:00	dhodi:[용]	성공	[298531577]+8에이션트 자이언트의 반지
2017-01-05 21:37:03	dhodi:[용]	성공	[298531577]+9에이션트 자이언트의 반지
2017-01-05 21:37:05	dhodi:[용]	성공	[298531569]+6투사의 목걸이
2017-01-05 21:37:07	dhodi:[용]	성공	[298531569]+7투사의 목걸이
2017-01-05 21:37:08	dhodi:[용]	성공	[298531569]+8투사의 목걸이
2017-01-05 21:37:09	dhodi:[용]	성공	[298531569]+9투사의 목걸이
2017-01-05 21:37:13	dhodi:[용]	성공	[298532498]+6\aH완력의 벨트
2017-01-05 21:37:15	dhodi:[용]	성공	[298532498]+7\aH완력의 벨트
2017-01-05 21:37:16	dhodi:[용]	성공	[298532498]+8\aH완력의 벨트
2017-01-05 21:37:17	dhodi:[용]	성공	[298532498]+9\aH완력의 벨트
2017-01-05 21:37:19	dhodi:[용]	성공	[298532488]+6기백의 반지
2017-01-05 21:37:20	dhodi:[용]	성공	[298532488]+7기백의 반지
2017-01-05 21:37:22	dhodi:[용]	성공	[298532488]+8기백의 반지
2017-01-05 21:37:25	dhodi:[용]	성공	[298532488]+9기백의 반지
2017-01-05 21:37:28	dhodi:[용]	성공	[298532487]+6기백의 반지
2017-01-05 21:37:30	dhodi:[용]	성공	[298532487]+7기백의 반지
2017-01-05 21:37:32	dhodi:[용]	성공	[298532487]+8기백의 반지
2017-01-05 21:37:34	dhodi:[용]	성공	[298532487]+9기백의 반지
2017-01-05 21:37:39	dhodi:[용]	성공	[298532495]+8지휘관의 투구
2017-01-05 21:37:39	dhodi:[용]	성공	[298532495]+9지휘관의 투구
2017-01-05 21:37:39	dhodi:[용]	성공	[298532495]+10지휘관의 투구
2017-01-05 21:37:40	dhodi:[용]	성공	[298532495]+11지휘관의 투구
2017-01-05 21:37:40	dhodi:[용]	성공	[298532495]+12지휘관의 투구
2017-01-05 21:37:40	dhodi:[용]	성공	[298532495]+13지휘관의 투구
2017-01-05 21:37:40	dhodi:[용]	성공	[298532495]+14지휘관의 투구
2017-01-05 21:37:41	dhodi:[용]	성공	[298532495]+15지휘관의 투구
2017-01-05 21:37:41	dhodi:[용]	성공	[298532495]+16지휘관의 투구
2017-01-05 21:37:41	dhodi:[용]	성공	[298532495]+17지휘관의 투구
2017-01-05 21:37:41	dhodi:[용]	성공	[298532495]+18지휘관의 투구
2017-01-05 21:37:41	dhodi:[용]	성공	[298532495]+19지휘관의 투구
2017-01-05 21:37:42	dhodi:[용]	성공	[298532495]+20지휘관의 투구
2017-01-05 21:37:42	dhodi:[용]	성공	[298532496]+8돌 장갑
2017-01-05 21:37:43	dhodi:[용]	성공	[298532496]+9돌 장갑
2017-01-05 21:37:43	dhodi:[용]	성공	[298532496]+10돌 장갑
2017-01-05 21:37:43	dhodi:[용]	성공	[298532496]+11돌 장갑
2017-01-05 21:37:43	dhodi:[용]	성공	[298532496]+12돌 장갑
2017-01-05 21:37:43	dhodi:[용]	성공	[298532496]+13돌 장갑
2017-01-05 21:37:44	dhodi:[용]	성공	[298532496]+14돌 장갑
2017-01-05 21:37:44	dhodi:[용]	성공	[298532496]+15돌 장갑
2017-01-05 21:37:44	dhodi:[용]	성공	[298532496]+16돌 장갑
2017-01-05 21:37:44	dhodi:[용]	성공	[298532496]+17돌 장갑
2017-01-05 21:37:44	dhodi:[용]	성공	[298532496]+18돌 장갑
2017-01-05 21:37:44	dhodi:[용]	성공	[298532496]+19돌 장갑
2017-01-05 21:37:45	dhodi:[용]	성공	[298532496]+20돌 장갑
2017-01-05 21:37:46	dhodi:[용]	성공	[298532489]+8파푸리온의 예지력
2017-01-05 21:37:46	dhodi:[용]	성공	[298532489]+9파푸리온의 예지력
2017-01-05 21:37:47	dhodi:[용]	성공	[298532489]+10파푸리온의 예지력
2017-01-05 21:37:47	dhodi:[용]	성공	[298532489]+11파푸리온의 예지력
2017-01-05 21:37:47	dhodi:[용]	성공	[298532489]+12파푸리온의 예지력
2017-01-05 21:37:47	dhodi:[용]	성공	[298532489]+13파푸리온의 예지력
2017-01-05 21:37:47	dhodi:[용]	성공	[298532489]+14파푸리온의 예지력
2017-01-05 21:37:48	dhodi:[용]	성공	[298532489]+15파푸리온의 예지력
2017-01-05 21:37:51	settle:[단속반]	성공	[298531347]+1\aH수정결정체 지팡이
2017-01-05 21:37:52	settle:[단속반]	성공	[298531347]+2\aH수정결정체 지팡이
2017-01-05 21:37:52	settle:[단속반]	성공	[298531347]+3\aH수정결정체 지팡이
2017-01-05 21:37:52	settle:[단속반]	성공	[298531347]+4\aH수정결정체 지팡이
2017-01-05 21:37:52	settle:[단속반]	성공	[298531347]+5\aH수정결정체 지팡이
2017-01-05 21:37:53	settle:[단속반]	성공	[298531347]+6\aH수정결정체 지팡이
2017-01-05 21:37:53	settle:[단속반]	성공	[298531347]+7\aH수정결정체 지팡이
2017-01-05 21:37:53	settle:[단속반]	성공	[298531347]+8\aH수정결정체 지팡이
2017-01-05 21:37:54	settle:[단속반]	성공	[298531347]+9\aH수정결정체 지팡이
2017-01-05 21:37:54	settle:[단속반]	성공	[298531347]+10\aH수정결정체 지팡이
2017-01-05 21:37:54	settle:[단속반]	성공	[298531347]+11\aH수정결정체 지팡이
2017-01-05 21:37:54	settle:[단속반]	성공	[298531347]+12\aH수정결정체 지팡이
2017-01-05 21:37:54	settle:[단속반]	성공	[298531347]+13\aH수정결정체 지팡이
2017-01-05 21:37:55	settle:[단속반]	성공	[298531347]+14\aH수정결정체 지팡이
2017-01-05 21:37:55	settle:[단속반]	성공	[298531347]+15\aH수정결정체 지팡이
2017-01-05 21:37:55	settle:[단속반]	성공	[298531347]+16\aH수정결정체 지팡이
2017-01-05 21:37:56	settle:[단속반]	성공	[298531347]+17\aH수정결정체 지팡이
2017-01-05 21:37:56	settle:[단속반]	성공	[298531347]+18\aH수정결정체 지팡이
2017-01-05 21:37:56	settle:[단속반]	성공	[298531347]+19\aH수정결정체 지팡이
2017-01-05 21:37:56	settle:[단속반]	성공	[298531347]+20\aH수정결정체 지팡이
2017-01-05 21:37:57	dhodi:[용]	성공	[298532489]+16파푸리온의 예지력
2017-01-05 21:37:58	dhodi:[용]	성공	[298532489]+17파푸리온의 예지력
2017-01-05 21:37:58	dhodi:[용]	성공	[298532489]+18파푸리온의 예지력
2017-01-05 21:37:59	dhodi:[용]	성공	[298532489]+19파푸리온의 예지력
2017-01-05 21:38:00	dhodi:[용]	성공	[298532489]+20파푸리온의 예지력
2017-01-05 21:38:05	settle:[단속반]	성공	[298531347]+21\aH수정결정체 지팡이
2017-01-05 21:38:05	settle:[단속반]	성공	[298531347]+22\aH수정결정체 지팡이
2017-01-05 21:38:05	settle:[단속반]	성공	[298531347]+23\aH수정결정체 지팡이
2017-01-05 21:38:06	settle:[단속반]	성공	[298531347]+24\aH수정결정체 지팡이
2017-01-05 21:38:07	settle:[단속반]	성공	[298531347]+25\aH수정결정체 지팡이
2017-01-05 21:38:08	settle:[단속반]	성공	[298531347]+26\aH수정결정체 지팡이
2017-01-05 21:38:09	settle:[단속반]	성공	[298531347]+27\aH수정결정체 지팡이
2017-01-05 21:38:10	settle:[단속반]	성공	[298531347]+28\aH수정결정체 지팡이
2017-01-05 21:38:11	settle:[단속반]	성공	[298531347]+29\aH수정결정체 지팡이
2017-01-05 21:38:13	settle:[단속반]	성공	[298531347]+30\aH수정결정체 지팡이
2017-01-05 21:38:14	settle:[단속반]	성공	[298531347]+31\aH수정결정체 지팡이
2017-01-05 21:38:50	settle:[단속반]	성공	[298531347]+32\aH수정결정체 지팡이
2017-01-05 21:38:50	settle:[단속반]	성공	[298531347]+33\aH수정결정체 지팡이
2017-01-05 21:38:51	settle:[단속반]	성공	[298531347]+34\aH수정결정체 지팡이
2017-01-05 21:38:51	settle:[단속반]	성공	[298531347]+35\aH수정결정체 지팡이
2017-01-05 21:38:52	settle:[단속반]	성공	[298531347]+36\aH수정결정체 지팡이
2017-01-05 21:38:52	settle:[단속반]	실패	[298531347]+36\aH수정결정체 지팡이
2017-01-05 21:38:53	settle:[단속반]	성공	[298531353]+2\aH수정결정체 지팡이
2017-01-05 21:38:53	settle:[단속반]	성공	[298531353]+3\aH수정결정체 지팡이
2017-01-05 21:38:54	dhodi:[용]	성공	[298532531]+1고대 명궁의 가더
2017-01-05 21:38:55	dhodi:[용]	성공	[298532531]+2고대 명궁의 가더
2017-01-05 21:38:55	dhodi:[용]	성공	[298532531]+3고대 명궁의 가더
2017-01-05 21:38:58	settle:[단속반]	성공	[298531353]+4\aH수정결정체 지팡이
2017-01-05 21:39:04	settle:[단속반]	성공	[298531353]+5\aH수정결정체 지팡이
2017-01-05 21:39:04	settle:[단속반]	성공	[298531353]+6\aH수정결정체 지팡이
2017-01-05 21:39:05	settle:[단속반]	성공	[298531353]+7\aH수정결정체 지팡이
2017-01-05 21:39:05	settle:[단속반]	성공	[298531353]+8\aH수정결정체 지팡이
2017-01-05 21:39:14	dhodi:[용]	성공	[298532531]+4고대 명궁의 가더
2017-01-05 21:40:03	matis:[메티스]	성공	[298532540]+1붉은 오크의 귀걸이
2017-01-05 21:40:05	dhodi:[용]	성공	[298532238]+4스냅퍼의 용사 반지
2017-01-05 21:40:06	dhodi:[용]	성공	[298532238]+5스냅퍼의 용사 반지
2017-01-05 21:40:07	dhodi:[용]	성공	[298532238]+6스냅퍼의 용사 반지
2017-01-05 21:40:08	matis:[메티스]	성공	[298532540]+2붉은 오크의 귀걸이
2017-01-05 21:40:08	dhodi:[용]	성공	[298532238]+7스냅퍼의 용사 반지
2017-01-05 21:40:09	dhodi:[용]	성공	[298532238]+8스냅퍼의 용사 반지
2017-01-05 21:40:11	matis:[메티스]	성공	[298532540]+3붉은 오크의 귀걸이
2017-01-05 21:40:14	matis:[메티스]	성공	[298532540]+4붉은 오크의 귀걸이
2017-01-05 21:40:16	matis:[메티스]	성공	[298532540]+5붉은 오크의 귀걸이
2017-01-05 21:40:17	matis:[메티스]	성공	[298532540]+6붉은 오크의 귀걸이
2017-01-05 21:40:29	dhodi:[용]	성공	[298531600]+6스냅퍼의 용사 반지
2017-01-05 21:40:29	dhodi:[용]	성공	[298531601]+6스냅퍼의 용사 반지
2017-01-05 21:40:30	dhodi:[용]	성공	[298531600]+7스냅퍼의 용사 반지
2017-01-05 21:40:30	dhodi:[용]	성공	[298531601]+7스냅퍼의 용사 반지
2017-01-05 21:40:33	dhodi:[용]	성공	[298531600]+8스냅퍼의 용사 반지
2017-01-05 21:40:34	dhodi:[용]	성공	[298531601]+8스냅퍼의 용사 반지
2017-01-05 21:40:42	settle:[단속반]	성공	[298531353]+9\aH수정결정체 지팡이
2017-01-05 21:40:43	settle:[단속반]	성공	[298531353]+10\aH수정결정체 지팡이
2017-01-05 21:40:44	settle:[단속반]	성공	[298531353]+11\aH수정결정체 지팡이
2017-01-05 21:40:44	settle:[단속반]	성공	[298531353]+12\aH수정결정체 지팡이
2017-01-05 21:40:46	settle:[단속반]	성공	[298531353]+13\aH수정결정체 지팡이
2017-01-05 21:40:47	settle:[단속반]	성공	[298531353]+14\aH수정결정체 지팡이
2017-01-05 21:40:47	settle:[단속반]	성공	[298531353]+15\aH수정결정체 지팡이
2017-01-05 21:40:48	settle:[단속반]	성공	[298531353]+16\aH수정결정체 지팡이
2017-01-05 21:40:48	settle:[단속반]	성공	[298531353]+17\aH수정결정체 지팡이
2017-01-05 21:40:49	settle:[단속반]	성공	[298531353]+18\aH수정결정체 지팡이
2017-01-05 21:40:49	settle:[단속반]	성공	[298531353]+19\aH수정결정체 지팡이
2017-01-05 21:40:50	settle:[단속반]	성공	[298531353]+20\aH수정결정체 지팡이
2017-01-05 21:41:14	dhodi:[용]	성공	[298532545]+1룸티스의붉은빛귀걸이
2017-01-05 21:41:15	dhodi:[용]	성공	[298532545]+2룸티스의붉은빛귀걸이
2017-01-05 21:41:15	dhodi:[용]	성공	[298532545]+3룸티스의붉은빛귀걸이
2017-01-05 21:41:16	dhodi:[용]	성공	[298532545]+4룸티스의붉은빛귀걸이
2017-01-05 21:41:16	dhodi:[용]	성공	[298532545]+5룸티스의붉은빛귀걸이
2017-01-05 21:41:16	dhodi:[용]	성공	[298532545]+6룸티스의붉은빛귀걸이
2017-01-05 21:41:16	dhodi:[용]	성공	[298532545]+7룸티스의붉은빛귀걸이
2017-01-05 21:41:16	dhodi:[용]	성공	[298532545]+8룸티스의붉은빛귀걸이
2017-01-05 21:41:32	dhodi:[용]	성공	[298532552]+1스냅퍼의 용사 반지
2017-01-05 21:41:32	dhodi:[용]	성공	[298532552]+2스냅퍼의 용사 반지
2017-01-05 21:41:33	dhodi:[용]	성공	[298532552]+3스냅퍼의 용사 반지
2017-01-05 21:41:33	dhodi:[용]	성공	[298532552]+4스냅퍼의 용사 반지
2017-01-05 21:41:33	dhodi:[용]	성공	[298532552]+5스냅퍼의 용사 반지
2017-01-05 21:41:33	dhodi:[용]	성공	[298532552]+6스냅퍼의 용사 반지
2017-01-05 21:41:33	dhodi:[용]	성공	[298532552]+7스냅퍼의 용사 반지
2017-01-05 21:41:33	dhodi:[용]	성공	[298532552]+8스냅퍼의 용사 반지
2017-01-05 21:41:53	settle:[단속반]	성공	[298531353]+21\aH수정결정체 지팡이
2017-01-05 21:41:53	settle:[단속반]	성공	[298531353]+22\aH수정결정체 지팡이
2017-01-05 21:41:54	settle:[단속반]	성공	[298531353]+23\aH수정결정체 지팡이
2017-01-05 21:41:54	settle:[단속반]	성공	[298531353]+24\aH수정결정체 지팡이
2017-01-05 21:41:55	settle:[단속반]	성공	[298531353]+25\aH수정결정체 지팡이
2017-01-05 21:41:56	settle:[단속반]	성공	[298531353]+26\aH수정결정체 지팡이
2017-01-05 21:41:57	settle:[단속반]	성공	[298531353]+27\aH수정결정체 지팡이
2017-01-05 21:41:58	settle:[단속반]	성공	[298531353]+28\aH수정결정체 지팡이
2017-01-05 21:41:59	settle:[단속반]	성공	[298531353]+29\aH수정결정체 지팡이
2017-01-05 21:42:00	settle:[단속반]	성공	[298531353]+30\aH수정결정체 지팡이
2017-01-05 21:42:00	settle:[단속반]	성공	[298531353]+31\aH수정결정체 지팡이
2017-01-05 21:42:01	settle:[단속반]	성공	[298531353]+32\aH수정결정체 지팡이
2017-01-05 21:42:01	settle:[단속반]	성공	[298531353]+33\aH수정결정체 지팡이
2017-01-05 21:42:02	settle:[단속반]	성공	[298531353]+34\aH수정결정체 지팡이
2017-01-05 21:42:03	settle:[단속반]	성공	[298531353]+35\aH수정결정체 지팡이
2017-01-05 21:42:03	settle:[단속반]	성공	[298531353]+36\aH수정결정체 지팡이
2017-01-05 21:42:04	settle:[단속반]	성공	[298531353]+37\aH수정결정체 지팡이
2017-01-05 21:42:05	settle:[단속반]	성공	[298531353]+38\aH수정결정체 지팡이
2017-01-05 21:42:05	settle:[단속반]	성공	[298531353]+39\aH수정결정체 지팡이
2017-01-05 21:42:06	settle:[단속반]	성공	[298531353]+40\aH수정결정체 지팡이
2017-01-05 21:42:07	settle:[단속반]	성공	[298531353]+41\aH수정결정체 지팡이
2017-01-05 21:42:07	settle:[단속반]	성공	[298531353]+42\aH수정결정체 지팡이
2017-01-05 21:42:08	settle:[단속반]	성공	[298531353]+43\aH수정결정체 지팡이
2017-01-05 21:42:09	settle:[단속반]	성공	[298531353]+44\aH수정결정체 지팡이
2017-01-05 21:42:09	settle:[단속반]	성공	[298531353]+45\aH수정결정체 지팡이
2017-01-05 21:42:10	settle:[단속반]	성공	[298531353]+46\aH수정결정체 지팡이
2017-01-05 21:42:10	settle:[단속반]	성공	[298531353]+47\aH수정결정체 지팡이
2017-01-05 21:42:11	settle:[단속반]	성공	[298531353]+48\aH수정결정체 지팡이
2017-01-05 21:42:12	settle:[단속반]	성공	[298531353]+49\aH수정결정체 지팡이
2017-01-05 21:42:12	settle:[단속반]	실패	[298531353]+49\aH수정결정체 지팡이
2017-01-05 21:42:13	settle:[단속반]	성공	[298531346]+1\aH진명황의 집행검
2017-01-05 21:44:46	dhodi:[용]	성공	[298531575]+8화룡의 티셔츠
2017-01-05 21:44:47	dhodi:[용]	성공	[298531575]+9화룡의 티셔츠
2017-01-05 21:44:48	dhodi:[용]	성공	[298531575]+10화룡의 티셔츠
2017-01-05 21:44:49	dhodi:[용]	성공	[298531575]+11화룡의 티셔츠
2017-01-05 21:44:49	dhodi:[용]	성공	[298531575]+12화룡의 티셔츠
2017-01-05 21:44:50	dhodi:[용]	성공	[298531575]+13화룡의 티셔츠
2017-01-05 21:44:50	dhodi:[용]	성공	[298531575]+14화룡의 티셔츠
2017-01-05 21:44:51	dhodi:[용]	성공	[298531575]+15화룡의 티셔츠
2017-01-05 21:44:52	dhodi:[용]	성공	[298531575]+16화룡의 티셔츠
2017-01-05 21:44:52	dhodi:[용]	성공	[298531575]+17화룡의 티셔츠
2017-01-05 21:44:53	dhodi:[용]	성공	[298531575]+18화룡의 티셔츠
2017-01-05 21:44:53	dhodi:[용]	성공	[298531575]+19화룡의 티셔츠
2017-01-05 21:44:54	dhodi:[용]	성공	[298531575]+20화룡의 티셔츠
2017-01-05 21:47:07	settle:[단속반]	성공	[298531494]+1\aH수정결정체 지팡이
2017-01-05 21:47:07	settle:[단속반]	성공	[298531494]+2\aH수정결정체 지팡이
2017-01-05 21:47:08	settle:[단속반]	성공	[298531494]+3\aH수정결정체 지팡이
2017-01-05 21:47:09	settle:[단속반]	성공	[298531494]+4\aH수정결정체 지팡이
2017-01-05 21:47:09	settle:[단속반]	성공	[298531494]+5\aH수정결정체 지팡이
2017-01-05 21:47:10	settle:[단속반]	성공	[298531494]+6\aH수정결정체 지팡이
2017-01-05 21:47:11	settle:[단속반]	성공	[298531494]+7\aH수정결정체 지팡이
2017-01-05 21:47:11	settle:[단속반]	성공	[298531494]+8\aH수정결정체 지팡이
2017-01-05 21:47:12	settle:[단속반]	성공	[298531494]+9\aH수정결정체 지팡이
2017-01-05 21:47:12	settle:[단속반]	성공	[298531494]+10\aH수정결정체 지팡이
2017-01-05 21:47:13	settle:[단속반]	성공	[298531494]+11\aH수정결정체 지팡이
2017-01-05 21:47:13	settle:[단속반]	성공	[298531494]+12\aH수정결정체 지팡이
2017-01-05 21:47:14	settle:[단속반]	성공	[298531494]+13\aH수정결정체 지팡이
2017-01-05 21:47:15	settle:[단속반]	성공	[298531494]+14\aH수정결정체 지팡이
2017-01-05 21:47:15	settle:[단속반]	성공	[298531494]+15\aH수정결정체 지팡이
2017-01-05 21:47:15	settle:[단속반]	성공	[298531494]+16\aH수정결정체 지팡이
2017-01-05 21:47:16	settle:[단속반]	성공	[298531494]+17\aH수정결정체 지팡이
2017-01-05 21:47:17	settle:[단속반]	성공	[298531494]+18\aH수정결정체 지팡이
2017-01-05 21:47:17	settle:[단속반]	성공	[298531494]+19\aH수정결정체 지팡이
2017-01-05 21:47:17	settle:[단속반]	성공	[298531494]+20\aH수정결정체 지팡이
2017-01-05 21:47:17	settle:[단속반]	성공	[298531494]+21\aH수정결정체 지팡이
2017-01-05 21:47:18	settle:[단속반]	성공	[298531494]+22\aH수정결정체 지팡이
2017-01-05 21:47:18	settle:[단속반]	성공	[298531494]+23\aH수정결정체 지팡이
2017-01-05 21:47:19	settle:[단속반]	성공	[298531494]+24\aH수정결정체 지팡이
2017-01-05 21:47:20	settle:[단속반]	성공	[298531494]+25\aH수정결정체 지팡이
2017-01-05 21:47:20	settle:[단속반]	성공	[298531494]+26\aH수정결정체 지팡이
2017-01-05 21:47:21	settle:[단속반]	성공	[298531494]+27\aH수정결정체 지팡이
2017-01-05 21:47:22	settle:[단속반]	성공	[298531494]+28\aH수정결정체 지팡이
2017-01-05 21:47:23	settle:[단속반]	성공	[298531494]+29\aH수정결정체 지팡이
2017-01-05 21:47:23	settle:[단속반]	성공	[298531494]+30\aH수정결정체 지팡이
2017-01-05 21:47:24	settle:[단속반]	성공	[298531494]+31\aH수정결정체 지팡이
2017-01-05 21:47:24	settle:[단속반]	성공	[298531494]+32\aH수정결정체 지팡이
2017-01-05 21:47:25	settle:[단속반]	성공	[298531494]+33\aH수정결정체 지팡이
2017-01-05 21:47:26	settle:[단속반]	성공	[298531494]+34\aH수정결정체 지팡이
2017-01-05 21:47:26	settle:[단속반]	성공	[298531494]+35\aH수정결정체 지팡이
2017-01-05 21:47:26	settle:[단속반]	성공	[298531494]+36\aH수정결정체 지팡이
2017-01-05 21:47:27	settle:[단속반]	성공	[298531494]+37\aH수정결정체 지팡이
2017-01-05 21:47:27	settle:[단속반]	성공	[298531494]+38\aH수정결정체 지팡이
2017-01-05 21:47:28	settle:[단속반]	성공	[298531494]+39\aH수정결정체 지팡이
2017-01-05 21:47:28	settle:[단속반]	성공	[298531494]+40\aH수정결정체 지팡이
2017-01-05 21:47:28	settle:[단속반]	성공	[298531494]+41\aH수정결정체 지팡이
2017-01-05 21:47:28	settle:[단속반]	성공	[298531494]+42\aH수정결정체 지팡이
2017-01-05 21:47:29	settle:[단속반]	성공	[298531494]+43\aH수정결정체 지팡이
2017-01-05 21:47:29	settle:[단속반]	성공	[298531494]+44\aH수정결정체 지팡이
2017-01-05 21:47:29	settle:[단속반]	성공	[298531494]+45\aH수정결정체 지팡이
2017-01-05 21:47:30	settle:[단속반]	성공	[298531494]+46\aH수정결정체 지팡이
2017-01-05 21:47:30	settle:[단속반]	성공	[298531494]+47\aH수정결정체 지팡이
2017-01-05 21:47:31	settle:[단속반]	성공	[298531494]+48\aH수정결정체 지팡이
2017-01-05 21:47:31	settle:[단속반]	성공	[298531494]+49\aH수정결정체 지팡이
2017-01-05 21:47:31	settle:[단속반]	성공	[298531494]+50\aH수정결정체 지팡이
2017-01-05 21:47:33	settle:[단속반]	성공	[298531494]+51\aH수정결정체 지팡이
2017-01-05 21:47:33	settle:[단속반]	성공	[298531494]+52\aH수정결정체 지팡이
2017-01-05 21:47:34	settle:[단속반]	성공	[298531494]+53\aH수정결정체 지팡이
2017-01-05 21:47:34	settle:[단속반]	성공	[298531494]+54\aH수정결정체 지팡이
2017-01-05 21:47:34	settle:[단속반]	성공	[298531494]+55\aH수정결정체 지팡이
2017-01-05 21:47:34	settle:[단속반]	성공	[298531494]+56\aH수정결정체 지팡이
2017-01-05 21:47:35	settle:[단속반]	성공	[298531494]+57\aH수정결정체 지팡이
2017-01-05 21:47:35	settle:[단속반]	성공	[298531494]+58\aH수정결정체 지팡이
2017-01-05 21:47:36	settle:[단속반]	성공	[298531494]+59\aH수정결정체 지팡이
2017-01-05 21:47:36	settle:[단속반]	실패	[298531494]+59\aH수정결정체 지팡이
2017-01-05 21:48:47	dhodi:[용]	성공	[298531570]+50커츠의 검
2017-01-05 21:48:48	dhodi:[용]	성공	[298531570]+51커츠의 검
2017-01-05 21:48:49	dhodi:[용]	실패	[298531570]+51커츠의 검
2017-01-05 21:48:55	dhodi:[용]	성공	[298532270]+61드래곤 슬레이어
2017-01-05 21:48:58	dhodi:[용]	성공	[298532580]+52커츠의 검
2017-01-05 21:49:01	dhodi:[용]	성공	[298532580]+53커츠의 검
2017-01-05 21:49:02	dhodi:[용]	성공	[298532580]+54커츠의 검
2017-01-05 21:49:03	dhodi:[용]	성공	[298532580]+55커츠의 검
2017-01-05 21:49:04	dhodi:[용]	성공	[298532580]+56커츠의 검
2017-01-05 21:49:05	dhodi:[용]	성공	[298532580]+57커츠의 검
2017-01-05 21:49:06	dhodi:[용]	성공	[298532580]+58커츠의 검
2017-01-05 21:49:07	dhodi:[용]	성공	[298532580]+59커츠의 검
2017-01-05 21:49:08	dhodi:[용]	성공	[298532580]+60커츠의 검
2017-01-05 21:49:09	dhodi:[용]	성공	[298532580]+61커츠의 검
2017-01-05 21:49:10	dhodi:[용]	성공	[298532580]+62커츠의 검
2017-01-05 21:49:11	dhodi:[용]	성공	[298532580]+63커츠의 검
2017-01-05 21:49:12	dhodi:[용]	성공	[298532580]+64커츠의 검
2017-01-05 21:49:13	dhodi:[용]	성공	[298532580]+65커츠의 검
2017-01-05 21:49:14	dhodi:[용]	성공	[298532580]+66커츠의 검
2017-01-05 21:49:14	dhodi:[용]	성공	[298532580]+67커츠의 검
2017-01-05 21:49:15	dhodi:[용]	성공	[298532580]+68커츠의 검
2017-01-05 21:49:16	dhodi:[용]	성공	[298532580]+69커츠의 검
2017-01-05 21:49:17	dhodi:[용]	성공	[298532580]+70커츠의 검
2017-01-05 21:49:17	dhodi:[용]	성공	[298532580]+71커츠의 검
2017-01-05 21:49:18	dhodi:[용]	성공	[298532580]+72커츠의 검
2017-01-05 21:49:19	dhodi:[용]	성공	[298532580]+73커츠의 검
2017-01-05 21:49:31	dhodi:[용]	성공	[298532580]+74커츠의 검
2017-01-05 21:49:32	dhodi:[용]	성공	[298532580]+75커츠의 검
2017-01-05 21:49:33	dhodi:[용]	성공	[298532580]+76커츠의 검
2017-01-05 21:49:33	dhodi:[용]	성공	[298532580]+77커츠의 검
2017-01-05 21:49:33	dhodi:[용]	성공	[298532580]+78커츠의 검
2017-01-05 21:49:34	dhodi:[용]	성공	[298532580]+79커츠의 검
2017-01-05 21:49:34	dhodi:[용]	성공	[298532580]+80커츠의 검
2017-01-05 21:49:35	dhodi:[용]	성공	[298532580]+81커츠의 검
2017-01-05 21:49:35	dhodi:[용]	성공	[298532580]+82커츠의 검
2017-01-05 21:49:36	dhodi:[용]	성공	[298532580]+83커츠의 검
2017-01-05 21:49:36	dhodi:[용]	성공	[298532580]+84커츠의 검
2017-01-05 21:49:37	dhodi:[용]	성공	[298532580]+85커츠의 검
2017-01-05 21:49:38	dhodi:[용]	성공	[298532580]+86커츠의 검
2017-01-05 21:49:38	dhodi:[용]	성공	[298532580]+87커츠의 검
2017-01-05 21:49:39	dhodi:[용]	성공	[298532580]+88커츠의 검
2017-01-05 21:49:39	dhodi:[용]	성공	[298532580]+89커츠의 검
2017-01-05 21:49:40	dhodi:[용]	성공	[298532580]+90커츠의 검
2017-01-05 21:49:40	dhodi:[용]	성공	[298532580]+91커츠의 검
2017-01-05 21:49:41	dhodi:[용]	성공	[298532580]+92커츠의 검
2017-01-05 21:49:42	dhodi:[용]	성공	[298532580]+93커츠의 검
2017-01-05 21:49:42	dhodi:[용]	성공	[298532580]+94커츠의 검
2017-01-05 21:49:43	dhodi:[용]	성공	[298532580]+95커츠의 검
2017-01-05 21:49:43	dhodi:[용]	성공	[298532580]+96커츠의 검
2017-01-05 21:49:44	dhodi:[용]	성공	[298532580]+97커츠의 검
2017-01-05 21:49:44	dhodi:[용]	성공	[298532580]+98커츠의 검
2017-01-05 21:49:45	dhodi:[용]	성공	[298532580]+99커츠의 검
2017-01-05 21:49:45	dhodi:[용]	성공	[298532580]+100커츠의 검
2017-01-05 21:49:45	dhodi:[용]	성공	[298532580]+101커츠의 검
2017-01-05 21:49:46	dhodi:[용]	성공	[298532580]+102커츠의 검
2017-01-05 21:49:46	dhodi:[용]	성공	[298532580]+103커츠의 검
2017-01-05 21:49:46	dhodi:[용]	성공	[298532580]+104커츠의 검
2017-01-05 21:49:47	dhodi:[용]	성공	[298532580]+105커츠의 검
2017-01-05 21:49:47	dhodi:[용]	성공	[298532580]+106커츠의 검
2017-01-05 21:49:47	dhodi:[용]	성공	[298532580]+107커츠의 검
2017-01-05 21:49:47	dhodi:[용]	성공	[298532580]+108커츠의 검
2017-01-05 21:49:48	dhodi:[용]	성공	[298532580]+109커츠의 검
2017-01-05 21:49:48	dhodi:[용]	성공	[298532580]+110커츠의 검
2017-01-05 21:49:48	dhodi:[용]	성공	[298532580]+111커츠의 검
2017-01-05 21:49:49	dhodi:[용]	성공	[298532580]+112커츠의 검
2017-01-05 21:49:49	dhodi:[용]	성공	[298532580]+113커츠의 검
2017-01-05 21:49:49	dhodi:[용]	성공	[298532580]+114커츠의 검
2017-01-05 21:49:49	dhodi:[용]	성공	[298532580]+115커츠의 검
2017-01-05 21:50:01	dhodi:[용]	성공	[298532270]+62드래곤 슬레이어
2017-01-05 21:50:01	dhodi:[용]	성공	[298532270]+63드래곤 슬레이어
2017-01-05 21:50:01	dhodi:[용]	성공	[298532270]+64드래곤 슬레이어
2017-01-05 21:50:01	dhodi:[용]	성공	[298532270]+65드래곤 슬레이어
2017-01-05 21:50:02	dhodi:[용]	성공	[298532270]+66드래곤 슬레이어
2017-01-05 21:50:02	dhodi:[용]	성공	[298532270]+67드래곤 슬레이어
2017-01-05 21:50:02	dhodi:[용]	성공	[298532270]+68드래곤 슬레이어
2017-01-05 21:50:02	dhodi:[용]	성공	[298532270]+69드래곤 슬레이어
2017-01-05 21:50:03	dhodi:[용]	성공	[298532270]+70드래곤 슬레이어
2017-01-05 21:50:03	dhodi:[용]	성공	[298532270]+71드래곤 슬레이어
2017-01-05 21:50:03	dhodi:[용]	성공	[298532270]+72드래곤 슬레이어
2017-01-05 21:50:03	dhodi:[용]	성공	[298532270]+73드래곤 슬레이어
2017-01-05 21:50:03	dhodi:[용]	성공	[298532270]+74드래곤 슬레이어
2017-01-05 21:50:03	dhodi:[용]	성공	[298532270]+75드래곤 슬레이어
2017-01-05 21:50:04	dhodi:[용]	성공	[298532270]+76드래곤 슬레이어
2017-01-05 21:50:04	dhodi:[용]	성공	[298532270]+77드래곤 슬레이어
2017-01-05 21:50:04	dhodi:[용]	성공	[298532270]+78드래곤 슬레이어
2017-01-05 21:50:05	dhodi:[용]	성공	[298532270]+79드래곤 슬레이어
2017-01-05 21:50:05	dhodi:[용]	성공	[298532270]+80드래곤 슬레이어
2017-01-05 21:50:05	dhodi:[용]	성공	[298532270]+81드래곤 슬레이어
2017-01-05 21:50:05	dhodi:[용]	성공	[298532270]+82드래곤 슬레이어
2017-01-05 21:50:06	dhodi:[용]	성공	[298532270]+83드래곤 슬레이어
2017-01-05 21:50:06	dhodi:[용]	성공	[298532270]+84드래곤 슬레이어
2017-01-05 21:50:06	dhodi:[용]	성공	[298532270]+85드래곤 슬레이어
2017-01-05 21:50:06	dhodi:[용]	성공	[298532270]+86드래곤 슬레이어
2017-01-05 21:50:07	dhodi:[용]	성공	[298532270]+87드래곤 슬레이어
2017-01-05 21:50:07	dhodi:[용]	성공	[298532270]+88드래곤 슬레이어
2017-01-05 21:50:07	dhodi:[용]	성공	[298532270]+89드래곤 슬레이어
2017-01-05 21:50:07	dhodi:[용]	성공	[298532270]+90드래곤 슬레이어
2017-01-05 21:50:07	dhodi:[용]	성공	[298532270]+91드래곤 슬레이어
2017-01-05 21:50:09	dhodi:[용]	성공	[298532270]+92드래곤 슬레이어
2017-01-05 21:50:13	dhodi:[용]	성공	[298532270]+93드래곤 슬레이어
2017-01-05 21:50:13	dhodi:[용]	성공	[298532270]+94드래곤 슬레이어
2017-01-05 21:50:13	dhodi:[용]	성공	[298532270]+95드래곤 슬레이어
2017-01-05 21:50:14	dhodi:[용]	성공	[298532270]+96드래곤 슬레이어
2017-01-05 21:50:14	dhodi:[용]	성공	[298532270]+97드래곤 슬레이어
2017-01-05 21:50:14	dhodi:[용]	성공	[298532270]+98드래곤 슬레이어
2017-01-05 21:50:14	dhodi:[용]	성공	[298532270]+99드래곤 슬레이어
2017-01-05 21:50:15	dhodi:[용]	성공	[298532270]+100드래곤 슬레이어
2017-01-05 22:06:09	settle:[령]	성공	[298532705]+5혼돈의 투구
2017-01-05 22:06:10	settle:[령]	성공	[298532705]+6혼돈의 투구
2017-01-05 22:06:12	settle:[령]	성공	[298532705]+7혼돈의 투구
2017-01-05 22:06:14	settle:[령]	성공	[298532705]+8혼돈의 투구
2017-01-05 22:06:14	settle:[령]	성공	[298532705]+9혼돈의 투구
2017-01-05 22:06:14	settle:[령]	성공	[298532705]+10혼돈의 투구
2017-01-05 22:06:15	settle:[령]	성공	[298532705]+11혼돈의 투구
2017-01-05 22:06:16	settle:[령]	성공	[298532705]+12혼돈의 투구
2017-01-05 22:06:16	settle:[령]	성공	[298532705]+13혼돈의 투구
2017-01-05 22:06:16	settle:[령]	성공	[298532705]+14혼돈의 투구
2017-01-05 22:06:16	settle:[령]	성공	[298532705]+15혼돈의 투구
2017-01-05 22:06:17	settle:[령]	성공	[298532705]+16혼돈의 투구
2017-01-05 22:06:18	settle:[령]	성공	[298532705]+17혼돈의 투구
2017-01-05 22:06:18	settle:[령]	성공	[298532705]+18혼돈의 투구
2017-01-05 22:06:19	settle:[령]	성공	[298532705]+19혼돈의 투구
2017-01-05 22:06:20	settle:[령]	성공	[298532705]+20혼돈의 투구
2017-01-05 22:06:29	settle:[령]	성공	[298532710]+8거대 여왕 개미의 금빛 날개
2017-01-05 22:06:30	settle:[령]	성공	[298532710]+9거대 여왕 개미의 금빛 날개
2017-01-05 22:06:30	settle:[령]	성공	[298532710]+10거대 여왕 개미의 금빛 날개
2017-01-05 22:06:31	settle:[령]	성공	[298532710]+11거대 여왕 개미의 금빛 날개
2017-01-05 22:06:32	settle:[령]	성공	[298532710]+12거대 여왕 개미의 금빛 날개
2017-01-05 22:06:33	settle:[령]	성공	[298532710]+13거대 여왕 개미의 금빛 날개
2017-01-05 22:06:33	settle:[령]	성공	[298532710]+14거대 여왕 개미의 금빛 날개
2017-01-05 22:06:34	settle:[령]	성공	[298532710]+15거대 여왕 개미의 금빛 날개
2017-01-05 22:06:34	settle:[령]	성공	[298532710]+16거대 여왕 개미의 금빛 날개
2017-01-05 22:06:35	settle:[령]	성공	[298532710]+17거대 여왕 개미의 금빛 날개
2017-01-05 22:06:35	settle:[령]	성공	[298532710]+18거대 여왕 개미의 금빛 날개
2017-01-05 22:06:36	settle:[령]	성공	[298532710]+19거대 여왕 개미의 금빛 날개
2017-01-05 22:06:37	settle:[령]	성공	[298532710]+20거대 여왕 개미의 금빛 날개
2017-01-05 22:06:42	settle:[령]	성공	[298532723]+8타라스의 부츠
2017-01-05 22:06:42	settle:[령]	성공	[298532723]+9타라스의 부츠
2017-01-05 22:06:43	settle:[령]	성공	[298532723]+10타라스의 부츠
2017-01-05 22:06:43	settle:[령]	성공	[298532723]+11타라스의 부츠
2017-01-05 22:06:43	settle:[령]	성공	[298532723]+12타라스의 부츠
2017-01-05 22:06:43	settle:[령]	성공	[298532723]+13타라스의 부츠
2017-01-05 22:06:44	settle:[령]	성공	[298532723]+14타라스의 부츠
2017-01-05 22:06:45	settle:[령]	성공	[298532723]+15타라스의 부츠
2017-01-05 22:06:45	settle:[령]	성공	[298532723]+16타라스의 부츠
2017-01-05 22:06:46	settle:[령]	성공	[298532723]+17타라스의 부츠
2017-01-05 22:06:47	settle:[령]	성공	[298532723]+18타라스의 부츠
2017-01-05 22:06:47	settle:[령]	성공	[298532723]+19타라스의 부츠
2017-01-05 22:06:47	settle:[령]	성공	[298532723]+20타라스의 부츠
2017-01-05 22:06:48	settle:[령]	성공	[298532724]+8타라스의 장갑
2017-01-05 22:06:48	settle:[령]	성공	[298532724]+9타라스의 장갑
2017-01-05 22:06:49	settle:[령]	성공	[298532724]+10타라스의 장갑
2017-01-05 22:06:49	settle:[령]	성공	[298532724]+11타라스의 장갑
2017-01-05 22:06:49	settle:[령]	성공	[298532724]+12타라스의 장갑
2017-01-05 22:06:49	settle:[령]	성공	[298532724]+13타라스의 장갑
2017-01-05 22:06:50	settle:[령]	성공	[298532724]+14타라스의 장갑
2017-01-05 22:06:50	settle:[령]	성공	[298532724]+15타라스의 장갑
2017-01-05 22:06:50	settle:[령]	성공	[298532724]+16타라스의 장갑
2017-01-05 22:06:51	settle:[령]	성공	[298532724]+17타라스의 장갑
2017-01-05 22:06:51	settle:[령]	성공	[298532724]+18타라스의 장갑
2017-01-05 22:06:52	settle:[령]	성공	[298532724]+19타라스의 장갑
2017-01-05 22:06:52	settle:[령]	성공	[298532724]+20타라스의 장갑
2017-01-05 22:06:53	settle:[령]	성공	[298532725]+8반역자의 방패
2017-01-05 22:06:54	settle:[령]	성공	[298532725]+9반역자의 방패
2017-01-05 22:06:54	settle:[령]	성공	[298532725]+10반역자의 방패
2017-01-05 22:06:55	settle:[령]	성공	[298532725]+11반역자의 방패
2017-01-05 22:06:55	settle:[령]	성공	[298532725]+12반역자의 방패
2017-01-05 22:06:55	settle:[령]	성공	[298532725]+13반역자의 방패
2017-01-05 22:06:56	settle:[령]	성공	[298532725]+14반역자의 방패
2017-01-05 22:06:56	settle:[령]	성공	[298532725]+15반역자의 방패
2017-01-05 22:06:57	settle:[령]	성공	[298532725]+16반역자의 방패
2017-01-05 22:06:57	settle:[령]	성공	[298532725]+17반역자의 방패
2017-01-05 22:06:57	settle:[령]	성공	[298532725]+18반역자의 방패
2017-01-05 22:06:58	settle:[령]	성공	[298532725]+19반역자의 방패
2017-01-05 22:06:58	settle:[령]	성공	[298532725]+20반역자의 방패
2017-01-05 22:06:59	settle:[령]	성공	[298532726]+8파푸리온의 예지력
2017-01-05 22:06:59	settle:[령]	성공	[298532726]+9파푸리온의 예지력
2017-01-05 22:07:00	settle:[령]	성공	[298532726]+10파푸리온의 예지력
2017-01-05 22:07:00	settle:[령]	성공	[298532726]+11파푸리온의 예지력
2017-01-05 22:07:01	settle:[령]	성공	[298532726]+12파푸리온의 예지력
2017-01-05 22:07:01	settle:[령]	성공	[298532726]+13파푸리온의 예지력
2017-01-05 22:07:02	settle:[령]	성공	[298532726]+14파푸리온의 예지력
2017-01-05 22:07:03	settle:[령]	성공	[298532726]+15파푸리온의 예지력
2017-01-05 22:07:03	settle:[령]	성공	[298532726]+16파푸리온의 예지력
2017-01-05 22:07:03	settle:[령]	성공	[298532726]+17파푸리온의 예지력
2017-01-05 22:07:05	settle:[령]	성공	[298532726]+18파푸리온의 예지력
2017-01-05 22:07:05	settle:[령]	성공	[298532726]+19파푸리온의 예지력
2017-01-05 22:07:05	settle:[령]	성공	[298532726]+20파푸리온의 예지력
2017-01-05 22:07:20	freezone:[철스]	성공	[298531571]+1\aF타이탄의 분노
2017-01-05 22:07:28	freezone:[철스]	성공	[298531571]+2\aF타이탄의 분노
2017-01-05 22:07:29	freezone:[철스]	성공	[298531571]+3\aF타이탄의 분노
2017-01-05 22:07:29	freezone:[철스]	성공	[298531571]+4\aF타이탄의 분노
2017-01-05 22:07:30	freezone:[철스]	성공	[298531571]+5\aF타이탄의 분노
2017-01-05 22:07:30	freezone:[철스]	성공	[298531571]+6\aF타이탄의 분노
2017-01-05 22:07:31	freezone:[철스]	성공	[298531571]+7\aF타이탄의 분노
2017-01-05 22:07:32	freezone:[철스]	성공	[298531571]+8\aF타이탄의 분노
2017-01-05 22:07:32	freezone:[철스]	성공	[298531571]+9\aF타이탄의 분노
2017-01-05 22:07:33	freezone:[철스]	성공	[298531571]+10\aF타이탄의 분노
2017-01-05 22:07:42	freezone:[철스]	성공	[298531269]+10태풍의 도끼
2017-01-05 22:07:42	freezone:[철스]	성공	[298531269]+11태풍의 도끼
2017-01-05 22:07:42	settle:[령]	성공	[298532732]+6투사의 목걸이
2017-01-05 22:07:43	freezone:[철스]	성공	[298531571]+11\aF타이탄의 분노
2017-01-05 22:07:44	settle:[령]	성공	[298532732]+7투사의 목걸이
2017-01-05 22:07:44	freezone:[철스]	성공	[298531571]+12\aF타이탄의 분노
2017-01-05 22:07:44	freezone:[철스]	성공	[298531269]+12태풍의 도끼
2017-01-05 22:07:45	freezone:[철스]	성공	[298531269]+13태풍의 도끼
2017-01-05 22:07:46	freezone:[철스]	성공	[298531571]+13\aF타이탄의 분노
2017-01-05 22:07:47	freezone:[철스]	성공	[298531571]+14\aF타이탄의 분노
2017-01-05 22:07:47	settle:[령]	성공	[298532732]+8투사의 목걸이
2017-01-05 22:07:47	freezone:[철스]	성공	[298531571]+15\aF타이탄의 분노
2017-01-05 22:07:48	freezone:[철스]	성공	[298531571]+16\aF타이탄의 분노
2017-01-05 22:07:48	settle:[령]	성공	[298532732]+9투사의 목걸이
2017-01-05 22:07:59	settle:[령]	성공	[298532713]+6에이션트 자이언트의 반지
2017-01-05 22:08:02	settle:[령]	성공	[298532713]+7에이션트 자이언트의 반지
2017-01-05 22:08:03	settle:[령]	성공	[298532713]+8에이션트 자이언트의 반지
2017-01-05 22:08:06	settle:[령]	성공	[298532713]+9에이션트 자이언트의 반지
2017-01-05 22:08:45	freezone:[철스]	성공	[298531571]+17\aF타이탄의 분노
2017-01-05 22:08:45	freezone:[철스]	성공	[298531571]+18\aF타이탄의 분노
2017-01-05 22:08:46	freezone:[철스]	성공	[298531571]+19\aF타이탄의 분노
2017-01-05 22:08:46	freezone:[철스]	성공	[298531571]+20\aF타이탄의 분노
2017-01-05 22:08:47	freezone:[철스]	성공	[298531571]+21\aF타이탄의 분노
2017-01-05 22:08:47	freezone:[철스]	성공	[298531571]+22\aF타이탄의 분노
2017-01-05 22:08:48	freezone:[철스]	성공	[298531571]+23\aF타이탄의 분노
2017-01-05 22:08:49	settle:[령]	성공	[298532721]+8유니콘의 완력 각반
2017-01-05 22:08:49	freezone:[철스]	성공	[298531571]+24\aF타이탄의 분노
2017-01-05 22:08:49	settle:[령]	성공	[298532721]+9유니콘의 완력 각반
2017-01-05 22:08:49	freezone:[철스]	성공	[298531571]+25\aF타이탄의 분노
2017-01-05 22:08:50	freezone:[철스]	성공	[298531571]+26\aF타이탄의 분노
2017-01-05 22:08:51	settle:[령]	성공	[298532721]+10유니콘의 완력 각반
2017-01-05 22:08:52	settle:[령]	성공	[298532721]+11유니콘의 완력 각반
2017-01-05 22:08:55	settle:[령]	성공	[298532721]+12유니콘의 완력 각반
2017-01-05 22:08:56	settle:[령]	성공	[298532721]+13유니콘의 완력 각반
2017-01-05 22:08:57	settle:[령]	성공	[298532721]+14유니콘의 완력 각반
2017-01-05 22:08:58	settle:[령]	성공	[298532721]+15유니콘의 완력 각반
2017-01-05 22:08:59	settle:[령]	성공	[298532721]+16유니콘의 완력 각반
2017-01-05 22:09:00	settle:[령]	성공	[298532721]+17유니콘의 완력 각반
2017-01-05 22:09:00	settle:[령]	성공	[298532721]+18유니콘의 완력 각반
2017-01-05 22:09:01	settle:[령]	성공	[298532721]+19유니콘의 완력 각반
2017-01-05 22:09:02	settle:[령]	성공	[298532721]+20유니콘의 완력 각반
2017-01-05 22:09:56	settle:[령]	성공	[298532836]+5티셔츠
2017-01-05 22:09:57	settle:[령]	성공	[298532836]+6티셔츠
2017-01-05 22:09:57	settle:[령]	성공	[298532836]+7티셔츠
2017-01-05 22:09:57	settle:[령]	성공	[298532836]+8티셔츠
2017-01-05 22:09:58	settle:[령]	성공	[298532836]+9티셔츠
2017-01-05 22:09:58	settle:[령]	성공	[298532836]+10티셔츠
2017-01-05 22:09:58	settle:[령]	성공	[298532836]+11티셔츠
2017-01-05 22:09:59	settle:[령]	성공	[298532836]+12티셔츠
2017-01-05 22:10:00	settle:[령]	성공	[298532836]+13티셔츠
2017-01-05 22:10:00	settle:[령]	성공	[298532836]+14티셔츠
2017-01-05 22:10:01	settle:[령]	성공	[298532836]+15티셔츠
2017-01-05 22:10:01	settle:[령]	성공	[298532836]+16티셔츠
2017-01-05 22:10:01	settle:[령]	성공	[298532836]+17티셔츠
2017-01-05 22:10:01	settle:[령]	성공	[298532836]+18티셔츠
2017-01-05 22:10:02	settle:[령]	성공	[298532836]+19티셔츠
2017-01-05 22:10:03	settle:[령]	성공	[298532836]+20티셔츠
2017-01-05 22:12:28	freezone:[철스]	성공	[298531571]+27\aF타이탄의 분노
2017-01-05 22:12:28	freezone:[철스]	성공	[298531571]+28\aF타이탄의 분노
2017-01-05 22:12:29	freezone:[철스]	성공	[298531571]+29\aF타이탄의 분노
2017-01-05 22:12:29	freezone:[철스]	성공	[298531571]+30\aF타이탄의 분노
2017-01-05 22:12:30	freezone:[철스]	성공	[298531571]+31\aF타이탄의 분노
2017-01-05 22:12:31	freezone:[철스]	성공	[298531571]+32\aF타이탄의 분노
2017-01-05 22:12:31	freezone:[철스]	성공	[298531571]+33\aF타이탄의 분노
2017-01-05 22:12:32	freezone:[철스]	성공	[298531571]+34\aF타이탄의 분노
2017-01-05 22:12:32	freezone:[철스]	성공	[298531571]+35\aF타이탄의 분노
2017-01-05 22:12:33	freezone:[철스]	성공	[298531571]+36\aF타이탄의 분노
2017-01-05 22:12:50	freezone:[철스]	성공	[298531571]+37\aF타이탄의 분노
2017-01-05 22:12:51	freezone:[철스]	성공	[298531571]+38\aF타이탄의 분노
2017-01-05 22:12:52	freezone:[철스]	성공	[298531571]+39\aF타이탄의 분노
2017-01-05 22:12:52	freezone:[철스]	성공	[298531571]+40\aF타이탄의 분노
2017-01-05 22:12:53	freezone:[철스]	성공	[298531571]+41\aF타이탄의 분노
2017-01-05 22:12:53	freezone:[철스]	성공	[298531571]+42\aF타이탄의 분노
2017-01-05 22:12:54	freezone:[철스]	성공	[298531571]+43\aF타이탄의 분노
2017-01-05 22:12:54	freezone:[철스]	성공	[298531571]+44\aF타이탄의 분노
2017-01-05 22:12:54	freezone:[철스]	성공	[298531571]+45\aF타이탄의 분노
2017-01-05 22:12:55	freezone:[철스]	성공	[298531571]+46\aF타이탄의 분노
2017-01-05 22:13:07	freezone:[철스]	성공	[298531571]+47\aF타이탄의 분노
2017-01-05 22:13:07	freezone:[철스]	성공	[298531571]+48\aF타이탄의 분노
2017-01-05 22:13:07	freezone:[철스]	성공	[298531571]+49\aF타이탄의 분노
2017-01-05 22:13:08	freezone:[철스]	성공	[298531571]+50\aF타이탄의 분노
2017-01-05 22:13:08	freezone:[철스]	성공	[298531571]+51\aF타이탄의 분노
2017-01-05 22:13:09	freezone:[철스]	성공	[298531571]+52\aF타이탄의 분노
2017-01-05 22:13:10	freezone:[철스]	성공	[298531571]+53\aF타이탄의 분노
2017-01-05 22:13:11	freezone:[철스]	성공	[298531571]+54\aF타이탄의 분노
2017-01-05 22:13:11	freezone:[철스]	성공	[298531571]+55\aF타이탄의 분노
2017-01-05 22:13:12	freezone:[철스]	성공	[298531571]+56\aF타이탄의 분노
2017-01-05 22:15:57	dhodi:[용]	성공	[298532994]+1\aH바람칼날의 단검
2017-01-05 22:15:58	dhodi:[용]	성공	[298532994]+2\aH바람칼날의 단검
2017-01-05 22:15:58	dhodi:[용]	성공	[298532994]+3\aH바람칼날의 단검
2017-01-05 22:15:58	dhodi:[용]	성공	[298532994]+4\aH바람칼날의 단검
2017-01-05 22:15:58	dhodi:[용]	성공	[298532994]+5\aH바람칼날의 단검
2017-01-05 22:15:59	dhodi:[용]	성공	[298532994]+6\aH바람칼날의 단검
2017-01-05 22:15:59	dhodi:[용]	성공	[298532994]+7\aH바람칼날의 단검
2017-01-05 22:15:59	dhodi:[용]	성공	[298532994]+8\aH바람칼날의 단검
2017-01-05 22:15:59	dhodi:[용]	성공	[298532994]+9\aH바람칼날의 단검
2017-01-05 22:16:00	dhodi:[용]	성공	[298532994]+10\aH바람칼날의 단검
2017-01-05 22:16:00	dhodi:[용]	성공	[298532994]+11\aH바람칼날의 단검
2017-01-05 22:16:00	dhodi:[용]	성공	[298532994]+12\aH바람칼날의 단검
2017-01-05 22:16:00	dhodi:[용]	성공	[298532994]+13\aH바람칼날의 단검
2017-01-05 22:16:00	dhodi:[용]	성공	[298532994]+14\aH바람칼날의 단검
2017-01-05 22:16:00	dhodi:[용]	성공	[298532994]+15\aH바람칼날의 단검
2017-01-05 22:16:01	dhodi:[용]	성공	[298532994]+16\aH바람칼날의 단검
2017-01-05 22:16:01	dhodi:[용]	성공	[298532994]+17\aH바람칼날의 단검
2017-01-05 22:16:01	dhodi:[용]	성공	[298532994]+18\aH바람칼날의 단검
2017-01-05 22:16:01	dhodi:[용]	성공	[298532994]+19\aH바람칼날의 단검
2017-01-05 22:16:01	dhodi:[용]	성공	[298532994]+20\aH바람칼날의 단검
2017-01-05 22:16:01	dhodi:[용]	성공	[298532994]+21\aH바람칼날의 단검
2017-01-05 22:16:02	dhodi:[용]	성공	[298532994]+22\aH바람칼날의 단검
2017-01-05 22:16:02	dhodi:[용]	성공	[298532994]+23\aH바람칼날의 단검
2017-01-05 22:16:02	dhodi:[용]	성공	[298532994]+24\aH바람칼날의 단검
2017-01-05 22:16:02	dhodi:[용]	성공	[298532994]+25\aH바람칼날의 단검
2017-01-05 22:16:03	dhodi:[용]	성공	[298532994]+26\aH바람칼날의 단검
2017-01-05 22:16:03	dhodi:[용]	성공	[298532994]+27\aH바람칼날의 단검
2017-01-05 22:16:03	dhodi:[용]	성공	[298532994]+28\aH바람칼날의 단검
2017-01-05 22:16:03	dhodi:[용]	성공	[298532994]+29\aH바람칼날의 단검
2017-01-05 22:16:03	dhodi:[용]	성공	[298532994]+30\aH바람칼날의 단검
2017-01-05 22:16:04	dhodi:[용]	성공	[298532994]+31\aH바람칼날의 단검
2017-01-05 22:16:04	dhodi:[용]	성공	[298532994]+32\aH바람칼날의 단검
2017-01-05 22:16:04	dhodi:[용]	성공	[298532994]+33\aH바람칼날의 단검
2017-01-05 22:16:04	dhodi:[용]	성공	[298532994]+34\aH바람칼날의 단검
2017-01-05 22:16:04	dhodi:[용]	성공	[298532994]+35\aH바람칼날의 단검
2017-01-05 22:16:05	dhodi:[용]	성공	[298532994]+36\aH바람칼날의 단검
2017-01-05 22:16:05	dhodi:[용]	성공	[298532994]+37\aH바람칼날의 단검
2017-01-05 22:16:05	dhodi:[용]	성공	[298532994]+38\aH바람칼날의 단검
2017-01-05 22:16:05	dhodi:[용]	실패	[298532994]+38\aH바람칼날의 단검
2017-01-05 22:16:13	dhodi:[용]	성공	[298533003]+39\aH바람칼날의 단검
2017-01-05 22:16:14	dhodi:[용]	성공	[298533003]+40\aH바람칼날의 단검
2017-01-05 22:16:14	dhodi:[용]	성공	[298533003]+41\aH바람칼날의 단검
2017-01-05 22:16:14	dhodi:[용]	성공	[298533003]+42\aH바람칼날의 단검
2017-01-05 22:16:15	dhodi:[용]	성공	[298533003]+43\aH바람칼날의 단검
2017-01-05 22:16:15	dhodi:[용]	성공	[298533003]+44\aH바람칼날의 단검
2017-01-05 22:16:15	dhodi:[용]	성공	[298533003]+45\aH바람칼날의 단검
2017-01-05 22:16:16	dhodi:[용]	성공	[298533003]+46\aH바람칼날의 단검
2017-01-05 22:16:16	dhodi:[용]	성공	[298533003]+47\aH바람칼날의 단검
2017-01-05 22:16:16	dhodi:[용]	성공	[298533003]+48\aH바람칼날의 단검
2017-01-05 22:16:16	dhodi:[용]	성공	[298533003]+49\aH바람칼날의 단검
2017-01-05 22:16:17	dhodi:[용]	성공	[298533003]+50\aH바람칼날의 단검
2017-01-05 22:16:17	dhodi:[용]	성공	[298533003]+51\aH바람칼날의 단검
2017-01-05 22:16:17	dhodi:[용]	성공	[298533003]+52\aH바람칼날의 단검
2017-01-05 22:16:17	dhodi:[용]	성공	[298533003]+53\aH바람칼날의 단검
2017-01-05 22:16:17	dhodi:[용]	성공	[298533003]+54\aH바람칼날의 단검
2017-01-05 22:16:17	dhodi:[용]	성공	[298533003]+55\aH바람칼날의 단검
2017-01-05 22:16:17	dhodi:[용]	성공	[298533003]+56\aH바람칼날의 단검
2017-01-05 22:16:18	dhodi:[용]	성공	[298533003]+57\aH바람칼날의 단검
2017-01-05 22:16:18	dhodi:[용]	성공	[298533003]+58\aH바람칼날의 단검
2017-01-05 22:16:18	dhodi:[용]	성공	[298533003]+59\aH바람칼날의 단검
2017-01-05 22:16:19	dhodi:[용]	성공	[298533003]+60\aH바람칼날의 단검
2017-01-05 22:16:19	dhodi:[용]	실패	[298533003]+60\aH바람칼날의 단검
2017-01-05 22:16:26	dhodi:[용]	성공	[298533004]+61\aH바람칼날의 단검
2017-01-05 22:16:27	dhodi:[용]	성공	[298533004]+62\aH바람칼날의 단검
2017-01-05 22:16:27	dhodi:[용]	성공	[298533004]+63\aH바람칼날의 단검
2017-01-05 22:16:28	dhodi:[용]	성공	[298533004]+64\aH바람칼날의 단검
2017-01-05 22:16:29	dhodi:[용]	성공	[298533004]+65\aH바람칼날의 단검
2017-01-05 22:16:29	dhodi:[용]	성공	[298533004]+66\aH바람칼날의 단검
2017-01-05 22:16:30	dhodi:[용]	성공	[298533004]+67\aH바람칼날의 단검
2017-01-05 22:16:30	dhodi:[용]	실패	[298533004]+67\aH바람칼날의 단검
2017-01-05 22:16:37	dhodi:[용]	성공	[298533005]+68\aH바람칼날의 단검
2017-01-05 22:16:37	dhodi:[용]	성공	[298533005]+69\aH바람칼날의 단검
2017-01-05 22:16:38	dhodi:[용]	성공	[298533005]+70\aH바람칼날의 단검
2017-01-05 22:16:39	dhodi:[용]	성공	[298533005]+71\aH바람칼날의 단검
2017-01-05 22:16:40	dhodi:[용]	성공	[298533005]+72\aH바람칼날의 단검
2017-01-05 22:16:41	dhodi:[용]	성공	[298533005]+73\aH바람칼날의 단검
2017-01-05 22:16:42	dhodi:[용]	성공	[298533005]+74\aH바람칼날의 단검
2017-01-05 22:16:43	dhodi:[용]	성공	[298533005]+75\aH바람칼날의 단검
2017-01-05 22:16:44	dhodi:[용]	성공	[298533005]+76\aH바람칼날의 단검
2017-01-05 22:16:45	dhodi:[용]	성공	[298533005]+77\aH바람칼날의 단검
2017-01-05 22:16:45	dhodi:[용]	성공	[298533005]+78\aH바람칼날의 단검
2017-01-05 22:16:46	dhodi:[용]	성공	[298533005]+79\aH바람칼날의 단검
2017-01-05 22:16:48	dhodi:[용]	성공	[298533005]+80\aH바람칼날의 단검
2017-01-05 22:16:49	dhodi:[용]	성공	[298533005]+81\aH바람칼날의 단검
2017-01-05 22:16:50	dhodi:[용]	성공	[298533005]+82\aH바람칼날의 단검
2017-01-05 22:16:50	dhodi:[용]	성공	[298533005]+83\aH바람칼날의 단검
2017-01-05 22:16:51	dhodi:[용]	성공	[298533005]+84\aH바람칼날의 단검
2017-01-05 22:16:52	dhodi:[용]	성공	[298533005]+85\aH바람칼날의 단검
2017-01-05 22:16:53	dhodi:[용]	성공	[298533005]+86\aH바람칼날의 단검
2017-01-05 22:16:55	dhodi:[용]	성공	[298533005]+87\aH바람칼날의 단검
2017-01-05 22:16:56	dhodi:[용]	성공	[298533005]+88\aH바람칼날의 단검
2017-01-05 22:16:57	dhodi:[용]	성공	[298533005]+89\aH바람칼날의 단검
2017-01-05 22:16:58	dhodi:[용]	성공	[298533005]+90\aH바람칼날의 단검
2017-01-05 22:16:59	dhodi:[용]	성공	[298533005]+91\aH바람칼날의 단검
2017-01-05 22:17:00	dhodi:[용]	성공	[298533005]+92\aH바람칼날의 단검
2017-01-05 22:17:02	dhodi:[용]	성공	[298533005]+93\aH바람칼날의 단검
2017-01-05 22:17:03	dhodi:[용]	성공	[298533005]+94\aH바람칼날의 단검
2017-01-05 22:17:04	dhodi:[용]	성공	[298533005]+95\aH바람칼날의 단검
2017-01-05 22:17:05	dhodi:[용]	성공	[298533005]+96\aH바람칼날의 단검
2017-01-05 22:17:06	dhodi:[용]	성공	[298533005]+97\aH바람칼날의 단검
2017-01-05 22:17:21	dhodi:[용]	성공	[298533005]+98\aH바람칼날의 단검
2017-01-05 22:17:22	dhodi:[용]	성공	[298533005]+99\aH바람칼날의 단검
2017-01-05 22:17:23	dhodi:[용]	성공	[298533005]+100\aH바람칼날의 단검
2017-01-05 22:19:45	dhodi:[용]	성공	[298532958]+6\aH크로노스의 벨트
2017-01-05 22:19:46	dhodi:[용]	성공	[298532958]+7\aH크로노스의 벨트
2017-01-05 22:19:47	dhodi:[용]	성공	[298532958]+8\aH크로노스의 벨트
2017-01-05 22:19:49	dhodi:[용]	성공	[298532958]+9\aH크로노스의 벨트
2017-01-05 22:19:51	dhodi:[용]	성공	[298532919]+6마왕의 반지
2017-01-05 22:19:52	dhodi:[용]	성공	[298532919]+7마왕의 반지
2017-01-05 22:19:54	dhodi:[용]	성공	[298532920]+6마왕의 반지
2017-01-05 22:19:55	dhodi:[용]	성공	[298532920]+7마왕의 반지
2017-01-05 22:19:56	dhodi:[용]	성공	[298532920]+8마왕의 반지
2017-01-05 22:19:57	dhodi:[용]	성공	[298532920]+9마왕의 반지
2017-01-05 22:19:59	dhodi:[용]	성공	[298532919]+8마왕의 반지
2017-01-05 22:20:00	dhodi:[용]	성공	[298532919]+9마왕의 반지
2017-01-05 22:23:13	didho:[공주]	성공	[298532981]+8반역자의 방패
2017-01-05 22:23:14	didho:[공주]	성공	[298532981]+9반역자의 방패
2017-01-05 22:23:14	didho:[공주]	성공	[298532981]+10반역자의 방패
2017-01-05 22:23:15	didho:[공주]	성공	[298532981]+11반역자의 방패
2017-01-05 22:23:15	didho:[공주]	성공	[298532981]+12반역자의 방패
2017-01-05 22:23:16	didho:[공주]	성공	[298532981]+13반역자의 방패
2017-01-05 22:23:17	didho:[공주]	성공	[298532981]+14반역자의 방패
2017-01-05 22:23:17	didho:[공주]	성공	[298532981]+15반역자의 방패
2017-01-05 22:23:18	didho:[공주]	성공	[298532981]+16반역자의 방패
2017-01-05 22:23:18	didho:[공주]	성공	[298532981]+17반역자의 방패
2017-01-05 22:23:19	didho:[공주]	성공	[298532981]+18반역자의 방패
2017-01-05 22:23:19	didho:[공주]	성공	[298532981]+19반역자의 방패
2017-01-05 22:23:20	didho:[공주]	성공	[298532981]+20반역자의 방패
2017-01-05 22:23:25	didho:[공주]	성공	[298532968]+8타라스의 부츠
2017-01-05 22:23:26	didho:[공주]	성공	[298532968]+9타라스의 부츠
2017-01-05 22:23:26	didho:[공주]	성공	[298532968]+10타라스의 부츠
2017-01-05 22:23:26	didho:[공주]	성공	[298532968]+11타라스의 부츠
2017-01-05 22:23:26	didho:[공주]	성공	[298532968]+12타라스의 부츠
2017-01-05 22:23:55	didho:[공주]	성공	[298533219]+8화룡의 티셔츠
2017-01-05 22:23:55	didho:[공주]	성공	[298533219]+9화룡의 티셔츠
2017-01-05 22:23:56	didho:[공주]	성공	[298533219]+10화룡의 티셔츠
2017-01-05 22:23:56	didho:[공주]	성공	[298533219]+11화룡의 티셔츠
2017-01-05 22:23:56	didho:[공주]	성공	[298533219]+12화룡의 티셔츠
2017-01-05 22:23:56	didho:[공주]	성공	[298533219]+13화룡의 티셔츠
2017-01-05 22:23:57	didho:[공주]	성공	[298533219]+14화룡의 티셔츠
2017-01-05 22:23:57	didho:[공주]	성공	[298533219]+15화룡의 티셔츠
2017-01-05 22:23:57	didho:[공주]	성공	[298533219]+16화룡의 티셔츠
2017-01-05 22:23:57	didho:[공주]	성공	[298533219]+17화룡의 티셔츠
2017-01-05 22:23:58	didho:[공주]	성공	[298533219]+18화룡의 티셔츠
2017-01-05 22:23:58	didho:[공주]	성공	[298533219]+19화룡의 티셔츠
2017-01-05 22:23:58	didho:[공주]	성공	[298533219]+20화룡의 티셔츠
2017-01-05 22:25:16	settle:[말보루]	성공	[298533215]+6스냅퍼의 마법 저항 반지
2017-01-05 22:25:17	settle:[말보루]	성공	[298533215]+7스냅퍼의 마법 저항 반지
2017-01-05 22:25:18	settle:[말보루]	성공	[298533215]+8스냅퍼의 마법 저항 반지
2017-01-05 22:25:20	settle:[말보루]	성공	[298533216]+6스냅퍼의 마법 저항 반지
2017-01-05 22:25:21	settle:[말보루]	성공	[298533216]+7스냅퍼의 마법 저항 반지
2017-01-05 22:25:22	settle:[말보루]	성공	[298533216]+8스냅퍼의 마법 저항 반지
2017-01-05 22:26:38	freezone:[철스]	성공	[298531721]+8발라카스의 완력
2017-01-05 22:26:39	freezone:[철스]	성공	[298531721]+9발라카스의 완력
2017-01-05 22:26:40	freezone:[철스]	성공	[298531721]+10발라카스의 완력
2017-01-05 22:26:41	freezone:[철스]	성공	[298531721]+11발라카스의 완력
2017-01-05 22:26:41	freezone:[철스]	성공	[298531721]+12발라카스의 완력
2017-01-05 22:26:42	freezone:[철스]	성공	[298531721]+13발라카스의 완력
2017-01-05 22:26:42	freezone:[철스]	성공	[298531721]+14발라카스의 완력
2017-01-05 22:26:43	freezone:[철스]	성공	[298531721]+15발라카스의 완력
2017-01-05 22:26:43	freezone:[철스]	성공	[298531721]+16발라카스의 완력
2017-01-05 22:26:44	freezone:[철스]	성공	[298531721]+17발라카스의 완력
2017-01-05 22:26:44	freezone:[철스]	성공	[298531721]+18발라카스의 완력
2017-01-05 22:26:45	freezone:[철스]	성공	[298531721]+19발라카스의 완력
2017-01-05 22:26:45	freezone:[철스]	성공	[298531721]+20발라카스의 완력
2017-01-05 22:26:48	freezone:[철스]	성공	[298531748]+8거대 여왕 개미의 금빛 날개
2017-01-05 22:26:48	freezone:[철스]	성공	[298531748]+9거대 여왕 개미의 금빛 날개
2017-01-05 22:26:50	freezone:[철스]	성공	[298531748]+10거대 여왕 개미의 금빛 날개
2017-01-05 22:26:50	freezone:[철스]	성공	[298531748]+11거대 여왕 개미의 금빛 날개
2017-01-05 22:26:50	freezone:[철스]	성공	[298531748]+12거대 여왕 개미의 금빛 날개
2017-01-05 22:26:51	freezone:[철스]	성공	[298531748]+13거대 여왕 개미의 금빛 날개
2017-01-05 22:26:51	freezone:[철스]	성공	[298531748]+14거대 여왕 개미의 금빛 날개
2017-01-05 22:26:51	freezone:[철스]	성공	[298531748]+15거대 여왕 개미의 금빛 날개
2017-01-05 22:26:52	freezone:[철스]	성공	[298531748]+16거대 여왕 개미의 금빛 날개
2017-01-05 22:26:52	freezone:[철스]	성공	[298531748]+17거대 여왕 개미의 금빛 날개
2017-01-05 22:26:53	freezone:[철스]	성공	[298531748]+18거대 여왕 개미의 금빛 날개
2017-01-05 22:26:53	freezone:[철스]	성공	[298531748]+19거대 여왕 개미의 금빛 날개
2017-01-05 22:26:54	freezone:[철스]	성공	[298531748]+20거대 여왕 개미의 금빛 날개
2017-01-05 22:27:06	settle:[말보루]	성공	[298533245]+5마법 방어 각반
2017-01-05 22:27:07	settle:[말보루]	성공	[298533245]+6마법 방어 각반
2017-01-05 22:27:07	settle:[말보루]	성공	[298533245]+7마법 방어 각반
2017-01-05 22:27:07	settle:[말보루]	성공	[298533245]+8마법 방어 각반
2017-01-05 22:27:08	settle:[말보루]	성공	[298533245]+9마법 방어 각반
2017-01-05 22:27:08	settle:[말보루]	성공	[298533245]+10마법 방어 각반
2017-01-05 22:27:08	settle:[말보루]	성공	[298533245]+11마법 방어 각반
2017-01-05 22:27:09	settle:[말보루]	성공	[298533245]+12마법 방어 각반
2017-01-05 22:27:09	settle:[말보루]	성공	[298533245]+13마법 방어 각반
2017-01-05 22:27:10	freezone:[철스]	성공	[298531743]+8수호성의 파워 글로브
2017-01-05 22:27:10	settle:[말보루]	성공	[298533245]+14마법 방어 각반
2017-01-05 22:27:10	settle:[말보루]	성공	[298533245]+15마법 방어 각반
2017-01-05 22:27:10	settle:[말보루]	성공	[298533245]+16마법 방어 각반
2017-01-05 22:27:10	freezone:[철스]	성공	[298531743]+9수호성의 파워 글로브
2017-01-05 22:27:10	settle:[말보루]	성공	[298533245]+17마법 방어 각반
2017-01-05 22:27:11	freezone:[철스]	성공	[298531743]+10수호성의 파워 글로브
2017-01-05 22:27:11	settle:[말보루]	성공	[298533245]+18마법 방어 각반
2017-01-05 22:27:11	settle:[말보루]	성공	[298533245]+19마법 방어 각반
2017-01-05 22:27:11	settle:[말보루]	성공	[298533245]+20마법 방어 각반
2017-01-05 22:27:11	freezone:[철스]	성공	[298531743]+11수호성의 파워 글로브
2017-01-05 22:27:12	settle:[말보루]	성공	[298533244]+5빛나는 마력의 장갑
2017-01-05 22:27:12	settle:[말보루]	성공	[298533244]+6빛나는 마력의 장갑
2017-01-05 22:27:13	settle:[말보루]	성공	[298533244]+7빛나는 마력의 장갑
2017-01-05 22:27:14	settle:[말보루]	성공	[298533244]+8빛나는 마력의 장갑
2017-01-05 22:27:14	settle:[말보루]	성공	[298533244]+9빛나는 마력의 장갑
2017-01-05 22:27:15	settle:[말보루]	성공	[298533244]+10빛나는 마력의 장갑
2017-01-05 22:27:15	settle:[말보루]	성공	[298533244]+11빛나는 마력의 장갑
2017-01-05 22:27:15	settle:[말보루]	성공	[298533244]+12빛나는 마력의 장갑
2017-01-05 22:27:15	settle:[말보루]	성공	[298533244]+13빛나는 마력의 장갑
2017-01-05 22:27:16	settle:[말보루]	성공	[298533244]+14빛나는 마력의 장갑
2017-01-05 22:27:16	settle:[말보루]	성공	[298533244]+15빛나는 마력의 장갑
2017-01-05 22:27:16	settle:[말보루]	성공	[298533244]+16빛나는 마력의 장갑
2017-01-05 22:27:16	settle:[말보루]	성공	[298533244]+17빛나는 마력의 장갑
2017-01-05 22:27:17	settle:[말보루]	성공	[298533244]+18빛나는 마력의 장갑
2017-01-05 22:27:17	settle:[말보루]	성공	[298533244]+19빛나는 마력의 장갑
2017-01-05 22:27:18	settle:[말보루]	성공	[298533244]+20빛나는 마력의 장갑
2017-01-05 22:27:19	settle:[말보루]	성공	[298533246]+5흑장로의 샌달
2017-01-05 22:27:19	settle:[말보루]	성공	[298533246]+6흑장로의 샌달
2017-01-05 22:27:19	settle:[말보루]	성공	[298533246]+7흑장로의 샌달
2017-01-05 22:27:20	settle:[말보루]	성공	[298533246]+8흑장로의 샌달
2017-01-05 22:27:20	settle:[말보루]	성공	[298533246]+9흑장로의 샌달
2017-01-05 22:27:21	settle:[말보루]	성공	[298533246]+10흑장로의 샌달
2017-01-05 22:27:21	freezone:[철스]	성공	[298531571]+57\aF타이탄의 분노
2017-01-05 22:27:22	settle:[말보루]	성공	[298533246]+11흑장로의 샌달
2017-01-05 22:27:22	freezone:[철스]	성공	[298531571]+58\aF타이탄의 분노
2017-01-05 22:27:22	settle:[말보루]	성공	[298533246]+12흑장로의 샌달
2017-01-05 22:27:23	settle:[말보루]	성공	[298533246]+13흑장로의 샌달
2017-01-05 22:27:23	freezone:[철스]	성공	[298531571]+59\aF타이탄의 분노
2017-01-05 22:27:23	settle:[말보루]	성공	[298533246]+14흑장로의 샌달
2017-01-05 22:27:24	freezone:[철스]	성공	[298531571]+60\aF타이탄의 분노
2017-01-05 22:27:24	settle:[말보루]	성공	[298533246]+15흑장로의 샌달
2017-01-05 22:27:25	settle:[말보루]	성공	[298533246]+16흑장로의 샌달
2017-01-05 22:27:25	settle:[말보루]	성공	[298533246]+17흑장로의 샌달
2017-01-05 22:27:25	freezone:[철스]	성공	[298531269]+14태풍의 도끼
2017-01-05 22:27:25	settle:[말보루]	성공	[298533246]+18흑장로의 샌달
2017-01-05 22:27:26	freezone:[철스]	성공	[298531269]+15태풍의 도끼
2017-01-05 22:27:26	settle:[말보루]	성공	[298533246]+19흑장로의 샌달
2017-01-05 22:27:27	freezone:[철스]	성공	[298531571]+61\aF타이탄의 분노
2017-01-05 22:27:27	freezone:[철스]	성공	[298531571]+62\aF타이탄의 분노
2017-01-05 22:27:27	settle:[말보루]	성공	[298533246]+20흑장로의 샌달
2017-01-05 22:27:28	freezone:[철스]	성공	[298531571]+63\aF타이탄의 분노
2017-01-05 22:27:28	freezone:[철스]	성공	[298531571]+64\aF타이탄의 분노
2017-01-05 22:27:40	settle:[말보루]	성공	[298533209]+8발라카스의 마력
2017-01-05 22:27:40	settle:[말보루]	성공	[298533209]+9발라카스의 마력
2017-01-05 22:27:41	settle:[말보루]	성공	[298533209]+10발라카스의 마력
2017-01-05 22:27:41	settle:[말보루]	성공	[298533209]+11발라카스의 마력
2017-01-05 22:27:41	settle:[말보루]	성공	[298533209]+12발라카스의 마력
2017-01-05 22:27:41	settle:[말보루]	성공	[298533209]+13발라카스의 마력
2017-01-05 22:27:42	settle:[말보루]	성공	[298533209]+14발라카스의 마력
2017-01-05 22:27:43	settle:[말보루]	성공	[298533209]+15발라카스의 마력
2017-01-05 22:27:43	settle:[말보루]	성공	[298533209]+16발라카스의 마력
2017-01-05 22:27:44	settle:[말보루]	성공	[298533209]+17발라카스의 마력
2017-01-05 22:27:45	settle:[말보루]	성공	[298533209]+18발라카스의 마력
2017-01-05 22:27:45	settle:[말보루]	성공	[298533209]+19발라카스의 마력
2017-01-05 22:27:45	settle:[말보루]	성공	[298533209]+20발라카스의 마력
2017-01-05 22:27:59	settle:[말보루]	성공	[298533217]+6룸티스의붉은빛귀걸이
2017-01-05 22:28:01	settle:[말보루]	성공	[298533217]+7룸티스의붉은빛귀걸이
2017-01-05 22:28:03	settle:[말보루]	성공	[298533217]+8룸티스의붉은빛귀걸이
2017-01-05 22:28:12	settle:[말보루]	성공	[298533196]+8거대 여왕 개미의 은빛 날개
2017-01-05 22:28:13	settle:[말보루]	성공	[298533196]+9거대 여왕 개미의 은빛 날개
2017-01-05 22:28:14	settle:[말보루]	성공	[298533196]+10거대 여왕 개미의 은빛 날개
2017-01-05 22:28:14	settle:[말보루]	성공	[298533196]+11거대 여왕 개미의 은빛 날개
2017-01-05 22:28:14	settle:[말보루]	성공	[298533196]+12거대 여왕 개미의 은빛 날개
2017-01-05 22:28:14	settle:[말보루]	성공	[298533196]+13거대 여왕 개미의 은빛 날개
2017-01-05 22:28:15	settle:[말보루]	성공	[298533196]+14거대 여왕 개미의 은빛 날개
2017-01-05 22:28:15	settle:[말보루]	성공	[298533196]+15거대 여왕 개미의 은빛 날개
2017-01-05 22:28:16	settle:[말보루]	성공	[298533196]+16거대 여왕 개미의 은빛 날개
2017-01-05 22:28:16	settle:[말보루]	성공	[298533196]+17거대 여왕 개미의 은빛 날개
2017-01-05 22:28:16	settle:[말보루]	성공	[298533196]+18거대 여왕 개미의 은빛 날개
2017-01-05 22:28:16	settle:[말보루]	성공	[298533196]+19거대 여왕 개미의 은빛 날개
2017-01-05 22:28:17	settle:[말보루]	성공	[298533196]+20거대 여왕 개미의 은빛 날개
2017-01-05 22:28:22	settle:[말보루]	성공	[298533188]+9대마법사의 모자
2017-01-05 22:28:22	settle:[말보루]	성공	[298533188]+10대마법사의 모자
2017-01-05 22:28:22	settle:[말보루]	성공	[298533188]+11대마법사의 모자
2017-01-05 22:28:22	settle:[말보루]	성공	[298533188]+12대마법사의 모자
2017-01-05 22:28:23	settle:[말보루]	성공	[298533188]+13대마법사의 모자
2017-01-05 22:28:23	settle:[말보루]	성공	[298533188]+14대마법사의 모자
2017-01-05 22:28:23	settle:[말보루]	성공	[298533188]+15대마법사의 모자
2017-01-05 22:28:24	settle:[말보루]	성공	[298533188]+16대마법사의 모자
2017-01-05 22:28:24	settle:[말보루]	성공	[298533188]+17대마법사의 모자
2017-01-05 22:28:24	settle:[말보루]	성공	[298533188]+18대마법사의 모자
2017-01-05 22:28:25	settle:[말보루]	성공	[298533188]+19대마법사의 모자
2017-01-05 22:28:25	settle:[말보루]	성공	[298533188]+20대마법사의 모자
2017-01-05 22:28:46	settle:[말보루]	성공	[298533253]+5티셔츠
2017-01-05 22:28:46	settle:[말보루]	성공	[298533253]+6티셔츠
2017-01-05 22:28:47	freezone:[철스]	성공	[298531743]+12수호성의 파워 글로브
2017-01-05 22:28:47	settle:[말보루]	성공	[298533253]+7티셔츠
2017-01-05 22:28:48	freezone:[철스]	성공	[298531743]+13수호성의 파워 글로브
2017-01-05 22:28:48	settle:[말보루]	성공	[298533253]+8티셔츠
2017-01-05 22:28:48	settle:[말보루]	성공	[298533253]+9티셔츠
2017-01-05 22:28:48	freezone:[철스]	성공	[298531743]+14수호성의 파워 글로브
2017-01-05 22:28:48	settle:[말보루]	성공	[298533253]+10티셔츠
2017-01-05 22:28:48	freezone:[철스]	성공	[298531743]+15수호성의 파워 글로브
2017-01-05 22:28:48	settle:[말보루]	성공	[298533253]+11티셔츠
2017-01-05 22:28:49	freezone:[철스]	성공	[298531743]+16수호성의 파워 글로브
2017-01-05 22:28:49	freezone:[철스]	성공	[298531743]+17수호성의 파워 글로브
2017-01-05 22:28:49	settle:[말보루]	성공	[298533253]+12티셔츠
2017-01-05 22:28:50	settle:[말보루]	성공	[298533253]+13티셔츠
2017-01-05 22:28:50	freezone:[철스]	성공	[298531743]+18수호성의 파워 글로브
2017-01-05 22:28:50	freezone:[철스]	성공	[298531743]+19수호성의 파워 글로브
2017-01-05 22:28:50	settle:[말보루]	성공	[298533253]+14티셔츠
2017-01-05 22:28:50	settle:[말보루]	성공	[298533253]+15티셔츠
2017-01-05 22:28:50	freezone:[철스]	성공	[298531743]+20수호성의 파워 글로브
2017-01-05 22:28:51	settle:[말보루]	성공	[298533253]+16티셔츠
2017-01-05 22:28:51	settle:[말보루]	성공	[298533253]+17티셔츠
2017-01-05 22:28:51	settle:[말보루]	성공	[298533253]+18티셔츠
2017-01-05 22:28:52	settle:[말보루]	성공	[298533253]+19티셔츠
2017-01-05 22:28:53	settle:[말보루]	성공	[298533253]+20티셔츠
2017-01-05 22:28:54	freezone:[철스]	성공	[298531747]+8완력의 부츠
2017-01-05 22:28:57	freezone:[철스]	성공	[298531571]+65\aF타이탄의 분노
2017-01-05 22:28:57	freezone:[철스]	성공	[298531571]+66\aF타이탄의 분노
2017-01-05 22:28:58	freezone:[철스]	성공	[298531571]+67\aF타이탄의 분노
2017-01-05 22:28:58	freezone:[철스]	성공	[298531571]+68\aF타이탄의 분노
2017-01-05 22:28:59	freezone:[철스]	성공	[298531571]+69\aF타이탄의 분노
2017-01-05 22:28:59	freezone:[철스]	성공	[298531571]+70\aF타이탄의 분노
2017-01-05 22:29:00	freezone:[철스]	성공	[298531571]+71\aF타이탄의 분노
2017-01-05 22:29:01	freezone:[철스]	성공	[298531571]+72\aF타이탄의 분노
2017-01-05 22:29:02	freezone:[철스]	성공	[298531571]+73\aF타이탄의 분노
2017-01-05 22:29:02	freezone:[철스]	성공	[298531571]+74\aF타이탄의 분노
2017-01-05 22:29:03	settle:[말보루]	성공	[298533254]+5리치 로브
2017-01-05 22:29:03	settle:[말보루]	성공	[298533254]+6리치 로브
2017-01-05 22:29:04	settle:[말보루]	성공	[298533254]+7리치 로브
2017-01-05 22:29:04	settle:[말보루]	성공	[298533254]+8리치 로브
2017-01-05 22:29:04	settle:[말보루]	성공	[298533254]+9리치 로브
2017-01-05 22:29:04	settle:[말보루]	성공	[298533254]+10리치 로브
2017-01-05 22:29:05	settle:[말보루]	성공	[298533254]+11리치 로브
2017-01-05 22:29:06	settle:[말보루]	성공	[298533254]+12리치 로브
2017-01-05 22:29:06	settle:[말보루]	성공	[298533254]+13리치 로브
2017-01-05 22:29:08	settle:[말보루]	성공	[298533254]+14리치 로브
2017-01-05 22:29:08	settle:[말보루]	성공	[298533254]+15리치 로브
2017-01-05 22:29:08	settle:[말보루]	성공	[298533254]+16리치 로브
2017-01-05 22:29:08	settle:[말보루]	성공	[298533254]+17리치 로브
2017-01-05 22:29:09	settle:[말보루]	성공	[298533254]+18리치 로브
2017-01-05 22:29:09	settle:[말보루]	성공	[298533254]+19리치 로브
2017-01-05 22:29:09	settle:[말보루]	성공	[298533254]+20리치 로브
2017-01-05 22:29:15	didho:[공주]	성공	[298533259]+1룸티스의붉은빛귀걸이
2017-01-05 22:29:15	didho:[공주]	성공	[298533259]+2룸티스의붉은빛귀걸이
2017-01-05 22:29:16	didho:[공주]	성공	[298533259]+3룸티스의붉은빛귀걸이
2017-01-05 22:29:17	didho:[공주]	성공	[298533261]+1룸티스의붉은빛귀걸이
2017-01-05 22:29:17	didho:[공주]	성공	[298533261]+2룸티스의붉은빛귀걸이
2017-01-05 22:29:18	didho:[공주]	성공	[298533261]+3룸티스의붉은빛귀걸이
2017-01-05 22:29:30	settle:[말보루]	성공	[298533207]+10쿠쿨칸의 방패
2017-01-05 22:29:30	settle:[말보루]	성공	[298533207]+11쿠쿨칸의 방패
2017-01-05 22:29:31	settle:[말보루]	성공	[298533207]+12쿠쿨칸의 방패
2017-01-05 22:29:32	settle:[말보루]	성공	[298533207]+13쿠쿨칸의 방패
2017-01-05 22:29:32	settle:[말보루]	성공	[298533207]+14쿠쿨칸의 방패
2017-01-05 22:29:32	settle:[말보루]	성공	[298533207]+15쿠쿨칸의 방패
2017-01-05 22:29:32	settle:[말보루]	성공	[298533207]+16쿠쿨칸의 방패
2017-01-05 22:29:33	settle:[말보루]	성공	[298533207]+17쿠쿨칸의 방패
2017-01-05 22:29:33	settle:[말보루]	성공	[298533207]+18쿠쿨칸의 방패
2017-01-05 22:29:33	settle:[말보루]	성공	[298533207]+19쿠쿨칸의 방패
2017-01-05 22:29:33	settle:[말보루]	성공	[298533207]+20쿠쿨칸의 방패
2017-01-05 22:30:06	freezone:[철스]	성공	[298531571]+75\aF타이탄의 분노
2017-01-05 22:30:07	freezone:[철스]	성공	[298531571]+76\aF타이탄의 분노
2017-01-05 22:30:07	settle:[말보루]	성공	[298533201]+6\aH지식의 벨트
2017-01-05 22:30:09	settle:[말보루]	성공	[298533201]+7\aH지식의 벨트
2017-01-05 22:30:11	settle:[말보루]	성공	[298533201]+8\aH지식의 벨트
2017-01-05 22:30:12	settle:[말보루]	성공	[298533201]+9\aH지식의 벨트
2017-01-05 22:30:18	didho:[공주]	성공	[298533269]+1스냅퍼의 용사 반지
2017-01-05 22:30:19	didho:[공주]	성공	[298533269]+2스냅퍼의 용사 반지
2017-01-05 22:30:19	didho:[공주]	성공	[298533269]+3스냅퍼의 용사 반지
2017-01-05 22:30:20	didho:[공주]	성공	[298533267]+1스냅퍼의 용사 반지
2017-01-05 22:30:21	didho:[공주]	성공	[298533267]+2스냅퍼의 용사 반지
2017-01-05 22:30:21	didho:[공주]	성공	[298533267]+3스냅퍼의 용사 반지
2017-01-05 22:30:22	didho:[공주]	성공	[298533263]+1스냅퍼의 용사 반지
2017-01-05 22:30:23	didho:[공주]	성공	[298533263]+2스냅퍼의 용사 반지
2017-01-05 22:30:24	didho:[공주]	성공	[298533263]+3스냅퍼의 용사 반지
2017-01-05 22:30:24	didho:[공주]	성공	[298533265]+1스냅퍼의 용사 반지
2017-01-05 22:30:25	didho:[공주]	성공	[298533265]+2스냅퍼의 용사 반지
2017-01-05 22:30:26	didho:[공주]	성공	[298533265]+3스냅퍼의 용사 반지
2017-01-05 22:30:34	settle:[말보루]	성공	[298533218]+6대장군의 목걸이
2017-01-05 22:30:35	settle:[말보루]	성공	[298533218]+7대장군의 목걸이
2017-01-05 22:30:37	settle:[말보루]	성공	[298533218]+8대장군의 목걸이
2017-01-05 22:30:38	settle:[말보루]	성공	[298533218]+9대장군의 목걸이
2017-01-05 22:31:02	didho:[공주]	성공	[298533306]+4룸티스의붉은빛귀걸이
2017-01-05 22:31:02	didho:[공주]	성공	[298533306]+5룸티스의붉은빛귀걸이
2017-01-05 22:31:03	didho:[공주]	성공	[298533306]+6룸티스의붉은빛귀걸이
2017-01-05 22:31:04	didho:[공주]	성공	[298533306]+7룸티스의붉은빛귀걸이
2017-01-05 22:31:05	didho:[공주]	성공	[298533306]+8룸티스의붉은빛귀걸이
2017-01-05 22:31:07	didho:[공주]	성공	[298533305]+4축복받은 스냅퍼의 용사 반지
2017-01-05 22:31:07	didho:[공주]	성공	[298533304]+4축복받은 스냅퍼의 용사 반지
2017-01-05 22:31:08	didho:[공주]	성공	[298533305]+5축복받은 스냅퍼의 용사 반지
2017-01-05 22:31:08	didho:[공주]	성공	[298533304]+5축복받은 스냅퍼의 용사 반지
2017-01-05 22:31:09	didho:[공주]	성공	[298533305]+6축복받은 스냅퍼의 용사 반지
2017-01-05 22:31:09	didho:[공주]	성공	[298533304]+6축복받은 스냅퍼의 용사 반지
2017-01-05 22:31:10	didho:[공주]	성공	[298533305]+7축복받은 스냅퍼의 용사 반지
2017-01-05 22:31:10	didho:[공주]	성공	[298533304]+7축복받은 스냅퍼의 용사 반지
2017-01-05 22:31:10	didho:[공주]	성공	[298533305]+8축복받은 스냅퍼의 용사 반지
2017-01-05 22:31:11	didho:[공주]	성공	[298533304]+8축복받은 스냅퍼의 용사 반지
2017-01-05 22:31:27	freezone:[철스]	성공	[298531571]+77\aF타이탄의 분노
2017-01-05 22:31:28	freezone:[철스]	성공	[298531571]+78\aF타이탄의 분노
2017-01-05 22:31:29	freezone:[철스]	성공	[298531571]+79\aF타이탄의 분노
2017-01-05 22:31:29	freezone:[철스]	성공	[298531571]+80\aF타이탄의 분노
2017-01-05 22:31:30	freezone:[철스]	성공	[298531571]+81\aF타이탄의 분노
2017-01-05 22:31:30	freezone:[철스]	성공	[298531571]+82\aF타이탄의 분노
2017-01-05 22:31:31	freezone:[철스]	성공	[298531571]+83\aF타이탄의 분노
2017-01-05 22:31:31	freezone:[철스]	성공	[298531571]+84\aF타이탄의 분노
2017-01-05 22:31:32	freezone:[철스]	성공	[298531571]+85\aF타이탄의 분노
2017-01-05 22:31:32	freezone:[철스]	성공	[298531571]+86\aF타이탄의 분노
2017-01-05 22:31:33	freezone:[철스]	성공	[298531571]+87\aF타이탄의 분노
2017-01-05 22:31:33	freezone:[철스]	성공	[298531571]+88\aF타이탄의 분노
2017-01-05 22:31:34	freezone:[철스]	성공	[298531571]+89\aF타이탄의 분노
2017-01-05 22:31:35	freezone:[철스]	성공	[298531571]+90\aF타이탄의 분노
2017-01-05 22:31:35	freezone:[철스]	성공	[298531571]+91\aF타이탄의 분노
2017-01-05 22:31:36	freezone:[철스]	성공	[298531571]+92\aF타이탄의 분노
2017-01-05 22:31:36	freezone:[철스]	성공	[298531571]+93\aF타이탄의 분노
2017-01-05 22:31:37	freezone:[철스]	성공	[298531571]+94\aF타이탄의 분노
2017-01-05 22:31:37	freezone:[철스]	성공	[298531571]+95\aF타이탄의 분노
2017-01-05 22:31:38	freezone:[철스]	성공	[298531571]+96\aF타이탄의 분노
2017-01-05 22:32:24	didho:[공주]	성공	[298532923]+6대장군의 목걸이
2017-01-05 22:32:25	didho:[공주]	성공	[298532923]+7대장군의 목걸이
2017-01-05 22:32:26	didho:[공주]	성공	[298532923]+8대장군의 목걸이
2017-01-05 22:32:28	didho:[공주]	성공	[298532923]+9대장군의 목걸이
2017-01-05 22:32:30	didho:[공주]	성공	[298532921]+6노예의 귀걸이
2017-01-05 22:32:31	didho:[공주]	성공	[298532921]+7노예의 귀걸이
2017-01-05 22:32:33	didho:[공주]	성공	[298532921]+8노예의 귀걸이
2017-01-05 22:32:34	didho:[공주]	성공	[298532921]+9노예의 귀걸이
2017-01-05 22:34:01	didho:[공주]	성공	[298532987]+8유니콘의 완력 각반
2017-01-05 22:34:01	didho:[공주]	성공	[298532987]+9유니콘의 완력 각반
2017-01-05 22:34:01	didho:[공주]	성공	[298532987]+10유니콘의 완력 각반
2017-01-05 22:34:01	didho:[공주]	성공	[298532987]+11유니콘의 완력 각반
2017-01-05 22:34:02	didho:[공주]	성공	[298532987]+12유니콘의 완력 각반
2017-01-05 22:34:02	didho:[공주]	성공	[298532987]+13유니콘의 완력 각반
2017-01-05 22:34:02	didho:[공주]	성공	[298532987]+14유니콘의 완력 각반
2017-01-05 22:34:02	didho:[공주]	성공	[298532987]+15유니콘의 완력 각반
2017-01-05 22:34:02	didho:[공주]	성공	[298532987]+16유니콘의 완력 각반
2017-01-05 22:34:03	didho:[공주]	성공	[298532987]+17유니콘의 완력 각반
2017-01-05 22:34:03	didho:[공주]	성공	[298532987]+18유니콘의 완력 각반
2017-01-05 22:35:19	freezone:[철스]	성공	[298531571]+97\aF타이탄의 분노
2017-01-05 22:35:20	freezone:[철스]	성공	[298531571]+98\aF타이탄의 분노
2017-01-05 22:35:20	freezone:[철스]	성공	[298531571]+99\aF타이탄의 분노
2017-01-05 22:35:21	freezone:[철스]	성공	[298531571]+100\aF타이탄의 분노
2017-01-05 22:35:43	freezone:[철스]	성공	[298531269]+16태풍의 도끼
2017-01-05 22:35:44	freezone:[철스]	성공	[298531269]+17태풍의 도끼
2017-01-05 22:35:45	freezone:[철스]	성공	[298531269]+18태풍의 도끼
2017-01-05 22:35:45	freezone:[철스]	성공	[298531269]+19태풍의 도끼
2017-01-05 22:35:46	freezone:[철스]	성공	[298531269]+20태풍의 도끼
2017-01-05 22:35:46	freezone:[철스]	성공	[298531269]+21태풍의 도끼
2017-01-05 22:36:06	freezone:[철스]	성공	[298531742]+8지휘관의 투구
2017-01-05 22:36:07	freezone:[철스]	성공	[298531742]+9지휘관의 투구
2017-01-05 22:36:07	freezone:[철스]	성공	[298531742]+10지휘관의 투구
2017-01-05 22:36:08	freezone:[철스]	성공	[298531742]+11지휘관의 투구
2017-01-05 22:36:08	freezone:[철스]	성공	[298531742]+12지휘관의 투구
2017-01-05 22:36:08	freezone:[철스]	성공	[298531742]+13지휘관의 투구
2017-01-05 22:36:09	freezone:[철스]	성공	[298531742]+14지휘관의 투구
2017-01-05 22:36:09	freezone:[철스]	성공	[298531742]+15지휘관의 투구
2017-01-05 22:36:10	freezone:[철스]	성공	[298531742]+16지휘관의 투구
2017-01-05 22:36:10	freezone:[철스]	성공	[298531742]+17지휘관의 투구
2017-01-05 22:36:11	freezone:[철스]	성공	[298531742]+18지휘관의 투구
2017-01-05 22:36:11	freezone:[철스]	성공	[298531742]+19지휘관의 투구
2017-01-05 22:36:12	freezone:[철스]	성공	[298531742]+20지휘관의 투구
2017-01-05 22:36:19	freezone:[철스]	성공	[298531747]+9완력의 부츠
2017-01-05 22:36:20	freezone:[철스]	성공	[298531747]+10완력의 부츠
2017-01-05 22:36:20	freezone:[철스]	성공	[298531747]+11완력의 부츠
2017-01-05 22:36:21	freezone:[철스]	성공	[298531747]+12완력의 부츠
2017-01-05 22:36:21	freezone:[철스]	성공	[298531747]+13완력의 부츠
2017-01-05 22:36:22	freezone:[철스]	성공	[298531747]+14완력의 부츠
2017-01-05 22:36:22	freezone:[철스]	성공	[298531747]+15완력의 부츠
2017-01-05 22:36:23	freezone:[철스]	성공	[298531747]+16완력의 부츠
2017-01-05 22:48:18	freezone:[철스]	성공	[298531269]+22태풍의 도끼
2017-01-05 22:48:18	freezone:[철스]	성공	[298531269]+23태풍의 도끼
2017-01-05 22:48:18	freezone:[철스]	성공	[298531269]+24태풍의 도끼
2017-01-05 22:48:18	freezone:[철스]	성공	[298531269]+25태풍의 도끼
2017-01-05 22:48:19	freezone:[철스]	성공	[298531269]+26태풍의 도끼
2017-01-05 22:48:19	freezone:[철스]	성공	[298531269]+27태풍의 도끼
2017-01-05 22:48:20	freezone:[철스]	성공	[298531269]+28태풍의 도끼
2017-01-05 22:48:20	freezone:[철스]	성공	[298531269]+29태풍의 도끼
2017-01-05 22:48:20	freezone:[철스]	성공	[298531269]+30태풍의 도끼
2017-01-05 22:48:21	freezone:[철스]	성공	[298531269]+31태풍의 도끼
2017-01-05 22:48:21	freezone:[철스]	성공	[298531269]+32태풍의 도끼
2017-01-05 22:48:22	freezone:[철스]	성공	[298531269]+33태풍의 도끼
2017-01-05 22:48:22	freezone:[철스]	성공	[298531269]+34태풍의 도끼
2017-01-05 22:48:22	freezone:[철스]	성공	[298531269]+35태풍의 도끼
2017-01-05 22:48:23	freezone:[철스]	성공	[298531269]+36태풍의 도끼
2017-01-05 22:48:23	freezone:[철스]	실패	[298531269]+36태풍의 도끼
2017-01-05 22:48:35	freezone:[철스]	성공	[298531728]+10태풍의 도끼
2017-01-05 22:48:35	freezone:[철스]	성공	[298531728]+11태풍의 도끼
2017-01-05 22:48:35	freezone:[철스]	성공	[298531728]+12태풍의 도끼
2017-01-05 22:48:35	freezone:[철스]	성공	[298531728]+13태풍의 도끼
2017-01-05 22:48:36	freezone:[철스]	성공	[298531728]+14태풍의 도끼
2017-01-05 22:48:36	freezone:[철스]	성공	[298531728]+15태풍의 도끼
2017-01-05 22:48:37	freezone:[철스]	성공	[298531728]+16태풍의 도끼
2017-01-05 22:48:37	freezone:[철스]	성공	[298531728]+17태풍의 도끼
2017-01-05 22:48:37	freezone:[철스]	성공	[298531728]+18태풍의 도끼
2017-01-05 22:48:38	freezone:[철스]	성공	[298531728]+19태풍의 도끼
2017-01-05 22:48:38	freezone:[철스]	성공	[298531728]+20태풍의 도끼
2017-01-05 22:48:38	freezone:[철스]	성공	[298531728]+21태풍의 도끼
2017-01-05 22:48:39	freezone:[철스]	성공	[298531728]+22태풍의 도끼
2017-01-05 22:48:39	freezone:[철스]	성공	[298531728]+23태풍의 도끼
2017-01-05 22:48:40	freezone:[철스]	성공	[298531728]+24태풍의 도끼
2017-01-05 22:48:40	freezone:[철스]	성공	[298531728]+25태풍의 도끼
2017-01-05 22:48:40	freezone:[철스]	성공	[298531728]+26태풍의 도끼
2017-01-05 22:48:41	freezone:[철스]	성공	[298531728]+27태풍의 도끼
2017-01-05 22:48:41	freezone:[철스]	성공	[298531728]+28태풍의 도끼
2017-01-05 22:48:42	freezone:[철스]	성공	[298531728]+29태풍의 도끼
2017-01-05 22:48:42	freezone:[철스]	성공	[298531728]+30태풍의 도끼
2017-01-05 22:48:42	freezone:[철스]	성공	[298531728]+31태풍의 도끼
2017-01-05 22:48:43	freezone:[철스]	성공	[298531728]+32태풍의 도끼
2017-01-05 22:48:43	freezone:[철스]	성공	[298531728]+33태풍의 도끼
2017-01-05 22:48:44	freezone:[철스]	성공	[298531728]+34태풍의 도끼
2017-01-05 22:48:44	freezone:[철스]	성공	[298531728]+35태풍의 도끼
2017-01-05 22:48:44	freezone:[철스]	성공	[298531728]+36태풍의 도끼
2017-01-05 22:48:45	freezone:[철스]	실패	[298531728]+36태풍의 도끼
2017-01-05 22:49:46	freezone:[철스]	성공	[298533849]+1\aF타이탄의 분노
2017-01-05 22:49:46	freezone:[철스]	성공	[298533849]+2\aF타이탄의 분노
2017-01-05 22:49:47	freezone:[철스]	성공	[298533849]+3\aF타이탄의 분노
2017-01-05 22:49:47	freezone:[철스]	성공	[298533849]+4\aF타이탄의 분노
2017-01-05 22:49:47	freezone:[철스]	성공	[298533849]+5\aF타이탄의 분노
2017-01-05 22:49:48	freezone:[철스]	성공	[298533849]+6\aF타이탄의 분노
2017-01-05 23:23:12	didho:[공주]	성공	[298532928]+8안타라스의 예지력
2017-01-05 23:23:13	didho:[공주]	성공	[298532928]+9안타라스의 예지력
2017-01-05 23:23:13	didho:[공주]	성공	[298532928]+10안타라스의 예지력
2017-01-05 23:23:13	didho:[공주]	성공	[298532928]+11안타라스의 예지력
2017-01-05 23:23:13	didho:[공주]	성공	[298532928]+12안타라스의 예지력
2017-01-05 23:23:13	didho:[공주]	성공	[298532928]+13안타라스의 예지력
2017-01-05 23:23:14	didho:[공주]	성공	[298532928]+14안타라스의 예지력
2017-01-05 23:23:14	didho:[공주]	성공	[298532928]+15안타라스의 예지력
2017-01-05 23:23:14	didho:[공주]	성공	[298532928]+16안타라스의 예지력
2017-01-05 23:23:15	didho:[공주]	성공	[298532928]+17안타라스의 예지력
2017-01-05 23:23:15	didho:[공주]	성공	[298532928]+18안타라스의 예지력
2017-01-05 23:23:15	didho:[공주]	성공	[298532928]+19안타라스의 예지력
2017-01-05 23:23:15	didho:[공주]	성공	[298532928]+20안타라스의 예지력
2017-01-05 23:23:17	didho:[공주]	성공	[298532968]+13타라스의 부츠
2017-01-05 23:23:17	didho:[공주]	성공	[298532968]+14타라스의 부츠
2017-01-05 23:23:17	didho:[공주]	성공	[298532968]+15타라스의 부츠
2017-01-05 23:23:17	didho:[공주]	성공	[298532968]+16타라스의 부츠
2017-01-05 23:23:17	didho:[공주]	성공	[298532968]+17타라스의 부츠
2017-01-05 23:23:18	didho:[공주]	성공	[298532968]+18타라스의 부츠
2017-01-05 23:23:18	didho:[공주]	성공	[298532968]+19타라스의 부츠
2017-01-05 23:23:18	didho:[공주]	성공	[298532968]+20타라스의 부츠
2017-01-05 23:23:19	didho:[공주]	성공	[298532974]+8타락의 장갑
2017-01-05 23:23:19	didho:[공주]	성공	[298532974]+9타락의 장갑
2017-01-05 23:23:19	didho:[공주]	성공	[298532974]+10타락의 장갑
2017-01-05 23:23:19	didho:[공주]	성공	[298532974]+11타락의 장갑
2017-01-05 23:23:20	didho:[공주]	성공	[298532974]+12타락의 장갑
2017-01-05 23:23:20	didho:[공주]	성공	[298532974]+13타락의 장갑
2017-01-05 23:23:20	didho:[공주]	성공	[298532974]+14타락의 장갑
2017-01-05 23:23:21	didho:[공주]	성공	[298532974]+15타락의 장갑
2017-01-05 23:23:21	didho:[공주]	성공	[298532974]+16타락의 장갑
2017-01-05 23:23:21	didho:[공주]	성공	[298532974]+17타락의 장갑
2017-01-05 23:23:22	didho:[공주]	성공	[298532974]+18타락의 장갑
2017-01-05 23:23:22	didho:[공주]	성공	[298532974]+19타락의 장갑
2017-01-05 23:23:22	didho:[공주]	성공	[298532974]+20타락의 장갑
2017-01-05 23:23:23	didho:[공주]	성공	[298532955]+6죽음의 망토
2017-01-05 23:23:24	didho:[공주]	성공	[298532955]+7죽음의 망토
2017-01-05 23:23:24	didho:[공주]	성공	[298532955]+8죽음의 망토
2017-01-05 23:23:24	didho:[공주]	성공	[298532955]+9죽음의 망토
2017-01-05 23:23:24	didho:[공주]	성공	[298532955]+10죽음의 망토
2017-01-05 23:23:24	didho:[공주]	성공	[298532955]+11죽음의 망토
2017-01-05 23:23:25	didho:[공주]	성공	[298532955]+12죽음의 망토
2017-01-05 23:23:25	didho:[공주]	성공	[298532955]+13죽음의 망토
2017-01-05 23:23:25	didho:[공주]	성공	[298532955]+14죽음의 망토
2017-01-05 23:23:25	didho:[공주]	성공	[298532955]+15죽음의 망토
2017-01-05 23:23:26	didho:[공주]	성공	[298532955]+16죽음의 망토
2017-01-05 23:23:26	didho:[공주]	성공	[298532955]+17죽음의 망토
2017-01-05 23:23:26	didho:[공주]	성공	[298532955]+18죽음의 망토
2017-01-05 23:23:26	didho:[공주]	성공	[298532955]+19죽음의 망토
2017-01-05 23:23:27	didho:[공주]	성공	[298532955]+20죽음의 망토
2017-01-05 23:23:28	didho:[공주]	성공	[298532941]+5혼돈의 투구
2017-01-05 23:23:28	didho:[공주]	성공	[298532941]+6혼돈의 투구
2017-01-05 23:23:28	didho:[공주]	성공	[298532941]+7혼돈의 투구
2017-01-05 23:23:28	didho:[공주]	성공	[298532941]+8혼돈의 투구
2017-01-05 23:23:29	didho:[공주]	성공	[298532941]+9혼돈의 투구
2017-01-05 23:23:29	didho:[공주]	성공	[298532941]+10혼돈의 투구
2017-01-05 23:23:29	didho:[공주]	성공	[298532941]+11혼돈의 투구
2017-01-05 23:23:30	didho:[공주]	성공	[298532941]+12혼돈의 투구
2017-01-05 23:23:30	didho:[공주]	성공	[298532941]+13혼돈의 투구
2017-01-05 23:23:30	didho:[공주]	성공	[298532941]+14혼돈의 투구
2017-01-05 23:23:30	didho:[공주]	성공	[298532941]+15혼돈의 투구
2017-01-05 23:23:30	didho:[공주]	성공	[298532941]+16혼돈의 투구
2017-01-05 23:23:31	didho:[공주]	성공	[298532941]+17혼돈의 투구
2017-01-05 23:23:31	didho:[공주]	성공	[298532941]+18혼돈의 투구
2017-01-05 23:23:31	didho:[공주]	성공	[298532941]+19혼돈의 투구
2017-01-05 23:23:32	didho:[공주]	성공	[298532941]+20혼돈의 투구
2017-01-05 23:46:26	didho:[공주]	성공	[298532938]+10진 레이피어
2017-01-05 23:49:33	didho:[공주]	성공	[298532987]+19유니콘의 완력 각반
2017-01-05 23:49:34	didho:[공주]	성공	[298532987]+20유니콘의 완력 각반
2017-01-05 23:54:55	didho:[공주]	성공	[298532938]+11진 레이피어
2017-01-05 23:54:56	didho:[공주]	성공	[298532938]+12진 레이피어
2017-01-05 23:54:56	didho:[공주]	성공	[298532938]+13진 레이피어
2017-01-05 23:54:57	didho:[공주]	성공	[298532938]+14진 레이피어
2017-01-05 23:54:57	didho:[공주]	성공	[298532938]+15진 레이피어
2017-01-05 23:54:57	didho:[공주]	성공	[298532938]+16진 레이피어
2017-01-05 23:54:57	didho:[공주]	성공	[298532938]+17진 레이피어
2017-01-05 23:54:57	didho:[공주]	성공	[298532938]+18진 레이피어
2017-01-05 23:54:58	didho:[공주]	성공	[298532938]+19진 레이피어
2017-01-05 23:54:58	didho:[공주]	성공	[298532938]+20진 레이피어
2017-01-05 23:54:58	didho:[공주]	성공	[298532938]+21진 레이피어
2017-01-05 23:54:59	didho:[공주]	성공	[298532938]+22진 레이피어
2017-01-05 23:54:59	didho:[공주]	성공	[298532938]+23진 레이피어
2017-01-05 23:55:00	didho:[공주]	성공	[298532938]+24진 레이피어
2017-01-05 23:55:00	didho:[공주]	성공	[298532938]+25진 레이피어
2017-01-05 23:55:01	didho:[공주]	성공	[298532938]+26진 레이피어
2017-01-05 23:55:02	didho:[공주]	성공	[298532938]+27진 레이피어
2017-01-05 23:55:03	didho:[공주]	성공	[298532938]+28진 레이피어
2017-01-05 23:55:03	didho:[공주]	성공	[298532938]+29진 레이피어
2017-01-05 23:55:04	didho:[공주]	성공	[298532938]+30진 레이피어
