2016-09-30 01:15:44	버리기	qkswkd2:[메티스]	[296659582]순간이동 주문서(100)
2016-09-30 01:15:45	줍기	pab123:[극탱]	[296659582]순간이동 주문서(100)
2016-09-30 01:45:50	버리기	qkswkd2:[메티스]	[296659809]오리하루콘 단검
2016-09-30 01:45:53	줍기	qkswkd2:[메티스]	[296659809]오리하루콘 단검
2016-09-30 04:04:13	삭제	minwok2824:[장비]	[268467113]단검
2016-09-30 04:18:35	줍기	minwok2824:[장비]	[268530588]흑왕도
2016-09-30 04:18:35	줍기	minwok2824:[장비]	[268530587]무관의 장검
2016-09-30 04:18:36	줍기	minwok2824:[장비]	[268530589]파괴의 장궁
2016-09-30 04:18:36	줍기	minwok2824:[장비]	[268530591]마법의 투구: 치유
2016-09-30 04:18:37	줍기	minwok2824:[장비]	[268530592]마법의 투구: 힘
2016-09-30 04:18:38	줍기	minwok2824:[장비]	[268530594]신관의 투구
2016-09-30 04:18:38	줍기	minwok2824:[장비]	[268530595]무관의 부츠
2016-09-30 04:18:39	줍기	minwok2824:[장비]	[268530596]변신 조종 반지
2016-09-30 04:18:39	줍기	minwok2824:[장비]	[268530598]순간이동 조종 반지
2016-09-30 04:18:40	줍기	minwok2824:[장비]	[268530601]기술서 (쇼크 스턴)(1)
2016-09-30 04:18:41	줍기	minwok2824:[장비]	[268530603]기술서 (바운스 어택)(1)
2016-09-30 04:18:41	줍기	minwok2824:[장비]	[268530604]마법서 (커스: 패럴라이즈)(1)
2016-09-30 04:18:42	줍기	minwok2824:[장비]	[268530605]마법서 (홀리 워크)(1)
2016-09-30 04:18:43	줍기	minwok2824:[장비]	[268530606]마법서 (풀 힐)(1)
2016-09-30 04:18:43	줍기	minwok2824:[장비]	[268530607]마법서 (블리자드)(1)
2016-09-30 04:18:44	줍기	minwok2824:[장비]	[268530608]마법서 (인비지블리티)(1)
2016-09-30 04:18:44	줍기	minwok2824:[장비]	[268530609]마법서 (리절렉션)(1)
2016-09-30 04:18:45	줍기	minwok2824:[장비]	[268530611]마법서 (사일런스)(1)
2016-09-30 04:18:46	줍기	minwok2824:[장비]	[268530612]마법서 (라이트닝 스톰)(1)
2016-09-30 04:18:46	줍기	minwok2824:[장비]	[268530613]마법서 (이뮨 투 함)(1)
2016-09-30 04:18:47	줍기	minwok2824:[장비]	[268530615]마법서 (디케이 포션)(1)
2016-09-30 04:18:48	줍기	minwok2824:[장비]	[268530616]마법서 (앱솔루트 배리어)(1)
2016-09-30 04:18:48	줍기	minwok2824:[장비]	[268530617]마법서 (어드밴스 스피릿)(1)
2016-09-30 04:18:49	줍기	minwok2824:[장비]	[268530619]마법서 (브레이브 오라)(1)
2016-09-30 04:18:50	줍기	minwok2824:[장비]	[268530621]정령의 수정 (블러드 투 소울)(1)
2016-09-30 04:18:50	줍기	minwok2824:[장비]	[268530622]정령의 수정 (에어리어 오브 사일런스)(1)
2016-09-30 04:18:51	줍기	minwok2824:[장비]	[268530623]정령의 수정 (카운터 미러)(1)
2016-09-30 04:18:51	줍기	minwok2824:[장비]	[268530624]정령의 수정 (인탱글)(1)
2016-09-30 04:18:52	줍기	minwok2824:[장비]	[268530625]정령의 수정 (워터 라이프)(1)
2016-09-30 04:18:53	줍기	minwok2824:[장비]	[268530627]정령의 수정 (윈드 셰클)(1)
2016-09-30 04:18:53	줍기	minwok2824:[장비]	[268530629]마법 방어 투구
2016-09-30 04:18:54	줍기	minwok2824:[장비]	[268530631]완력의 목걸이
2016-09-30 04:18:54	줍기	minwok2824:[장비]	[268530632]지혜의 목걸이
2016-09-30 04:18:55	줍기	minwok2824:[장비]	[268530633]멸마의 반지
2016-09-30 04:18:56	줍기	minwok2824:[장비]	[268530634]화령의 반지
2016-09-30 04:18:56	줍기	minwok2824:[장비]	[268530640]용기사의 서판(각성[발라카스])
2016-09-30 04:18:57	줍기	minwok2824:[장비]	[268530635]빛나는 신체의 벨트
2016-09-30 04:18:59	줍기	minwok2824:[장비]	[268530614]마법서 (파이어 스톰)(1)
2016-09-30 04:19:00	줍기	minwok2824:[장비]	[268530590]마법의 투구: 신속
2016-09-30 04:19:01	줍기	minwok2824:[장비]	[268530593]무관의 투구
2016-09-30 04:19:01	줍기	minwok2824:[장비]	[268530597]소환 조종 반지
2016-09-30 04:19:02	줍기	minwok2824:[장비]	[268530602]기술서 (리덕션 아머)(1)
2016-09-30 04:19:02	줍기	minwok2824:[장비]	[268530610]마법서 (라이프 스트림)(1)
2016-09-30 04:19:03	줍기	minwok2824:[장비]	[268530618]마법서 (글로잉 오라)(1)
2016-09-30 04:19:03	줍기	minwok2824:[장비]	[268530620]정령의 수정 (리턴 투 네이처)(1)
2016-09-30 04:19:04	줍기	minwok2824:[장비]	[268530626]정령의 수정 (네이쳐스 블레싱)(1)
2016-09-30 04:19:05	줍기	minwok2824:[장비]	[268530628]정령의 수정 (어디셔널 파이어)(1)
2016-09-30 04:19:05	줍기	minwok2824:[장비]	[268530630]매력의 목걸이
2016-09-30 04:19:06	줍기	minwok2824:[장비]	[268530636]빛나는 정신의 벨트
2016-09-30 04:19:07	줍기	minwok2824:[장비]	[268530637]오우거의 벨트
2016-09-30 04:38:34	삭제	kswon1029:[헤라클레스]	[268531426]+5\aH수정결정체 지팡이
2016-09-30 04:38:34	삭제	kswon1029:[헤라클레스]	[268531427]+5\aH수정결정체 지팡이
2016-09-30 04:38:34	삭제	kswon1029:[헤라클레스]	[268531430]\aH수정결정체 지팡이
2016-09-30 04:38:34	삭제	kswon1029:[헤라클레스]	[268531431]\aH수정결정체 지팡이
2016-09-30 04:38:34	삭제	kswon1029:[헤라클레스]	[268531435]\aH수정결정체 지팡이
2016-09-30 04:38:34	삭제	kswon1029:[헤라클레스]	[268531434]\aH수정결정체 지팡이
2016-09-30 04:38:34	삭제	kswon1029:[헤라클레스]	[268531433]\aH수정결정체 지팡이
2016-09-30 04:38:34	삭제	kswon1029:[헤라클레스]	[268531432]\aH수정결정체 지팡이
2016-09-30 04:38:34	삭제	kswon1029:[헤라클레스]	[268531436]\aH수정결정체 지팡이
2016-09-30 04:38:34	삭제	kswon1029:[헤라클레스]	[268531437]\aH수정결정체 지팡이
2016-09-30 04:38:34	삭제	kswon1029:[헤라클레스]	[268531438]\aH수정결정체 지팡이
2016-09-30 04:38:34	삭제	kswon1029:[헤라클레스]	[268531439]\aH수정결정체 지팡이
2016-09-30 04:38:34	삭제	kswon1029:[헤라클레스]	[268531443]\aH수정결정체 지팡이
2016-09-30 04:38:34	삭제	kswon1029:[헤라클레스]	[268531442]\aH수정결정체 지팡이
2016-09-30 04:38:34	삭제	kswon1029:[헤라클레스]	[268531441]\aH수정결정체 지팡이
2016-09-30 04:38:34	삭제	kswon1029:[헤라클레스]	[268531440]\aH수정결정체 지팡이
2016-09-30 04:38:34	삭제	kswon1029:[헤라클레스]	[268531444]\aH수정결정체 지팡이
2016-09-30 04:38:34	삭제	kswon1029:[헤라클레스]	[268531445]\aH수정결정체 지팡이
2016-09-30 04:38:34	삭제	kswon1029:[헤라클레스]	[268531446]\aH수정결정체 지팡이
2016-09-30 04:38:34	삭제	kswon1029:[헤라클레스]	[268531447]\aH수정결정체 지팡이
2016-09-30 04:38:34	삭제	kswon1029:[헤라클레스]	[268531451]\aH수정결정체 지팡이
2016-09-30 04:38:34	삭제	kswon1029:[헤라클레스]	[268531450]\aH수정결정체 지팡이
2016-09-30 04:38:34	삭제	kswon1029:[헤라클레스]	[268531449]\aH수정결정체 지팡이
2016-09-30 04:38:34	삭제	kswon1029:[헤라클레스]	[268531448]\aH수정결정체 지팡이
2016-09-30 04:38:34	삭제	kswon1029:[헤라클레스]	[268531452]\aH수정결정체 지팡이
2016-09-30 04:38:34	삭제	kswon1029:[헤라클레스]	[268531453]\aH수정결정체 지팡이
2016-09-30 04:38:34	삭제	kswon1029:[헤라클레스]	[268531454]\aH수정결정체 지팡이
2016-09-30 04:38:34	삭제	kswon1029:[헤라클레스]	[268531455]\aH수정결정체 지팡이
2016-09-30 04:38:34	삭제	kswon1029:[헤라클레스]	[268531459]\aH수정결정체 지팡이
2016-09-30 04:38:34	삭제	kswon1029:[헤라클레스]	[268531458]\aH수정결정체 지팡이
2016-09-30 04:38:34	삭제	kswon1029:[헤라클레스]	[268531457]\aH수정결정체 지팡이
2016-09-30 04:38:34	삭제	kswon1029:[헤라클레스]	[268531456]\aH수정결정체 지팡이
2016-09-30 04:38:34	삭제	kswon1029:[헤라클레스]	[268531460]\aH수정결정체 지팡이
2016-09-30 04:38:34	삭제	kswon1029:[헤라클레스]	[268531461]\aH수정결정체 지팡이
2016-09-30 04:38:34	삭제	kswon1029:[헤라클레스]	[268531462]\aH수정결정체 지팡이
2016-09-30 04:38:34	삭제	kswon1029:[헤라클레스]	[268531463]\aH수정결정체 지팡이
2016-09-30 04:38:35	삭제	kswon1029:[헤라클레스]	[268531467]\aH수정결정체 지팡이
2016-09-30 04:38:35	삭제	kswon1029:[헤라클레스]	[268531466]\aH수정결정체 지팡이
2016-09-30 04:38:35	삭제	kswon1029:[헤라클레스]	[268531465]\aH수정결정체 지팡이
2016-09-30 04:38:35	삭제	kswon1029:[헤라클레스]	[268531464]\aH수정결정체 지팡이
2016-09-30 04:48:52	삭제	kswon1029:[헤라클레스]	[268531764]+1스냅퍼의 지혜 반지
2016-09-30 04:48:52	삭제	kswon1029:[헤라클레스]	[268531762]+1스냅퍼의 지혜 반지
2016-09-30 04:48:52	삭제	kswon1029:[헤라클레스]	[268531760]+1스냅퍼의 지혜 반지
2016-09-30 04:48:52	삭제	kswon1029:[헤라클레스]	[268531752]+1스냅퍼의 지혜 반지
2016-09-30 04:48:52	삭제	kswon1029:[헤라클레스]	[268531754]+1스냅퍼의 지혜 반지
2016-09-30 04:48:52	삭제	kswon1029:[헤라클레스]	[268531756]+1스냅퍼의 지혜 반지
2016-09-30 04:48:52	삭제	kswon1029:[헤라클레스]	[268531758]+1스냅퍼의 지혜 반지
2016-09-30 04:48:52	삭제	kswon1029:[헤라클레스]	[268531750]+2스냅퍼의 지혜 반지
2016-09-30 04:49:25	삭제	kswon1029:[헤라클레스]	[268531797]룸티스의보라빛귀걸이
2016-09-30 04:49:25	삭제	kswon1029:[헤라클레스]	[268531795]룸티스의보라빛귀걸이
2016-09-30 04:49:25	삭제	kswon1029:[헤라클레스]	[268531793]룸티스의보라빛귀걸이
2016-09-30 04:49:25	삭제	kswon1029:[헤라클레스]	[268531791]룸티스의보라빛귀걸이
2016-09-30 04:49:25	삭제	kswon1029:[헤라클레스]	[268531799]룸티스의보라빛귀걸이
2016-09-30 04:49:25	삭제	kswon1029:[헤라클레스]	[268531801]룸티스의보라빛귀걸이
2016-09-30 04:49:25	삭제	kswon1029:[헤라클레스]	[268531803]룸티스의보라빛귀걸이
2016-09-30 04:49:33	삭제	kswon1029:[헤라클레스]	[268531789]룸티스의보라빛귀걸이
2016-09-30 04:49:42	삭제	kswon1029:[헤라클레스]	[268531813]룸티스의붉은빛귀걸이
2016-09-30 04:49:42	삭제	kswon1029:[헤라클레스]	[268531819]룸티스의붉은빛귀걸이
2016-09-30 04:49:42	삭제	kswon1029:[헤라클레스]	[268531817]룸티스의붉은빛귀걸이
2016-09-30 04:49:42	삭제	kswon1029:[헤라클레스]	[268531815]룸티스의붉은빛귀걸이
2016-09-30 04:50:28	삭제	kswon1029:[헤라클레스]	[268531825]마왕의 반지
2016-09-30 04:58:30	증발	kswon1029:헤라클레스	[268531645]화령의 무기 강화 주문서(1)
2016-09-30 05:01:35	줍기	minwok2824:[장비]	[268531953]흑정령의 수정 (더블 브레이크)(1)
2016-09-30 05:20:05	줍기	minwok2824:[장비]	[268563686]마력의 숨결(1)
2016-09-30 05:22:25	줍기	minwok2824:[장비]	[268563694]제니스의 반지
2016-09-30 06:01:05	줍기	xotqj11:[메티스]	[268564384]아데나(1000)
2016-09-30 06:01:06	줍기	xotqj11:[메티스]	[268564395]아데나(1000)
2016-09-30 06:03:34	삭제	minwok2824:[관우]	[268564589]룸티스의 검은빛 귀걸이
2016-09-30 06:03:34	삭제	minwok2824:[관우]	[268564228]룸티스의 검은빛 귀걸이 상자(5)
2016-09-30 06:03:34	삭제	minwok2824:[관우]	[268564591]룸티스의 검은빛 귀걸이
2016-09-30 06:03:34	삭제	minwok2824:[관우]	[268564593]룸티스의 검은빛 귀걸이
2016-09-30 06:03:34	삭제	minwok2824:[관우]	[268564216]+9룸티스의 검은빛 귀걸이
2016-09-30 06:03:34	삭제	minwok2824:[관우]	[268564195]+9룸티스의 검은빛 귀걸이
2016-09-30 07:10:59	삭제	minwok2824:[장비]	[268530590]마법의 투구: 신속
2016-09-30 07:10:59	삭제	minwok2824:[장비]	[268530587]무관의 장검
2016-09-30 07:10:59	삭제	minwok2824:[장비]	[268530588]흑왕도
2016-09-30 07:10:59	삭제	minwok2824:[장비]	[268530589]파괴의 장궁
2016-09-30 07:10:59	삭제	minwok2824:[장비]	[268530594]신관의 투구
2016-09-30 07:10:59	삭제	minwok2824:[장비]	[268530593]무관의 투구
2016-09-30 07:10:59	삭제	minwok2824:[장비]	[268530592]마법의 투구: 힘
2016-09-30 07:10:59	삭제	minwok2824:[장비]	[268530591]마법의 투구: 치유
2016-09-30 07:10:59	삭제	minwok2824:[장비]	[268530595]무관의 부츠
2016-09-30 07:10:59	삭제	minwok2824:[장비]	[268530597]소환 조종 반지
2016-09-30 07:10:59	삭제	minwok2824:[장비]	[268530604]마법서 (커스: 패럴라이즈)(0)
2016-09-30 07:10:59	삭제	minwok2824:[장비]	[268530603]기술서 (바운스 어택)(0)
2016-09-30 07:10:59	삭제	minwok2824:[장비]	[268530602]기술서 (리덕션 아머)(0)
2016-09-30 07:10:59	삭제	minwok2824:[장비]	[268530601]기술서 (쇼크 스턴)(0)
2016-09-30 07:10:59	삭제	minwok2824:[장비]	[268530605]마법서 (홀리 워크)(0)
2016-09-30 07:10:59	삭제	minwok2824:[장비]	[268530606]마법서 (풀 힐)(0)
2016-09-30 07:11:00	삭제	minwok2824:[장비]	[268530607]마법서 (블리자드)(0)
2016-09-30 07:11:00	삭제	minwok2824:[장비]	[268530608]마법서 (인비지블리티)(0)
2016-09-30 07:11:00	삭제	minwok2824:[장비]	[268530612]마법서 (라이트닝 스톰)(0)
2016-09-30 07:11:00	삭제	minwok2824:[장비]	[268530611]마법서 (사일런스)(0)
2016-09-30 07:11:00	삭제	minwok2824:[장비]	[268530610]마법서 (라이프 스트림)(0)
2016-09-30 07:11:00	삭제	minwok2824:[장비]	[268530609]마법서 (리절렉션)(0)
2016-09-30 07:11:00	삭제	minwok2824:[장비]	[268530613]마법서 (이뮨 투 함)(0)
2016-09-30 07:11:00	삭제	minwok2824:[장비]	[268530614]마법서 (파이어 스톰)(0)
2016-09-30 07:11:00	삭제	minwok2824:[장비]	[268530615]마법서 (디케이 포션)(0)
2016-09-30 07:11:00	삭제	minwok2824:[장비]	[268530616]마법서 (앱솔루트 배리어)(0)
2016-09-30 07:11:00	삭제	minwok2824:[장비]	[268530620]정령의 수정 (리턴 투 네이처)(0)
2016-09-30 07:11:00	삭제	minwok2824:[장비]	[268530619]마법서 (브레이브 오라)(0)
2016-09-30 07:11:00	삭제	minwok2824:[장비]	[268530618]마법서 (글로잉 오라)(0)
2016-09-30 07:11:00	삭제	minwok2824:[장비]	[268530617]마법서 (어드밴스 스피릿)(0)
2016-09-30 07:11:00	삭제	minwok2824:[장비]	[268530621]정령의 수정 (블러드 투 소울)(0)
2016-09-30 07:11:00	삭제	minwok2824:[장비]	[268530622]정령의 수정 (에어리어 오브 사일런스)(0)
2016-09-30 07:11:00	삭제	minwok2824:[장비]	[268530623]정령의 수정 (카운터 미러)(0)
2016-09-30 07:11:00	삭제	minwok2824:[장비]	[268530624]정령의 수정 (인탱글)(0)
2016-09-30 07:11:00	삭제	minwok2824:[장비]	[268530628]정령의 수정 (어디셔널 파이어)(0)
2016-09-30 07:11:00	삭제	minwok2824:[장비]	[268530627]정령의 수정 (윈드 셰클)(0)
2016-09-30 07:11:00	삭제	minwok2824:[장비]	[268530626]정령의 수정 (네이쳐스 블레싱)(0)
2016-09-30 07:11:00	삭제	minwok2824:[장비]	[268530625]정령의 수정 (워터 라이프)(0)
2016-09-30 07:11:00	삭제	minwok2824:[장비]	[268530632]지혜의 목걸이
2016-09-30 07:11:00	삭제	minwok2824:[장비]	[268530630]매력의 목걸이
2016-09-30 07:11:00	삭제	minwok2824:[장비]	[268530633]멸마의 반지
2016-09-30 07:11:00	삭제	minwok2824:[장비]	[268530634]화령의 반지
2016-09-30 07:11:00	삭제	minwok2824:[장비]	[268530635]빛나는 신체의 벨트
2016-09-30 07:11:00	삭제	minwok2824:[장비]	[268531863]기억의 수정(컨퓨전)
2016-09-30 07:11:00	삭제	minwok2824:[장비]	[268531862]기억의 수정(미러 이미지)
2016-09-30 07:11:00	삭제	minwok2824:[장비]	[268530640]용기사의 서판(각성[발라카스])
2016-09-30 07:11:00	삭제	minwok2824:[장비]	[268530637]오우거의 벨트
2016-09-30 07:11:00	삭제	minwok2824:[장비]	[268531866]기억의 수정(큐브:이그니션)
2016-09-30 07:11:00	삭제	minwok2824:[장비]	[268531876]기억의 수정(큐브:쇼크)
2016-09-30 07:11:00	삭제	minwok2824:[장비]	[268530596]변신 조종 반지
2016-09-30 07:11:00	삭제	minwok2824:[장비]	[268530598]순간이동 조종 반지
2016-09-30 07:11:00	삭제	minwok2824:[장비]	[268530629]마법 방어 투구
2016-09-30 07:11:00	삭제	minwok2824:[장비]	[268530631]완력의 목걸이
2016-09-30 07:11:00	삭제	minwok2824:[장비]	[268530636]빛나는 정신의 벨트
2016-09-30 07:12:58	삭제	minwok2824:[장비]	[268565499]룸티스의붉은빛귀걸이
2016-09-30 07:25:03	삭제	minwok2824:[장비]	[268467126]신속 체력 회복제(77)
2016-09-30 07:25:03	삭제	minwok2824:[장비]	[268467121]+6수련자의 신성한 투구
2016-09-30 07:25:03	삭제	minwok2824:[장비]	[268467122]+6수련자의 신성한 로브
2016-09-30 07:25:03	삭제	minwok2824:[장비]	[268467123]+6수련자의 신성한 망토
2016-09-30 07:25:03	삭제	minwok2824:[장비]	[268467125]+6수련자의 신성한 부츠
2016-09-30 07:25:03	삭제	minwok2824:[장비]	[268467124]+6수련자의 신성한 장갑
2016-09-30 07:25:03	삭제	minwok2824:[장비]	[268467130]+5수련자의 티셔츠
2016-09-30 07:25:03	삭제	minwok2824:[장비]	[268467131]+5수련자의 견고한 각반
2016-09-30 07:31:36	삭제	kokoa1:[꼬미]	[268565656]진 레이피어
2016-09-30 07:31:59	삭제	kokoa1:[꼬미]	[268565671]엘릭서 [STR](5)
2016-09-30 07:33:44	줍기	minwok2824:[장비]	[268565697]마나 회복 물약(1)
2016-09-30 07:35:42	버리기	xotqj11:[메티스]	[268530736]아데나(100000000)
2016-09-30 07:35:53	줍기	minwok2824:[장비]	[268565741]아데나(100000000)
2016-09-30 07:36:36	버리기	xotqj11:[메티스]	[268530736]아데나(100000000)
2016-09-30 07:36:50	버리기	xotqj11:[메티스]	[268531383]픽시의깃털(50000147)
2016-09-30 07:37:19	줍기	xotqj11:[메티스]	[268531383]픽시의깃털(50000147)
2016-09-30 07:37:20	줍기	xotqj11:[메티스]	[268565769]아데나(100000000)
2016-09-30 07:38:20	삭제	kokoa1:[꼬미]	[268565757]무기 마법 주문서(0)
2016-09-30 07:38:20	삭제	kokoa1:[꼬미]	[268565756]갑옷 마법 주문서(0)
2016-09-30 07:38:26	삭제	kokoa1:[꼬미]	[268565755]무기 마법 주문서(9)
2016-09-30 07:38:59	버리기	xotqj11:[메티스]	[268531383]픽시의깃털(100000000)
2016-09-30 07:39:06	버리기	xotqj11:[메티스]	[268530736]아데나(100000000)
2016-09-30 07:39:11	버리기	xotqj11:[메티스]	[268531383]픽시의깃털(100000000)
2016-09-30 07:39:16	버리기	xotqj11:[메티스]	[268530736]아데나(100000000)
2016-09-30 07:39:22	버리기	xotqj11:[메티스]	[268530736]아데나(100000000)
2016-09-30 07:39:25	버리기	xotqj11:[메티스]	[268531383]픽시의깃털(100000000)
2016-09-30 07:39:30	버리기	xotqj11:[메티스]	[268530736]아데나(10000000)
2016-09-30 07:39:33	버리기	xotqj11:[메티스]	[268531383]픽시의깃털(100000000)
2016-09-30 07:39:36	줍기	xotqj11:[메티스]	[268565815]아데나(10000000)
2016-09-30 07:39:40	버리기	xotqj11:[메티스]	[268530736]아데나(100000000)
2016-09-30 07:39:40	삭제	kokoa1:[꼬미]	[268565562]+6수련자의 견고한 망토
2016-09-30 07:39:40	삭제	kokoa1:[꼬미]	[268565550]단검
2016-09-30 07:39:40	삭제	kokoa1:[꼬미]	[268565563]+6수련자의 견고한 장갑
2016-09-30 07:39:40	삭제	kokoa1:[꼬미]	[268565569]+5수련자의 티셔츠
2016-09-30 07:39:40	삭제	kokoa1:[꼬미]	[268565570]+5수련자의 견고한 각반
2016-09-30 07:39:41	삭제	kokoa1:[꼬미]	[268565564]+6수련자의 견고한 부츠
2016-09-30 07:39:41	삭제	kokoa1:[꼬미]	[268565560]+6수련자의 견고한 투구
2016-09-30 07:39:41	삭제	kokoa1:[꼬미]	[268565556]용기의 물약(8)
2016-09-30 07:39:41	삭제	kokoa1:[꼬미]	[268565552]속도향상 물약(11)
2016-09-30 07:39:41	삭제	kokoa1:[꼬미]	[268565561]+6수련자의 견고한 갑옷
2016-09-30 07:39:41	삭제	kokoa1:[꼬미]	[268565636]수련자의 귀걸이
2016-09-30 07:39:41	삭제	kokoa1:[꼬미]	[268565640]용기의 벨트
2016-09-30 07:39:41	삭제	kokoa1:[꼬미]	[268565559]+9수련자의 양손검
2016-09-30 07:39:41	삭제	kokoa1:[꼬미]	[268565557]+9수련자의 한손검
2016-09-30 07:39:41	삭제	kokoa1:[꼬미]	[268565558]+9수련자의 단검
2016-09-30 07:39:41	삭제	kokoa1:[꼬미]	[268565568]수련자의 벨트
2016-09-30 07:39:41	삭제	kokoa1:[꼬미]	[268565630]수련자의 반지
2016-09-30 07:39:41	삭제	kokoa1:[꼬미]	[268565634]수련자의 반지
2016-09-30 07:39:41	삭제	kokoa1:[꼬미]	[268565627]수련자의 목걸이
2016-09-30 07:39:41	삭제	kokoa1:[꼬미]	[268565639]데스 블레이드
2016-09-30 07:39:46	버리기	xotqj11:[메티스]	[268530736]아데나(100000000)
2016-09-30 07:39:50	버리기	xotqj11:[메티스]	[268530736]아데나(100000000)
2016-09-30 07:39:53	버리기	xotqj11:[메티스]	[268530736]아데나(100000000)
2016-09-30 07:39:56	버리기	xotqj11:[메티스]	[268530736]아데나(100000000)
2016-09-30 07:40:00	버리기	xotqj11:[메티스]	[268530736]아데나(100000000)
2016-09-30 07:40:01	줍기	xotqj11:[메티스]	[268565817]아데나(100000000)
2016-09-30 07:40:02	줍기	xotqj11:[메티스]	[268565813]아데나(100000000)
2016-09-30 07:40:03	줍기	xotqj11:[메티스]	[268565814]픽시의깃털(100000000)
2016-09-30 07:40:04	줍기	xotqj11:[메티스]	[268565816]픽시의깃털(100000000)
2016-09-30 07:40:05	줍기	xotqj11:[메티스]	[268565811]픽시의깃털(100000000)
2016-09-30 07:40:06	줍기	xotqj11:[메티스]	[268565812]아데나(100000000)
2016-09-30 07:40:07	줍기	xotqj11:[메티스]	[268565809]픽시의깃털(100000000)
2016-09-30 07:40:08	줍기	xotqj11:[메티스]	[268565810]아데나(100000000)
2016-09-30 07:40:10	줍기	xotqj11:[메티스]	[268565842]아데나(100000000)
2016-09-30 07:40:25	버리기	xotqj11:[메티스]	[268530736]아데나(100000000)
2016-09-30 07:40:28	버리기	xotqj11:[메티스]	[268530736]아데나(100000000)
2016-09-30 07:40:35	버리기	xotqj11:[메티스]	[268530736]아데나(100000000)
2016-09-30 07:40:39	버리기	xotqj11:[메티스]	[268530736]아데나(100000000)
2016-09-30 07:40:40	줍기	xotqj11:[메티스]	[268565848]아데나(200000000)
2016-09-30 07:40:43	버리기	xotqj11:[메티스]	[268530736]아데나(100000000)
2016-09-30 07:40:48	버리기	xotqj11:[메티스]	[268530736]아데나(100000000)
2016-09-30 07:40:51	버리기	xotqj11:[메티스]	[268530736]아데나(100000000)
2016-09-30 07:40:58	버리기	xotqj11:[메티스]	[268531383]픽시의깃털(100000000)
2016-09-30 07:41:00	버리기	xotqj11:[메티스]	[268531383]픽시의깃털(100000000)
2016-09-30 07:41:04	버리기	xotqj11:[메티스]	[268531383]픽시의깃털(100000000)
2016-09-30 07:41:08	버리기	xotqj11:[메티스]	[268531383]픽시의깃털(100000000)
2016-09-30 07:41:11	버리기	xotqj11:[메티스]	[268531383]픽시의깃털(100000000)
2016-09-30 07:41:14	버리기	xotqj11:[메티스]	[268531383]픽시의깃털(100000000)
2016-09-30 07:41:17	버리기	xotqj11:[메티스]	[268531383]픽시의깃털(100000000)
2016-09-30 07:41:20	버리기	xotqj11:[메티스]	[268531383]픽시의깃털(100000000)
2016-09-30 07:41:22	줍기	xotqj11:[메티스]	[268565879]픽시의깃털(200000000)
2016-09-30 07:41:25	버리기	xotqj11:[메티스]	[268531383]픽시의깃털(100000000)
2016-09-30 07:41:29	버리기	xotqj11:[메티스]	[268531383]픽시의깃털(100000000)
2016-09-30 07:41:32	버리기	xotqj11:[메티스]	[268531383]픽시의깃털(250000147)
2016-09-30 07:41:34	버리기	xotqj11:[메티스]	[268530736]아데나(225997704)
2016-09-30 07:46:32	삭제	kokoa1:[꼬미]	[268565931]룸티스의푸른빛귀걸이
2016-09-30 07:46:32	삭제	kokoa1:[꼬미]	[268565930]+1룸티스의푸른빛귀걸이
2016-09-30 07:46:32	삭제	kokoa1:[꼬미]	[268565935]스냅퍼의 용사 반지
2016-09-30 07:47:23	삭제	minwok2824:[장비]	[268467180]환술사의 마법서
2016-09-30 07:47:23	삭제	minwok2824:[장비]	[268467179]사파이어 키링크
2016-09-30 07:47:28	삭제	minwok2824:[장비]	[268498917]+3대마법사의 모자
2016-09-30 07:47:30	삭제	minwok2824:[장비]	[268498924]+5흑장로의 샌달
2016-09-30 07:47:42	삭제	minwok2824:[장비]	[268565493]룸티스 강화 주문서(33)
2016-09-30 07:47:43	삭제	minwok2824:[장비]	[268565494]스냅퍼의 반지 강화 주문서(30)
2016-09-30 07:54:48	삭제	xotjq11:[손담비비]	[268566088]+6수련자의 신성한 투구
2016-09-30 07:54:48	삭제	xotjq11:[손담비비]	[268566089]+6수련자의 신성한 로브
2016-09-30 07:54:48	삭제	xotjq11:[손담비비]	[268566090]+6수련자의 신성한 망토
2016-09-30 07:54:48	삭제	xotjq11:[손담비비]	[268566091]+6수련자의 신성한 장갑
2016-09-30 07:54:48	삭제	xotjq11:[손담비비]	[268566092]+6수련자의 신성한 부츠
2016-09-30 07:54:48	삭제	xotjq11:[손담비비]	[268566097]+5수련자의 티셔츠
2016-09-30 07:54:48	삭제	xotjq11:[손담비비]	[268566098]+5수련자의 견고한 각반
2016-09-30 07:54:48	삭제	xotjq11:[손담비비]	[268566096]수련자의 벨트
2016-09-30 07:58:54	줍기	kokoa1:[꼬미]	[268565725]마나 회복 물약(1)
2016-09-30 07:59:02	줍기	kokoa1:[꼬미]	[268565715]마나 회복 물약(1)
2016-09-30 08:09:10	줍기	kokoa1:[꼬미]	[268566310]오만의 탑 \aG[8층]\aA 이동 주문서(1)
2016-09-30 08:09:24	줍기	kokoa1:[꼬미]	[268566315]오만의 탑 \aG[3층]\aA 이동 주문서(1)
2016-09-30 08:17:00	증발	xotjq11:손담비비	[268566215]+10뱀파이어의 망토
2016-09-30 08:23:25	버리기	xotqj11:[메티스]	[268565933]아데나(1100000000)
2016-09-30 08:23:27	줍기	rhal11:[꼬꼬마]	[268565933]아데나(1100000000)
2016-09-30 08:23:27	버리기	xotqj11:[메티스]	[268566052]픽시의깃털(1000000010)
2016-09-30 08:23:30	줍기	rhal11:[꼬꼬마]	[268566052]픽시의깃털(1000000010)
2016-09-30 08:24:43	버리기	xotqj11:[메티스]	[268566511]아데나(1000000000)
2016-09-30 08:24:44	버리기	xotqj11:[메티스]	[268566512]픽시의깃털(1000000000)
2016-09-30 08:25:11	줍기	rhal11:[유나]	[268566511]아데나(1000000000)
2016-09-30 08:25:12	줍기	rhal11:[유나]	[268566512]픽시의깃털(1000000000)
2016-09-30 08:25:27	버리기	xotqj11:[메티스]	[268566520]아데나(1000000000)
2016-09-30 08:25:28	버리기	xotqj11:[메티스]	[268566529]픽시의깃털(1000000000)
2016-09-30 08:25:31	줍기	rhal11:[마루]	[268566529]픽시의깃털(1000000000)
2016-09-30 08:25:32	줍기	rhal11:[마루]	[268566520]아데나(1000000000)
2016-09-30 08:57:42	삭제	minwok2824:[관우]	[268563755]+6수련자의 견고한 갑옷
2016-09-30 08:57:42	삭제	minwok2824:[관우]	[268563756]+6수련자의 견고한 망토
2016-09-30 08:57:42	삭제	minwok2824:[관우]	[268563758]+6수련자의 견고한 부츠
2016-09-30 08:57:42	삭제	minwok2824:[관우]	[268563757]+6수련자의 견고한 장갑
2016-09-30 08:57:42	삭제	minwok2824:[관우]	[268563754]+6수련자의 견고한 투구
2016-09-30 08:57:42	삭제	minwok2824:[관우]	[268563764]+5수련자의 견고한 각반
2016-09-30 08:57:42	삭제	minwok2824:[관우]	[268563753]+9수련자의 양손검
2016-09-30 08:57:42	삭제	minwok2824:[관우]	[268563752]+9수련자의 단검
2016-09-30 08:57:42	삭제	minwok2824:[관우]	[268563751]+9수련자의 한손검
2016-09-30 08:57:42	삭제	minwok2824:[관우]	[268563762]수련자의 벨트
2016-09-30 08:57:50	삭제	minwok2824:[관우]	[268563804]수련자의 귀걸이
2016-09-30 08:57:50	삭제	minwok2824:[관우]	[268563809]용기의 벨트
2016-09-30 08:57:50	삭제	minwok2824:[관우]	[268563802]수련자의 목걸이
2016-09-30 08:57:50	삭제	minwok2824:[관우]	[268563796]수련자의 반지
2016-09-30 08:57:50	삭제	minwok2824:[관우]	[268563793]수련자의 반지
2016-09-30 08:57:50	삭제	minwok2824:[관우]	[268563808]데스 블레이드
2016-09-30 08:57:53	삭제	minwok2824:[관우]	[268563744]단검
2016-09-30 08:58:00	삭제	minwok2824:[관우]	[268563945]키메라의 가죽 (용)(0)
2016-09-30 08:58:00	삭제	minwok2824:[관우]	[268563946]키메라의 가죽 (산양)(0)
2016-09-30 08:58:00	삭제	minwok2824:[관우]	[268563947]키메라의 가죽 (사자)(0)
2016-09-30 08:58:00	삭제	minwok2824:[관우]	[268563948]키메라의 가죽 (뱀)(0)
2016-09-30 09:11:29	삭제	minwok2824:[관우]	[268567249]레이스표 #제씨-1(19998)
2016-09-30 09:32:04	삭제	xotqj11:[메티스]	[268567730]+999\aH진명황의 집행검
2016-09-30 09:47:46	버리기	xotqj11:[메티스]	[268467054]단검
2016-09-30 09:47:50	버리기	xotqj11:[메티스]	[268563972]+15진 레이피어
2016-09-30 09:47:58	삭제	xotqj11:[메티스]	[268564256]룸티스의 검은빛 귀걸이
2016-09-30 09:47:58	삭제	xotqj11:[메티스]	[268564258]룸티스의 검은빛 귀걸이
2016-09-30 09:47:59	삭제	xotqj11:[메티스]	[268563588]+8룸티스의푸른빛귀걸이
2016-09-30 09:47:59	삭제	xotqj11:[메티스]	[268563590]+8룸티스의푸른빛귀걸이
2016-09-30 09:47:59	삭제	xotqj11:[메티스]	[268564254]룸티스의 검은빛 귀걸이
2016-09-30 09:47:59	삭제	xotqj11:[메티스]	[268564252]룸티스의 검은빛 귀걸이
2016-09-30 09:47:59	삭제	xotqj11:[메티스]	[268564250]+9룸티스의 검은빛 귀걸이
2016-09-30 09:47:59	삭제	xotqj11:[메티스]	[268564246]+9룸티스의 검은빛 귀걸이
2016-09-30 09:47:59	삭제	xotqj11:[메티스]	[268563630]+8룸티스의푸른빛귀걸이
2016-09-30 09:47:59	삭제	xotqj11:[메티스]	[268564244]+9룸티스의 검은빛 귀걸이
2016-09-30 09:47:59	삭제	xotqj11:[메티스]	[268564242]룸티스의 검은빛 귀걸이
2016-09-30 09:48:19	삭제	xotqj11:[메티스]	[268564697]무기 마법 주문서(0)
2016-09-30 09:48:19	삭제	xotqj11:[메티스]	[268564240]룸티스의 검은빛 귀걸이 상자(103)
2016-09-30 09:48:19	삭제	xotqj11:[메티스]	[268565307]베리(930001)
2016-09-30 09:48:19	삭제	xotqj11:[메티스]	[268565316]릴장착 금빛 낚싯대
2016-09-30 09:48:20	삭제	xotqj11:[메티스]	[268563649]순간이동 주문서(0)
2016-09-30 09:48:20	삭제	xotqj11:[메티스]	[268563822]천상의 경험치 물약(3)
2016-09-30 09:48:20	삭제	xotqj11:[메티스]	[268563722]강화 속도향상 물약(3)
2016-09-30 09:48:20	삭제	xotqj11:[메티스]	[268563706]LV45 페어리의 축하 선물
2016-09-30 09:48:20	삭제	xotqj11:[메티스]	[268563707]LV50 페어리의 축하 선물
2016-09-30 09:48:20	삭제	xotqj11:[메티스]	[268563708]LV52 페어리의 축하 선물
2016-09-30 09:48:20	삭제	xotqj11:[메티스]	[268563720]할파스의 집념(14)
2016-09-30 09:48:20	삭제	xotqj11:[메티스]	[268563705]LV40 페어리의 축하 선물
2016-09-30 09:48:20	삭제	xotqj11:[메티스]	[268563704]LV35 페어리의 축하 선물
2016-09-30 09:48:20	삭제	xotqj11:[메티스]	[268563703]LV30 페어리의 축하 선물
2016-09-30 09:48:20	삭제	xotqj11:[메티스]	[268563702]LV25 페어리의 축하 선물
2016-09-30 09:48:20	삭제	xotqj11:[메티스]	[268531857]에바의 유산(0)
2016-09-30 09:48:20	삭제	xotqj11:[메티스]	[268563699]LV10 페어리의 축하 선물
2016-09-30 09:48:20	삭제	xotqj11:[메티스]	[268563700]LV15 페어리의 축하 선물
2016-09-30 09:48:20	삭제	xotqj11:[메티스]	[268563701]LV20 페어리의 축하 선물
2016-09-30 09:48:44	삭제	xotqj11:[메티스]	[268467056]속도향상 물약(3)
2016-09-30 09:48:44	삭제	xotqj11:[메티스]	[268530638]갑옷 마법 주문서(49)
2016-09-30 09:48:44	삭제	xotqj11:[메티스]	[268467059]아크프리패스 상자(0)
2016-09-30 09:48:44	삭제	xotqj11:[메티스]	[268530639]무기 마법 주문서(27)
2016-09-30 09:48:44	삭제	xotqj11:[메티스]	[268563688]선물 상자(36)
2016-09-30 09:48:44	삭제	xotqj11:[메티스]	[268563592]룸티스의푸른빛귀걸이
2016-09-30 09:48:44	삭제	xotqj11:[메티스]	[268563596]룸티스의푸른빛귀걸이
2016-09-30 09:48:44	삭제	xotqj11:[메티스]	[268563605]룸티스의푸른빛귀걸이
2016-09-30 09:48:44	삭제	xotqj11:[메티스]	[268563603]룸티스의푸른빛귀걸이
2016-09-30 09:48:44	삭제	xotqj11:[메티스]	[268563601]룸티스의푸른빛귀걸이
2016-09-30 09:48:44	삭제	xotqj11:[메티스]	[268563598]룸티스의푸른빛귀걸이
2016-09-30 09:48:44	삭제	xotqj11:[메티스]	[268563607]룸티스의푸른빛귀걸이
2016-09-30 09:48:44	삭제	xotqj11:[메티스]	[268563615]룸티스의푸른빛귀걸이
2016-09-30 09:48:44	삭제	xotqj11:[메티스]	[268563614]확인 주문서(87)
2016-09-30 09:48:44	삭제	xotqj11:[메티스]	[268563584]룸티스의 푸른빛 귀걸이 상자
(88)
2016-09-30 09:49:07	삭제	xotqj11:[메티스]	[268530600]무기 마법 주문서(37)
2016-09-30 09:49:13	삭제	xotqj11:[메티스]	[268530599]갑옷 마법 주문서(94)
2016-09-30 09:49:22	삭제	xotqj11:[메티스]	[268531962]룸티스 강화 주문서(2)
2016-09-30 09:54:50	삭제	xotqj11:[메티스]	[268565317]영양 미끼(50)
2016-09-30 10:37:15	삭제	shs544:[미소피아]	[268567894]단검
2016-09-30 10:37:18	삭제	shs544:[미소피아]	[268568023]대장장이의 도끼
2016-09-30 10:37:52	삭제	shs544:[미소피아]	[268568022]전사단 투구
2016-09-30 10:47:18	줍기	xotqj11:[메티스]	[268568116]봉인된 오만의 탑 1층 이동 부적(1)
2016-09-30 10:47:25	줍기	xotqj11:[메티스]	[268568117]봉인된 오만의 탑 2층 이동 부적(1)
2016-09-30 10:47:25	줍기	xotqj11:[메티스]	[268568118]봉인된 오만의 탑 3층 이동 부적(1)
2016-09-30 10:47:26	줍기	xotqj11:[메티스]	[268568120]봉인된 오만의 탑 7층 이동 부적(1)
2016-09-30 10:47:27	줍기	xotqj11:[메티스]	[268568119]봉인된 오만의 탑 4층 이동 부적(1)
2016-09-30 12:51:09	삭제	kswon1029:[헤라클레스]	[268568646]스냅퍼의 지혜 반지
2016-09-30 12:51:09	삭제	kswon1029:[헤라클레스]	[268568644]스냅퍼의 지혜 반지
2016-09-30 12:51:09	삭제	kswon1029:[헤라클레스]	[268568642]스냅퍼의 지혜 반지
2016-09-30 12:51:09	삭제	kswon1029:[헤라클레스]	[268568638]스냅퍼의 지혜 반지
2016-09-30 12:51:09	삭제	kswon1029:[헤라클레스]	[268568640]스냅퍼의 지혜 반지
2016-09-30 12:52:55	삭제	kswon1029:[헤라클레스]	[268531692]+7시어의 심안
2016-09-30 12:53:43	삭제	kswon1029:[헤라클레스]	[268568662]룸티스의붉은빛귀걸이
2016-09-30 12:53:43	삭제	kswon1029:[헤라클레스]	[268568660]룸티스의붉은빛귀걸이
2016-09-30 13:08:36	버리기	kswon1029:[헤라클레스]	[268568717]마법서 (메디테이션)(1)
2016-09-30 13:08:50	버리기	kswon1029:[헤라클레스]	[268568729]마법서 (헤이스트)(1)
2016-09-30 16:46:20	줍기	kokoa1:[꼬미]	[268567304]오만의 탑 \aG[2층]\aA 이동 주문서(1)
2016-09-30 16:46:40	줍기	kokoa1:[꼬미]	[268569234]기운을 잃은 지휘관의 투구(1)
2016-09-30 16:49:01	줍기	kokoa1:[꼬미]	[268569275]기운을 잃은 흑장로의 로브(1)
2016-09-30 16:49:58	줍기	kokoa1:[꼬미]	[268569293]흑장로의 로브
2016-09-30 16:49:58	줍기	kokoa1:[꼬미]	[268569294]변신 조종 반지
2016-09-30 16:51:24	줍기	kokoa1:[꼬미]	[268569340]부서진 폭풍의 반지
2016-09-30 16:52:32	줍기	kokoa1:[꼬미]	[268569390]기운을 잃은 민첩의 반지(1)
2016-09-30 16:52:33	줍기	kokoa1:[꼬미]	[268569389]오리하루콘 단검
2016-09-30 16:52:34	줍기	kokoa1:[꼬미]	[268569397]지혜의 물약(1)
2016-09-30 16:52:34	줍기	kokoa1:[꼬미]	[268569399]정령의 수정 (스트라이커 게일)(1)
2016-09-30 16:52:59	줍기	kokoa1:[꼬미]	[268569431]풍령의 장갑
2016-09-30 16:53:06	줍기	kokoa1:[꼬미]	[268569434]풍령의 장갑
2016-09-30 16:53:07	줍기	kokoa1:[꼬미]	[268569433]힘의 지팡이
2016-09-30 16:53:32	줍기	kokoa1:[꼬미]	[268569426]힘의 지팡이
2016-09-30 19:18:04	버리기	wjsdlf:[테르]	[268570124]용기사의 서판(블러드러스트)
2016-09-30 19:18:04	버리기	wjsdlf:[테르]	[268570122]용기사의 서판(드래곤 스킨)
2016-09-30 19:18:04	버리기	wjsdlf:[테르]	[268570123]용기사의 서판(버닝 슬래쉬)
2016-09-30 19:18:04	버리기	wjsdlf:[테르]	[268569989]용기사의 서판(블러드러스트)
2016-09-30 19:18:04	버리기	wjsdlf:[테르]	[268569990]용기사의 서판(포우 슬레이어)
2016-09-30 19:22:10	줍기	hyun123:[솔]	[268569352]변신 조종 반지
2016-09-30 19:22:22	줍기	hyun123:[솔]	[268569335]속도향상 물약(1)
2016-09-30 19:22:38	줍기	hyun123:[솔]	[268569355]기운을 잃은 파괴의 장궁(1)
2016-09-30 19:22:39	줍기	hyun123:[솔]	[268569356]속도향상 물약(1)
2016-09-30 19:22:51	삭제	hyun123:[솔]	[268569962]+6수련자의 견고한 부츠
2016-09-30 19:22:53	줍기	hyun123:[솔]	[268569351]속도향상 물약(1)
2016-09-30 19:22:58	삭제	hyun123:[솔]	[268569961]+6수련자의 견고한 장갑
2016-09-30 19:23:04	삭제	hyun123:[솔]	[268569960]+6수련자의 견고한 망토
2016-09-30 19:23:06	줍기	hyun123:[솔]	[268569358]기운을 잃은 파괴의 장궁(1)
2016-09-30 19:23:10	삭제	hyun123:[솔]	[268569959]+6수련자의 견고한 갑옷
2016-09-30 19:23:18	줍기	hyun123:[솔]	[268569404]변신 조종 반지
2016-09-30 19:23:45	줍기	hyun123:[솔]	[268569411]속도향상 물약(1)
2016-09-30 19:25:01	줍기	wjsdlf:[테르]	[268570151]속도향상 물약(1)
2016-09-30 19:27:23	삭제	hyun123:[솔]	[268569949]단검
2016-09-30 19:29:39	줍기	hyun123:[솔]	[268570473]속도향상 물약(1)
2016-09-30 19:29:49	줍기	hyun123:[솔]	[268570470]정령의 수정 (윈드 워크)(1)
2016-09-30 19:29:51	줍기	hyun123:[솔]	[268570469]정령의 수정 (리턴 투 네이처)(1)
2016-09-30 19:29:51	줍기	hyun123:[솔]	[268570471]정령의 수정 (윈드 셰클)(1)
2016-09-30 19:35:24	줍기	hyun123:[솔]	[268570684]전사의 인장(기간틱)
2016-09-30 19:35:48	줍기	hyun123:[솔]	[268570682]용기의 물약(1)
2016-09-30 19:36:07	줍기	hyun123:[솔]	[268570732]검은 혈흔(1)
2016-09-30 19:36:38	줍기	hyun123:[솔]	[268570747]전사의 인장(기간틱)
2016-09-30 19:36:58	줍기	hyun123:[솔]	[268570755]용기의 물약(1)
2016-09-30 19:36:59	줍기	hyun123:[솔]	[268570756]전사의 인장(기간틱)
2016-09-30 19:36:59	줍기	hyun123:[솔]	[268570757]오만의 탑 \aG[8층]\aA 이동 주문서(1)
2016-09-30 19:37:43	줍기	hyun123:[솔]	[268570782]기술서 (리덕션 아머)(1)
2016-09-30 19:37:45	줍기	hyun123:[솔]	[268570781]용기의 물약(1)
2016-09-30 19:37:54	줍기	hyun123:[솔]	[268570785]오만의 탑 \aG[8층]\aA 이동 주문서(1)
2016-09-30 19:38:03	줍기	hyun123:[솔]	[268570778]용기의 물약(1)
2016-09-30 19:38:15	줍기	hyun123:[솔]	[268570792]용기의 물약(1)
2016-09-30 19:38:51	삭제	hyun123:[솔]	[268569956]+9수련자의 도끼
2016-09-30 19:39:11	삭제	hyun123:[솔]	[268570747]전사의 인장(기간틱)
2016-09-30 19:40:01	줍기	hyun123:[솔]	[268570358]마법서 (카운터 디텍션)(1)
2016-09-30 19:40:02	줍기	hyun123:[솔]	[268570357]속도향상 물약(1)
2016-09-30 19:41:42	줍기	hyun123:[솔]	[268570403]속도향상 물약(1)
2016-09-30 19:41:49	줍기	hyun123:[솔]	[268564125]영혼의 벨트
2016-09-30 19:41:49	줍기	hyun123:[솔]	[268564128]빛나는 비늘(1)
2016-09-30 19:44:42	버리기	hyun123:[솔]	[268570954]전사의 인장(하울)
2016-09-30 19:44:42	버리기	hyun123:[솔]	[268570955]전사의 인장(크래쉬)
2016-09-30 19:44:42	버리기	hyun123:[솔]	[268570957]전사의 인장(슬레이어)
2016-09-30 19:44:45	버리기	hyun123:[솔]	[268564128]빛나는 비늘(1)
2016-09-30 19:44:47	버리기	hyun123:[솔]	[268570756]전사의 인장(기간틱)
2016-09-30 19:44:48	버리기	hyun123:[솔]	[268570782]기술서 (리덕션 아머)(1)
2016-09-30 19:46:09	삭제	hyun123:[솔]	[268570019]수련자의 무기 마법 주문서(4)
2016-09-30 19:46:09	삭제	hyun123:[솔]	[268570020]수련자의 갑옷 마법 주문서(16)
2016-09-30 19:46:17	삭제	hyun123:[솔]	[268570021]수련자의 반지
2016-09-30 19:46:23	삭제	hyun123:[솔]	[268570032]수련자의 귀걸이
2016-09-30 19:48:25	줍기	hyun123:[솔]	[268571114]마물의 기운(1)
2016-09-30 19:48:29	줍기	hyun123:[솔]	[268571111]마물의 기운(1)
2016-09-30 19:48:48	줍기	hyun123:[솔]	[268571144]대형 도끼
2016-09-30 19:48:50	줍기	hyun123:[솔]	[268571137]마력의 지팡이
2016-09-30 19:48:51	줍기	hyun123:[솔]	[268571138]은도끼
2016-09-30 19:49:10	줍기	hyun123:[솔]	[268571148]기사의 면갑
2016-09-30 19:49:11	줍기	hyun123:[솔]	[268571149]속도향상 물약(4)
2016-09-30 19:49:15	줍기	hyun123:[솔]	[268571151]미늘 갑옷
2016-09-30 19:49:16	줍기	hyun123:[솔]	[268571152]속도향상 물약(2)
2016-09-30 19:49:49	줍기	hyun123:[솔]	[268571167]금화 주머니(1)
2016-09-30 19:49:53	줍기	hyun123:[솔]	[268571169]금화 주머니(1)
2016-09-30 19:50:10	줍기	hyun123:[솔]	[268571182]금화 주머니(1)
2016-09-30 19:50:27	줍기	hyun123:[솔]	[268571189]금화 주머니(1)
2016-09-30 19:50:30	줍기	hyun123:[솔]	[268571191]금화 주머니(1)
2016-09-30 19:50:42	줍기	hyun123:[솔]	[268571220]금화 주머니(1)
2016-09-30 19:51:12	줍기	hoan27:[소유]	[268566918]오만의 탑 \aG[7층]\aA 이동 주문서(1)
2016-09-30 19:51:55	줍기	hyun123:[솔]	[268571222]금화 주머니(1)
2016-09-30 19:51:55	줍기	hyun123:[솔]	[268571229]금화 주머니(1)
2016-09-30 19:51:56	줍기	hyun123:[솔]	[268571217]금화 주머니(1)
2016-09-30 19:52:04	줍기	hyun123:[솔]	[268571227]금화 주머니(1)
2016-09-30 19:52:07	줍기	hyun123:[솔]	[268571251]금화 주머니(1)
2016-09-30 19:52:08	줍기	hyun123:[솔]	[268571255]마법사의 지팡이
2016-09-30 19:52:09	줍기	hyun123:[솔]	[268571256]마나 회복 물약(1)
2016-09-30 19:52:11	줍기	hyun123:[솔]	[268571254]참나무 지팡이
2016-09-30 19:52:14	줍기	hyun123:[솔]	[268571253]금화 주머니(1)
2016-09-30 19:52:18	줍기	hyun123:[솔]	[268571264]금화 주머니(1)
2016-09-30 19:52:21	줍기	hyun123:[솔]	[268571262]금화 주머니(1)
2016-09-30 19:52:33	줍기	hyun123:[솔]	[268571270]강철 부츠
2016-09-30 19:52:34	줍기	hyun123:[솔]	[268571269]강철 장갑
2016-09-30 19:52:35	줍기	hyun123:[솔]	[268571272]금화 주머니(1)
2016-09-30 19:52:38	줍기	hyun123:[솔]	[268571266]금화 주머니(2)
2016-09-30 19:52:42	줍기	hyun123:[솔]	[268571285]금화 주머니(1)
2016-09-30 19:52:48	줍기	hyun123:[솔]	[268571291]금화 주머니(1)
2016-09-30 19:52:52	줍기	hyun123:[솔]	[268571283]강철 부츠
2016-09-30 19:52:52	줍기	hyun123:[솔]	[268571289]금화 주머니(1)
2016-09-30 19:52:53	줍기	hyun123:[솔]	[268571282]금화 주머니(1)
2016-09-30 19:52:57	줍기	hyun123:[솔]	[268571287]금화 주머니(1)
2016-09-30 19:53:01	줍기	hyun123:[솔]	[268571300]금화 주머니(1)
2016-09-30 19:53:27	줍기	hoan27:[소유]	[268571324]마물의 기운(5)
2016-09-30 19:53:42	줍기	hoan27:[소유]	[268571327]마물의 기운(4)
2016-09-30 19:54:00	줍기	hoan27:[소유]	[268571346]영혼석(하딘의 분신)
2016-09-30 19:54:01	줍기	hoan27:[소유]	[268571347]마물의 기운(1)
2016-09-30 19:55:00	줍기	hoan27:[소유]	[268571387]마물의 기운(4)
2016-09-30 19:55:04	줍기	hoan27:[소유]	[268571393]마물의 기운(2)
2016-09-30 19:55:08	줍기	hoan27:[소유]	[268571390]마물의 기운(1)
2016-09-30 19:55:26	줍기	hoan27:[소유]	[268571409]마물의 기운(1)
2016-09-30 19:56:04	줍기	hoan27:[소유]	[268571453]영혼석(하딘의 분신)
2016-09-30 19:56:05	줍기	hoan27:[소유]	[268571454]마물의 기운(2)
2016-09-30 19:56:13	줍기	hoan27:[소유]	[268571451]마물의 기운(4)
2016-09-30 19:57:09	삭제	wjsdlf:[테르]	[268571487]룸티스의 검은빛 귀걸이
2016-09-30 19:58:06	줍기	kokoa1:[꼬미]	[268571249]오만의 탑 \aG[2층]\aA 이동 주문서(1)
2016-09-30 19:59:37	줍기	kokoa1:[꼬미]	[268569260]오만의 탑 \aG[5층]\aA 이동 주문서(1)
2016-09-30 20:00:08	줍기	kokoa1:[꼬미]	[268569254]마나 회복 물약(1)
2016-09-30 20:00:09	줍기	kokoa1:[꼬미]	[268569255]오만의 탑 \aG[3층]\aA 이동 주문서(1)
2016-09-30 20:09:59	버리기	wjsdlf:[테르]	[268569924]픽시의깃털(10000000)
2016-09-30 20:10:10	줍기	hoan27:[소유]	[268571920]픽시의깃털(10000000)
2016-09-30 20:10:24	버리기	wjsdlf:[테르]	[268569924]픽시의깃털(20000000)
2016-09-30 20:10:27	줍기	hyun123:[솔]	[268571929]픽시의깃털(20000000)
2016-09-30 20:17:48	버리기	hyun123:[솔]	[268572138]화령의 무기 강화 주문서(5)
2016-09-30 20:17:51	줍기	wjsdlf:[테르]	[268572138]화령의 무기 강화 주문서(5)
2016-09-30 20:20:44	버리기	wjsdlf:[테르]	[268569924]픽시의깃털(20000000)
2016-09-30 20:20:57	줍기	wjsdlf:[테르]	[268572263]픽시의깃털(20000000)
2016-09-30 20:23:45	줍기	wjsdlf:[테르]	[268571650]오만의 탑 \aG[2층]\aA 이동 주문서(1)
2016-09-30 20:23:57	증발	wjsdlf:테르	[268569942]결정체(4)
2016-09-30 20:25:25	버리기	wjsdlf:[테르]	[268569932]신속 체력 회복제(1067)
2016-09-30 20:40:28	버리기	minwok2824:[관우]	[268572692]녹색 해츨링 알
2016-09-30 20:40:32	삭제	hoan27:[소유]	[268572688]드레이크의 영혼
2016-09-30 20:40:46	버리기	hoan27:[소유]	[268566620]녹색 해츨링 알
2016-09-30 20:41:26	삭제	hyun123:[솔]	[268569967]+5수련자의 티셔츠
2016-09-30 20:42:06	삭제	hyun123:[솔]	[268569968]+5수련자의 견고한 각반
2016-09-30 20:42:06	삭제	hyun123:[솔]	[268570024]수련자의 반지
2016-09-30 20:42:06	삭제	hyun123:[솔]	[268570030]수련자의 목걸이
2016-09-30 20:42:09	삭제	hyun123:[솔]	[268569958]+6수련자의 견고한 투구
2016-09-30 20:42:18	삭제	hyun123:[솔]	[268569966]수련자의 벨트
2016-09-30 20:42:18	삭제	hyun123:[솔]	[268569957]+9수련자의 도끼
2016-09-30 20:42:24	삭제	hyun123:[솔]	[268569953]마법인형 : 쫄법사(0)
2016-09-30 20:42:39	버리기	minwok2824:[관우]	[268572742]고급 다이아몬드(1)
2016-09-30 20:42:43	버리기	minwok2824:[관우]	[268570323]다이아몬드(1)
2016-09-30 20:42:55	버리기	minwok2824:[관우]	[268570309]다이아몬드(1)
2016-09-30 20:43:01	버리기	hyun123:[솔]	[268566616]기운을 잃은 오리하루콘 단검(1)
2016-09-30 20:46:05	삭제	xotqj11:[메티스]	[268572332]마법인형 : 허수아비
2016-09-30 20:46:09	삭제	xotqj11:[메티스]	[268572621]마법인형 : 스파토이
2016-09-30 20:46:15	삭제	xotqj11:[메티스]	[268572755]마법인형 : 스파토이
2016-09-30 20:46:18	삭제	xotqj11:[메티스]	[268572481]마법인형 : 스파토이
2016-09-30 20:46:22	삭제	xotqj11:[메티스]	[268572472]마법인형 : 스파토이
2016-09-30 20:46:25	삭제	xotqj11:[메티스]	[268572806]마법인형 : 허수아비
2016-09-30 20:58:40	버리기	hoan27:[소유]	[268573430]악마의 이도류
2016-09-30 21:06:20	버리기	hoan27:[소유]	[268573978]마법인형 : 허수아비
2016-09-30 21:07:00	삭제	hoan27:[소유]	[268573978]마법인형 : 허수아비
2016-09-30 21:08:05	삭제	wjsdlf:[테르]	[268569906]속도향상 물약(6)
2016-09-30 21:10:17	삭제	wjsdlf:[테르]	[268571430]스냅퍼의 용사 반지
2016-09-30 21:10:17	삭제	wjsdlf:[테르]	[268571432]스냅퍼의 용사 반지
2016-09-30 21:10:17	삭제	wjsdlf:[테르]	[268571434]스냅퍼의 용사 반지
2016-09-30 21:10:17	삭제	wjsdlf:[테르]	[268571436]스냅퍼의 용사 반지
2016-09-30 21:10:17	삭제	wjsdlf:[테르]	[268571446]스냅퍼의 용사 반지
2016-09-30 21:10:17	삭제	wjsdlf:[테르]	[268571444]스냅퍼의 용사 반지
2016-09-30 21:10:17	삭제	wjsdlf:[테르]	[268571442]스냅퍼의 용사 반지
2016-09-30 21:10:17	삭제	wjsdlf:[테르]	[268571438]스냅퍼의 용사 반지
2016-09-30 21:10:27	삭제	wjsdlf:[테르]	[268571448]스냅퍼의 용사 반지
2016-09-30 21:10:27	삭제	wjsdlf:[테르]	[268571428]스냅퍼의 용사 반지
2016-09-30 21:10:27	삭제	wjsdlf:[테르]	[268569995]수련자의 귀걸이
2016-09-30 21:10:27	삭제	wjsdlf:[테르]	[268571398]스냅퍼의 반지 강화 주문서(10)
2016-09-30 21:10:27	삭제	wjsdlf:[테르]	[268569982]수련자의 갑옷 마법 주문서(16)
2016-09-30 21:10:27	삭제	wjsdlf:[테르]	[268569981]수련자의 무기 마법 주문서(4)
2016-09-30 21:10:27	삭제	wjsdlf:[테르]	[268569993]수련자의 목걸이
2016-09-30 21:10:27	삭제	wjsdlf:[테르]	[268569999]소멸자의 체인소드
2016-09-30 21:10:27	삭제	wjsdlf:[테르]	[268569983]수련자의 반지
2016-09-30 21:10:27	삭제	wjsdlf:[테르]	[268569986]수련자의 반지
2016-09-30 21:10:40	삭제	wjsdlf:[테르]	[268569908]마법인형 : 쫄법사(0)
2016-09-30 21:10:40	삭제	wjsdlf:[테르]	[268569927]+6수련자의 견고한 투구
2016-09-30 21:10:40	삭제	wjsdlf:[테르]	[268569931]+6수련자의 견고한 부츠
2016-09-30 21:10:40	삭제	wjsdlf:[테르]	[268569930]+6수련자의 견고한 장갑
2016-09-30 21:10:40	삭제	wjsdlf:[테르]	[268569929]+6수련자의 견고한 망토
2016-09-30 21:10:40	삭제	wjsdlf:[테르]	[268569928]+6수련자의 견고한 갑옷
2016-09-30 21:10:40	삭제	wjsdlf:[테르]	[268569936]+5수련자의 티셔츠
2016-09-30 21:10:40	삭제	wjsdlf:[테르]	[268569937]+5수련자의 견고한 각반
2016-09-30 21:10:40	삭제	wjsdlf:[테르]	[268569926]+9수련자의 양손검
2016-09-30 21:10:40	삭제	wjsdlf:[테르]	[268569935]수련자의 벨트
2016-09-30 21:11:04	버리기	wjsdlf:[테르]	[268573824]마법인형 : 드레이크
2016-09-30 21:11:04	버리기	wjsdlf:[테르]	[268573861]마법인형 : 코카트리스
2016-09-30 21:11:04	버리기	wjsdlf:[테르]	[268573934]마법인형 : 코카트리스
2016-09-30 21:11:04	버리기	wjsdlf:[테르]	[268573907]마법인형 : 서큐버스
2016-09-30 21:11:04	버리기	wjsdlf:[테르]	[268573878]마법인형 : 장로
2016-09-30 21:11:04	버리기	wjsdlf:[테르]	[268573873]마법인형 : 서큐버스
2016-09-30 21:11:04	버리기	wjsdlf:[테르]	[268573988]마법인형 : 서큐버스
2016-09-30 21:11:04	버리기	wjsdlf:[테르]	[268574013]마법인형 : 장로
2016-09-30 21:12:15	버리기	wjsdlf:[테르]	[268572183]화령의 무기 강화 주문서(4)
2016-09-30 21:13:45	버리기	wjsdlf:[테르]	[268569924]픽시의깃털(50000000)
2016-09-30 21:13:47	줍기	dlwowls4455:[포세이든]	[268574302]픽시의깃털(50000000)
2016-09-30 21:16:35	삭제	dlwowls4455:[포세이든]	[268574412]나이트발드의 양손검
2016-09-30 21:17:04	삭제	dlwowls4455:[포세이든]	[268574423]\aH진명황의 집행검
2016-09-30 21:17:04	삭제	dlwowls4455:[포세이든]	[268574427]\aH진명황의 집행검
2016-09-30 21:17:04	삭제	dlwowls4455:[포세이든]	[268574426]\aH진명황의 집행검
2016-09-30 21:17:04	삭제	dlwowls4455:[포세이든]	[268574425]\aH진명황의 집행검
2016-09-30 21:17:04	삭제	dlwowls4455:[포세이든]	[268574424]\aH진명황의 집행검
2016-09-30 21:17:04	삭제	dlwowls4455:[포세이든]	[268574428]\aH진명황의 집행검
2016-09-30 21:17:04	삭제	dlwowls4455:[포세이든]	[268574429]\aH진명황의 집행검
2016-09-30 21:17:04	삭제	dlwowls4455:[포세이든]	[268574430]\aH진명황의 집행검
2016-09-30 21:17:04	삭제	dlwowls4455:[포세이든]	[268574431]\aH진명황의 집행검
2016-09-30 21:17:04	삭제	dlwowls4455:[포세이든]	[268574432]\aH진명황의 집행검
2016-09-30 21:17:08	삭제	dlwowls4455:[포세이든]	[268574411]오리하루콘 단검
2016-09-30 21:20:32	버리기	xotqj11:[메티스]	[268567986]아데나(555948423)
2016-09-30 21:23:11	줍기	wjsdlf:[테르]	[268574606]오만의 탑 \aG[10층]\aA 이동 주문서(1)
2016-09-30 21:23:31	삭제	dlwowls4455:[포세이든]	[268574614]기백의 반지
2016-09-30 21:24:06	줍기	wjsdlf:[테르]	[268574622]오만의 탑 \aG[10층]\aA 이동 주문서(1)
2016-09-30 21:24:19	줍기	wjsdlf:[테르]	[268574639]오만의 탑 \aG[10층]\aA 이동 주문서(1)
2016-09-30 21:26:11	삭제	dlwowls4455:[포세이든]	[268574185]단검
2016-09-30 21:26:11	삭제	dlwowls4455:[포세이든]	[268574209]+6수련자의 견고한 망토
2016-09-30 21:26:11	삭제	dlwowls4455:[포세이든]	[268574208]+6수련자의 견고한 갑옷
2016-09-30 21:26:11	삭제	dlwowls4455:[포세이든]	[268574207]+6수련자의 견고한 투구
2016-09-30 21:26:11	삭제	dlwowls4455:[포세이든]	[268574210]+6수련자의 견고한 장갑
2016-09-30 21:26:11	삭제	dlwowls4455:[포세이든]	[268574211]+6수련자의 견고한 부츠
2016-09-30 21:26:11	삭제	dlwowls4455:[포세이든]	[268574204]+9수련자의 한손검
2016-09-30 21:26:11	삭제	dlwowls4455:[포세이든]	[268574205]+9수련자의 단검
2016-09-30 21:26:11	삭제	dlwowls4455:[포세이든]	[268574206]+9수련자의 양손검
2016-09-30 21:26:16	삭제	dlwowls4455:[포세이든]	[268574216]+5수련자의 티셔츠
2016-09-30 21:26:16	삭제	dlwowls4455:[포세이든]	[268574217]+5수련자의 견고한 각반
2016-09-30 21:26:16	삭제	dlwowls4455:[포세이든]	[268574215]수련자의 벨트
2016-09-30 21:26:22	삭제	dlwowls4455:[포세이든]	[268574376]수련자의 귀걸이
2016-09-30 21:26:22	삭제	dlwowls4455:[포세이든]	[268574366]수련자의 반지
2016-09-30 21:26:22	삭제	dlwowls4455:[포세이든]	[268574369]수련자의 반지
2016-09-30 21:26:22	삭제	dlwowls4455:[포세이든]	[268574374]수련자의 목걸이
2016-09-30 21:26:37	삭제	dlwowls4455:[포세이든]	[268574382]용기의 벨트
2016-09-30 21:29:29	삭제	dlwowls4455:[포세이든]	[268574187]속도향상 물약(11)
2016-09-30 21:29:29	삭제	dlwowls4455:[포세이든]	[268574203]용기의 물약(8)
2016-09-30 21:29:29	삭제	dlwowls4455:[포세이든]	[268574212]신속 체력 회복제(100)
2016-09-30 21:30:44	줍기	hoan27:[소유]	[268572841]변신 조종 반지
2016-09-30 21:34:34	버리기	xotqj11:[메티스]	[268574994]마법인형 : 데스나이트
2016-09-30 21:34:35	버리기	xotqj11:[메티스]	[268574997]마법인형 : 데스나이트
2016-09-30 21:34:37	버리기	xotqj11:[메티스]	[268574998]마법인형 : 데스나이트
2016-09-30 21:34:38	버리기	xotqj11:[메티스]	[268574995]마법인형 : 데스나이트
2016-09-30 21:34:38	줍기	xotqj11:[메티스]	[268574998]마법인형 : 데스나이트
2016-09-30 21:34:40	버리기	xotqj11:[메티스]	[268574998]마법인형 : 데스나이트
2016-09-30 21:34:41	버리기	xotqj11:[메티스]	[268574996]마법인형 : 데스나이트
2016-09-30 21:34:54	버리기	xotqj11:[메티스]	[268575017]마법인형 : 데몬
2016-09-30 21:34:55	버리기	xotqj11:[메티스]	[268575018]마법인형 : 데몬
2016-09-30 21:34:56	버리기	xotqj11:[메티스]	[268575020]마법인형 : 데몬
2016-09-30 21:34:59	버리기	xotqj11:[메티스]	[268575019]마법인형 : 데몬
2016-09-30 21:35:01	버리기	xotqj11:[메티스]	[268575012]마법인형 : 데몬
2016-09-30 21:35:02	버리기	xotqj11:[메티스]	[268575016]마법인형 : 데몬
2016-09-30 21:35:17	버리기	xotqj11:[메티스]	[268575037]마법인형 : 타락
2016-09-30 21:35:19	버리기	xotqj11:[메티스]	[268575038]마법인형 : 타락
2016-09-30 21:35:20	버리기	wjsdlf:[테르]	[268575016]마법인형 : 데몬
2016-09-30 21:35:21	버리기	xotqj11:[메티스]	[268575039]마법인형 : 타락
2016-09-30 21:35:22	버리기	xotqj11:[메티스]	[268575040]마법인형 : 타락
2016-09-30 21:35:23	버리기	xotqj11:[메티스]	[268575032]마법인형 : 타락
2016-09-30 21:35:23	버리기	wjsdlf:[테르]	[268574996]마법인형 : 데스나이트
2016-09-30 21:35:24	버리기	xotqj11:[메티스]	[268575036]마법인형 : 타락
2016-09-30 21:36:04	버리기	xotqj11:[메티스]	[268575070]마법인형 : 데스나이트
2016-09-30 21:36:08	버리기	xotqj11:[메티스]	[268575073]마법인형 : 데스나이트
2016-09-30 21:37:11	삭제	kokoa1:[꼬미]	[268575090]마법인형 : 코카트리스
2016-09-30 21:37:12	삭제	kokoa1:[꼬미]	[268575033]마법인형 : 허수아비
2016-09-30 21:37:12	삭제	kokoa1:[꼬미]	[268572991]마법인형 : 허수아비
2016-09-30 21:37:12	삭제	kokoa1:[꼬미]	[268573502]마법인형 : 허수아비
2016-09-30 21:37:35	버리기	xotqj11:[메티스]	[268575076]마법인형 : 데스나이트
2016-09-30 21:37:39	버리기	xotqj11:[메티스]	[268575142]마법인형 : 데몬
2016-09-30 21:37:46	버리기	minwok2824:[관우]	[268574996]마법인형 : 데스나이트
2016-09-30 21:37:53	버리기	wjsdlf:[테르]	[268574997]마법인형 : 데스나이트
2016-09-30 21:37:54	줍기	kokoa1:[꼬미]	[268574997]마법인형 : 데스나이트
2016-09-30 21:37:57	버리기	wjsdlf:[테르]	[268575019]마법인형 : 데몬
2016-09-30 21:37:58	줍기	kokoa1:[꼬미]	[268575019]마법인형 : 데몬
2016-09-30 21:38:13	줍기	kokoa1:[꼬미]	[268574996]마법인형 : 데스나이트
2016-09-30 21:38:49	삭제	kokoa1:[꼬미]	[268569433]힘의 지팡이
2016-09-30 21:38:49	삭제	kokoa1:[꼬미]	[268569434]풍령의 장갑
2016-09-30 21:38:49	삭제	kokoa1:[꼬미]	[268569426]힘의 지팡이
2016-09-30 21:38:49	삭제	kokoa1:[꼬미]	[268569431]풍령의 장갑
2016-09-30 21:38:49	삭제	kokoa1:[꼬미]	[268569340]부서진 폭풍의 반지
2016-09-30 21:38:49	삭제	kokoa1:[꼬미]	[268569390]기운을 잃은 민첩의 반지(0)
2016-09-30 21:38:49	삭제	kokoa1:[꼬미]	[268569275]기운을 잃은 흑장로의 로브(0)
2016-09-30 21:38:49	삭제	kokoa1:[꼬미]	[268569293]흑장로의 로브
2016-09-30 21:38:49	삭제	kokoa1:[꼬미]	[268569234]기운을 잃은 지휘관의 투구(0)
2016-09-30 21:38:49	삭제	kokoa1:[꼬미]	[268569399]정령의 수정 (스트라이커 게일)(0)
2016-09-30 21:38:49	삭제	kokoa1:[꼬미]	[268566341]기운을 잃은 봉인된 오만의 탑 8층 이동 부적(0)
2016-09-30 21:39:22	삭제	kokoa1:[꼬미]	[268565623]수련자의 무기 마법 주문서(4)
2016-09-30 21:39:22	삭제	kokoa1:[꼬미]	[268565624]수련자의 갑옷 마법 주문서(16)
2016-09-30 21:39:22	삭제	kokoa1:[꼬미]	[268565573]클라우디아 마을 귀환 주문서(3)
2016-09-30 21:39:52	버리기	xotqj11:[메티스]	[268575371]환상의 오만의 탑 지배 부적(1)
2016-09-30 21:39:54	버리기	xotqj11:[메티스]	[268575371]환상의 오만의 탑 지배 부적(1)
2016-09-30 21:40:01	버리기	xotqj11:[메티스]	[268575371]환상의 오만의 탑 지배 부적(1)
2016-09-30 21:40:04	줍기	tydtyd2:[봄]	[268575390]환상의 오만의 탑 지배 부적(1)
2016-09-30 21:40:04	버리기	xotqj11:[메티스]	[268575371]환상의 오만의 탑 지배 부적(1)
2016-09-30 21:40:07	버리기	xotqj11:[메티스]	[268575371]환상의 오만의 탑 지배 부적(1)
2016-09-30 21:40:11	버리기	xotqj11:[메티스]	[268575371]환상의 오만의 탑 지배 부적(1)
2016-09-30 21:40:14	버리기	xotqj11:[메티스]	[268575371]환상의 오만의 탑 지배 부적(1)
2016-09-30 21:40:15	줍기	kokoa1:[꼬미]	[268575394]환상의 오만의 탑 지배 부적(1)
2016-09-30 21:40:18	버리기	xotqj11:[메티스]	[268575371]환상의 오만의 탑 지배 부적(1)
2016-09-30 21:40:24	버리기	xotqj11:[메티스]	[268575371]환상의 오만의 탑 지배 부적(1)
2016-09-30 21:40:27	버리기	xotqj11:[메티스]	[268575371]환상의 오만의 탑 지배 부적(1)
2016-09-30 21:40:35	줍기	tydtyd2:[봄]	[268575400]환상의 오만의 탑 지배 부적(1)
2016-09-30 21:41:29	증발	wjsdlf:테르	[268572743]갑옷 마법 주문서(4)
2016-09-30 21:41:29	증발	wjsdlf:테르	[268569934]순간이동 주문서(4)
2016-09-30 21:41:45	버리기	xotqj11:[메티스]	[268575427]정상의 가호
2016-09-30 21:41:47	줍기	kokoa1:[꼬미]	[268575427]정상의 가호
2016-09-30 21:42:02	줍기	tydtyd2:[봄]	[268575399]환상의 오만의 탑 지배 부적(1)
2016-09-30 21:42:04	줍기	tydtyd2:[봄]	[268575393]환상의 오만의 탑 지배 부적(1)
2016-09-30 21:42:06	줍기	tydtyd2:[봄]	[268575392]환상의 오만의 탑 지배 부적(1)
2016-09-30 21:45:04	줍기	kokoa1:[꼬미]	[268575481]변신 조종 반지
2016-09-30 21:45:15	삭제	minwok2824:[관우]	[268575040]마법인형 : 타락
2016-09-30 21:45:15	삭제	minwok2824:[관우]	[268575032]마법인형 : 타락
2016-09-30 21:45:15	삭제	minwok2824:[관우]	[268575037]마법인형 : 타락
2016-09-30 21:45:15	삭제	minwok2824:[관우]	[268575039]마법인형 : 타락
2016-09-30 21:45:15	삭제	minwok2824:[관우]	[268575038]마법인형 : 타락
2016-09-30 21:45:15	삭제	minwok2824:[관우]	[268574915]다이아몬드(6)
2016-09-30 21:45:15	삭제	minwok2824:[관우]	[268574916]고급 다이아몬드(4)
2016-09-30 21:45:45	삭제	kokoa1:[꼬미]	[268575470]고급 다이아몬드(2)
2016-09-30 21:45:45	삭제	kokoa1:[꼬미]	[268575482]다이아몬드(3)
2016-09-30 21:45:49	증발	minwok2824:관우	[268574259]마법인형 : 리치
2016-09-30 21:45:49	증발	minwok2824:관우	[268564977]갑옷 마법 주문서(4)
2016-09-30 21:45:49	증발	minwok2824:관우	[268564175]+9기백의 반지
2016-09-30 21:45:49	증발	minwok2824:관우	[268563750]용기의 물약(4)
2016-09-30 21:45:52	줍기	wjsdlf:[테르]	[268564175]+9기백의 반지
2016-09-30 21:45:53	줍기	wjsdlf:[테르]	[268574259]마법인형 : 리치
2016-09-30 21:46:38	삭제	dlwowls4455:[포세이든]	[268575556][렙70]민첩의 엘릭서 룬 [상자]
2016-09-30 21:48:19	버리기	hoan27:[소유]	[268569900]픽시의깃털(1000000)
2016-09-30 21:48:29	줍기	tydtyd2:[봄]	[268575676]픽시의깃털(1000000)
2016-09-30 21:48:54	삭제	tydtyd2:[봄]	[268575631]+1악몽의 장궁
2016-09-30 21:48:54	삭제	tydtyd2:[봄]	[268575632]+1악몽의 장궁
2016-09-30 21:48:54	삭제	tydtyd2:[봄]	[268575629]+1악몽의 장궁
2016-09-30 21:48:54	삭제	tydtyd2:[봄]	[268575630]+1악몽의 장궁
2016-09-30 21:48:54	삭제	tydtyd2:[봄]	[268575633]+1악몽의 장궁
2016-09-30 21:48:54	삭제	tydtyd2:[봄]	[268575634]+1악몽의 장궁
2016-09-30 21:48:54	삭제	tydtyd2:[봄]	[268575635]+1악몽의 장궁
2016-09-30 21:48:54	삭제	tydtyd2:[봄]	[268575636]+1악몽의 장궁
2016-09-30 21:48:54	삭제	tydtyd2:[봄]	[268575640]+1악몽의 장궁
2016-09-30 21:48:54	삭제	tydtyd2:[봄]	[268575639]+1악몽의 장궁
2016-09-30 21:48:54	삭제	tydtyd2:[봄]	[268575638]+1악몽의 장궁
2016-09-30 21:48:54	삭제	tydtyd2:[봄]	[268575637]+1악몽의 장궁
2016-09-30 21:48:54	삭제	tydtyd2:[봄]	[268575641]+1악몽의 장궁
2016-09-30 21:48:54	삭제	tydtyd2:[봄]	[268575642]+1악몽의 장궁
2016-09-30 21:48:54	삭제	tydtyd2:[봄]	[268575643]+1악몽의 장궁
2016-09-30 21:48:55	삭제	tydtyd2:[봄]	[268575644]+1악몽의 장궁
2016-09-30 21:48:55	삭제	tydtyd2:[봄]	[268575648]+1악몽의 장궁
2016-09-30 21:48:55	삭제	tydtyd2:[봄]	[268575647]+1악몽의 장궁
2016-09-30 21:48:55	삭제	tydtyd2:[봄]	[268575646]+1악몽의 장궁
2016-09-30 21:48:55	삭제	tydtyd2:[봄]	[268575645]+1악몽의 장궁
2016-09-30 21:49:04	삭제	kokoa1:[꼬요정]	[268575696]수련자의 귀걸이
2016-09-30 21:49:04	삭제	kokoa1:[꼬요정]	[268575697]정령의 수정 (바디 투 마인드)(0)
2016-09-30 21:49:04	삭제	kokoa1:[꼬요정]	[268575698]정령의 수정 (텔레포트 투 마더)(0)
2016-09-30 21:49:04	삭제	kokoa1:[꼬요정]	[268575694]화염의 검
2016-09-30 21:49:04	삭제	kokoa1:[꼬요정]	[268575695]화염의 활
2016-09-30 21:49:25	삭제	tydtyd2:[봄]	[268575619]+1악몽의 장궁
2016-09-30 21:49:25	삭제	tydtyd2:[봄]	[268575617]+1악몽의 장궁
2016-09-30 21:49:25	삭제	tydtyd2:[봄]	[268575618]+1악몽의 장궁
2016-09-30 21:49:25	삭제	tydtyd2:[봄]	[268575620]+1악몽의 장궁
2016-09-30 21:49:25	삭제	tydtyd2:[봄]	[268575623]+1악몽의 장궁
2016-09-30 21:49:25	삭제	tydtyd2:[봄]	[268575622]+1악몽의 장궁
2016-09-30 21:49:25	삭제	tydtyd2:[봄]	[268575621]+1악몽의 장궁
2016-09-30 21:49:25	삭제	tydtyd2:[봄]	[268575625]+1악몽의 장궁
2016-09-30 21:49:25	삭제	tydtyd2:[봄]	[268575626]+1악몽의 장궁
2016-09-30 21:49:25	삭제	tydtyd2:[봄]	[268575627]+1악몽의 장궁
2016-09-30 21:49:25	삭제	tydtyd2:[봄]	[268575628]+1악몽의 장궁
2016-09-30 21:49:25	삭제	tydtyd2:[봄]	[268575624]+1악몽의 장궁
2016-09-30 21:49:25	삭제	tydtyd2:[봄]	[268575651]+1악몽의 장궁
2016-09-30 21:49:25	삭제	tydtyd2:[봄]	[268575650]+1악몽의 장궁
2016-09-30 21:49:25	삭제	tydtyd2:[봄]	[268575649]+1악몽의 장궁
2016-09-30 21:49:33	증발	wjsdlf:테르	[268570348]+10격분의 장갑
2016-09-30 21:51:59	삭제	kokoa1:[꼬요정]	[268575819]+5수련자의 티셔츠
2016-09-30 21:51:59	삭제	kokoa1:[꼬요정]	[268575820]+5수련자의 견고한 각반
2016-09-30 21:51:59	삭제	kokoa1:[꼬요정]	[268575810]+6수련자의 신성한 투구
2016-09-30 21:52:00	삭제	kokoa1:[꼬요정]	[268575814]+6수련자의 신성한 부츠
2016-09-30 21:52:00	삭제	kokoa1:[꼬요정]	[268575811]+6수련자의 신성한 로브
2016-09-30 21:52:00	삭제	kokoa1:[꼬요정]	[268575812]+6수련자의 신성한 망토
2016-09-30 21:52:00	삭제	kokoa1:[꼬요정]	[268575813]+6수련자의 신성한 장갑
2016-09-30 21:52:00	삭제	kokoa1:[꼬요정]	[268575808]블랙 미스릴 화살(2000)
2016-09-30 21:52:00	삭제	kokoa1:[꼬요정]	[268575809]+9수련자의 석궁
2016-09-30 21:52:11	삭제	kokoa1:[꼬요정]	[268575815]신속 체력 회복제(100)
2016-09-30 21:52:25	삭제	kokoa1:[꼬요정]	[268575659]속도향상 물약(13)
2016-09-30 21:53:57	삭제	kokoa1:[꼬요정]	[268575920]정령의 수정 (텔레포트 투 마더)(0)
2016-09-30 21:54:32	증발	minwok2824:관우	[268572497]여관 열쇠
2016-09-30 21:54:48	줍기	dlwowls4455:[포세이든]	[268575949]변신 조종 반지
2016-09-30 21:54:58	줍기	dlwowls4455:[포세이든]	[268575832]변신 조종 반지
2016-09-30 21:55:31	증발	minwok2824:관우	[268572817]마나 회복 물약(2)
2016-09-30 21:55:31	증발	minwok2824:관우	[268563748]마법인형 : 쫄법사(2)
2016-09-30 21:56:51	삭제	kokoa1:[꼬요정]	[268575657]단검
2016-09-30 21:56:51	삭제	kokoa1:[꼬요정]	[268575677]수련자의 무기 마법 주문서(4)
2016-09-30 21:56:51	삭제	kokoa1:[꼬요정]	[268575678]수련자의 갑옷 마법 주문서(16)
2016-09-30 21:56:51	삭제	kokoa1:[꼬요정]	[268575684]수련자의 목걸이
2016-09-30 21:56:51	삭제	kokoa1:[꼬요정]	[268575679]수련자의 반지
2016-09-30 21:56:51	삭제	kokoa1:[꼬요정]	[268575687]수련자의 반지
2016-09-30 21:56:55	버리기	wjsdlf:[테르]	[268563748]마법인형 : 쫄법사(1)
2016-09-30 21:56:55	삭제	kokoa1:[꼬요정]	[268575818]수련자의 벨트
2016-09-30 21:56:57	버리기	wjsdlf:[테르]	[268572817]마나 회복 물약(23)
2016-09-30 21:57:21	삭제	kokoa1:[꼬요정]	[268576040]엘릭서 [INT](0)
2016-09-30 21:57:52	줍기	tydtyd2:[봄]	[268563748]마법인형 : 쫄법사(1)
2016-09-30 22:01:54	줍기	dlwowls4455:[포세이든]	[268576259]고대의 갑옷 주술 두루마리(2)
2016-09-30 22:04:06	줍기	dlwowls4455:[포세이든]	[268576479]마나 회복 물약(1)
2016-09-30 22:04:28	줍기	dlwowls4455:[포세이든]	[268576546]고대의 갑옷 주술 두루마리(1)
2016-09-30 22:05:32	버리기	wjsdlf:[테르]	[268568264]고대의 무기 연금 두루마리(9)
2016-09-30 22:06:51	줍기	hoan27:[소유]	[268576773]고대의 갑옷 주술 두루마리(2)
2016-09-30 22:07:22	줍기	dlwowls4455:[포세이든]	[268576580]고대의 갑옷 주술 두루마리(1)
2016-09-30 22:07:48	삭제	kokoa1:[꼬요정]	[268576910]오림의 장신구 마법 주문서(3)
2016-09-30 22:07:48	삭제	kokoa1:[꼬요정]	[268576908]축복받은 오림의 장신구 마법 주문서(0)
2016-09-30 22:07:48	줍기	dlwowls4455:[포세이든]	[268576384]고대의 갑옷 주술 두루마리(1)
2016-09-30 22:07:57	줍기	dlwowls4455:[포세이든]	[268576395]고대의 갑옷 주술 두루마리(1)
2016-09-30 22:08:13	삭제	tydtyd2:[봄]	[268577011]+6수련자의 신성한 투구
2016-09-30 22:08:13	삭제	tydtyd2:[봄]	[268577012]+6수련자의 신성한 로브
2016-09-30 22:08:13	삭제	tydtyd2:[봄]	[268577013]+6수련자의 신성한 망토
2016-09-30 22:08:13	삭제	tydtyd2:[봄]	[268577014]+6수련자의 신성한 장갑
2016-09-30 22:08:13	삭제	tydtyd2:[봄]	[268577015]+6수련자의 신성한 부츠
2016-09-30 22:08:13	삭제	tydtyd2:[봄]	[268577010]+9수련자의 석궁
2016-09-30 22:08:19	삭제	kokoa1:[꼬요정]	[268577121]PC방 아인하사드 EXP+40%(7일)(0)
2016-09-30 22:08:20	삭제	tydtyd2:[봄]	[268577021]+5수련자의 견고한 각반
2016-09-30 22:09:41	삭제	kokoa1:[꼬요정]	[268577202]마법서 (홀리 워크)(0)
2016-09-30 22:09:48	삭제	wjsdlf:[테르]	[268568265]빈 주문서 (레벨 1)(7)
2016-09-30 22:09:48	삭제	wjsdlf:[테르]	[268577130]키메라의 가죽 (산양)(0)
2016-09-30 22:09:48	삭제	wjsdlf:[테르]	[268577131]키메라의 가죽 (사자)(0)
2016-09-30 22:09:48	삭제	wjsdlf:[테르]	[268577132]키메라의 가죽 (뱀)(0)
2016-09-30 22:09:48	삭제	wjsdlf:[테르]	[268577129]키메라의 가죽 (용)(0)
2016-09-30 22:09:48	삭제	wjsdlf:[테르]	[268576503]고대의 무기 연금 두루마리(4)
2016-09-30 22:09:48	삭제	wjsdlf:[테르]	[268576283]빈 주문서 (레벨 4)(5)
2016-09-30 22:09:48	삭제	wjsdlf:[테르]	[268568266]빈 주문서 (레벨 2)(13)
2016-09-30 22:09:48	삭제	wjsdlf:[테르]	[268568268]빈 주문서 (레벨 5)(12)
2016-09-30 22:10:10	버리기	xotqj11:[메티스]	[268577277]룸티스의푸른빛귀걸이
2016-09-30 22:10:11	줍기	wjsdlf:[테르]	[268577277]룸티스의푸른빛귀걸이
2016-09-30 22:10:11	버리기	xotqj11:[메티스]	[268577278]룸티스의푸른빛귀걸이
2016-09-30 22:10:13	줍기	kokoa1:[꼬요정]	[268577278]룸티스의푸른빛귀걸이
2016-09-30 22:10:13	버리기	xotqj11:[메티스]	[268577279]룸티스의푸른빛귀걸이
2016-09-30 22:10:15	줍기	wjsdlf:[테르]	[268577279]룸티스의푸른빛귀걸이
2016-09-30 22:10:15	버리기	xotqj11:[메티스]	[268577280]룸티스의푸른빛귀걸이
2016-09-30 22:10:15	줍기	kokoa1:[꼬요정]	[268577280]룸티스의푸른빛귀걸이
2016-09-30 22:10:16	버리기	xotqj11:[메티스]	[268577273]룸티스의푸른빛귀걸이
2016-09-30 22:10:17	버리기	xotqj11:[메티스]	[268577274]룸티스의푸른빛귀걸이
2016-09-30 22:10:18	줍기	hoan27:[소유]	[268577274]룸티스의푸른빛귀걸이
2016-09-30 22:10:18	줍기	minwok2824:[관우]	[268577273]룸티스의푸른빛귀걸이
2016-09-30 22:10:18	버리기	xotqj11:[메티스]	[268577275]룸티스의푸른빛귀걸이
2016-09-30 22:10:19	줍기	minwok2824:[관우]	[268577275]룸티스의푸른빛귀걸이
2016-09-30 22:10:20	버리기	xotqj11:[메티스]	[268577276]룸티스의푸른빛귀걸이
2016-09-30 22:10:22	줍기	tydtyd2:[봄]	[268577276]룸티스의푸른빛귀걸이
2016-09-30 22:10:22	버리기	xotqj11:[메티스]	[268577269]룸티스의푸른빛귀걸이
2016-09-30 22:10:24	버리기	xotqj11:[메티스]	[268577270]룸티스의푸른빛귀걸이
2016-09-30 22:10:24	줍기	hoan27:[소유]	[268577269]룸티스의푸른빛귀걸이
2016-09-30 22:10:25	줍기	tydtyd2:[봄]	[268577270]룸티스의푸른빛귀걸이
2016-09-30 22:10:25	버리기	xotqj11:[메티스]	[268577271]룸티스의푸른빛귀걸이
2016-09-30 22:10:27	버리기	xotqj11:[메티스]	[268577272]룸티스의푸른빛귀걸이
2016-09-30 22:10:28	버리기	xotqj11:[메티스]	[268577265]룸티스의푸른빛귀걸이
2016-09-30 22:10:30	버리기	xotqj11:[메티스]	[268577266]룸티스의푸른빛귀걸이
2016-09-30 22:10:31	줍기	tydtyd2:[봄]	[268577272]룸티스의푸른빛귀걸이
2016-09-30 22:10:31	줍기	tydtyd2:[봄]	[268577271]룸티스의푸른빛귀걸이
2016-09-30 22:10:33	줍기	dlwowls4455:[포세이든]	[268577266]룸티스의푸른빛귀걸이
2016-09-30 22:10:33	줍기	tydtyd2:[봄]	[268577265]룸티스의푸른빛귀걸이
2016-09-30 22:10:38	버리기	xotqj11:[메티스]	[268577261]룸티스의푸른빛귀걸이
2016-09-30 22:10:39	버리기	xotqj11:[메티스]	[268577262]룸티스의푸른빛귀걸이
2016-09-30 22:10:39	줍기	wjsdlf:[테르]	[268577261]룸티스의푸른빛귀걸이
2016-09-30 22:10:40	줍기	wjsdlf:[테르]	[268577262]룸티스의푸른빛귀걸이
2016-09-30 22:10:41	버리기	xotqj11:[메티스]	[268577263]룸티스의푸른빛귀걸이
2016-09-30 22:10:41	줍기	wjsdlf:[테르]	[268577263]룸티스의푸른빛귀걸이
2016-09-30 22:10:42	버리기	xotqj11:[메티스]	[268577264]룸티스의푸른빛귀걸이
2016-09-30 22:10:42	줍기	wjsdlf:[테르]	[268577264]룸티스의푸른빛귀걸이
2016-09-30 22:10:43	버리기	xotqj11:[메티스]	[268577267]룸티스의푸른빛귀걸이
2016-09-30 22:10:43	줍기	wjsdlf:[테르]	[268577267]룸티스의푸른빛귀걸이
2016-09-30 22:10:44	버리기	xotqj11:[메티스]	[268577268]룸티스의푸른빛귀걸이
2016-09-30 22:10:45	줍기	wjsdlf:[테르]	[268577268]룸티스의푸른빛귀걸이
2016-09-30 22:11:33	삭제	wjsdlf:[테르]	[268577264]룸티스의푸른빛귀걸이
2016-09-30 22:11:33	삭제	wjsdlf:[테르]	[268577267]룸티스의푸른빛귀걸이
2016-09-30 22:11:33	삭제	wjsdlf:[테르]	[268577268]룸티스의푸른빛귀걸이
2016-09-30 22:11:33	삭제	wjsdlf:[테르]	[268577263]룸티스의푸른빛귀걸이
2016-09-30 22:11:33	삭제	wjsdlf:[테르]	[268577262]룸티스의푸른빛귀걸이
2016-09-30 22:11:33	삭제	wjsdlf:[테르]	[268577261]룸티스의푸른빛귀걸이
2016-09-30 22:11:39	버리기	minwok2824:[관우]	[268575076]마법인형 : 데스나이트
2016-09-30 22:11:40	줍기	kokoa1:[꼬요정]	[268575076]마법인형 : 데스나이트
2016-09-30 22:11:47	버리기	minwok2824:[관우]	[268573481]마법인형 : 허수아비
2016-09-30 22:14:30	삭제	kokoa1:[꼬요정]	[268577391]수령의 무기 강화 주문서(18)
2016-09-30 22:16:24	증발	wjsdlf:테르	[268570885]변신 막대
2016-09-30 22:18:24	삭제	kswon1029:[기사]	[268577558]+5수련자의 견고한 각반
2016-09-30 22:18:24	삭제	kswon1029:[기사]	[268577557]+5수련자의 티셔츠
2016-09-30 22:18:24	삭제	kswon1029:[기사]	[268577552]+6수련자의 견고한 부츠
2016-09-30 22:18:24	삭제	kswon1029:[기사]	[268577551]+6수련자의 견고한 장갑
2016-09-30 22:18:24	삭제	kswon1029:[기사]	[268577548]+6수련자의 견고한 투구
2016-09-30 22:18:24	삭제	kswon1029:[기사]	[268577538]단검
2016-09-30 22:18:24	삭제	kswon1029:[기사]	[268577550]+6수련자의 견고한 망토
2016-09-30 22:18:24	삭제	kswon1029:[기사]	[268577549]+6수련자의 견고한 갑옷
2016-09-30 22:18:24	삭제	kswon1029:[기사]	[268577556]수련자의 벨트
2016-09-30 22:18:24	삭제	kswon1029:[기사]	[268577547]+9수련자의 양손검
2016-09-30 22:18:24	삭제	kswon1029:[기사]	[268577545]+9수련자의 한손검
2016-09-30 22:18:24	삭제	kswon1029:[기사]	[268577546]+9수련자의 단검
2016-09-30 22:18:51	줍기	tydtyd2:[봄]	[268577461]데몬의 투구
2016-09-30 22:20:51	증발	wjsdlf:테르	[268569940]클라우디아 마을 귀환 주문서(3)
2016-09-30 22:20:51	증발	wjsdlf:테르	[268571522]+10마법 방어 각반
2016-09-30 22:22:34	증발	dlwowls4455:포세이든	[268576259]고대의 갑옷 주술 두루마리(2)
2016-09-30 22:22:34	증발	dlwowls4455:포세이든	[268576250]고대의 가호
2016-09-30 22:26:33	버리기	xotqj11:[메티스]	[268577741]+50악몽의 장궁
2016-09-30 22:26:58	버리기	xotqj11:[메티스]	[268577743]+50악몽의 장궁
2016-09-30 22:27:06	증발	dlwowls4455:포세이든	[268575079]오만의 탑 \aG[1층]\aA 이동 주문서(4)
2016-09-30 22:27:06	증발	dlwowls4455:포세이든	[268574989]할파스의 집념(4)
2016-09-30 22:30:30	증발	dlwowls4455:포세이든	[268574220]클라우디아 마을 귀환 주문서(4)
2016-09-30 22:30:30	증발	dlwowls4455:포세이든	[268574515]+10신성한 마법 방어 투구
2016-09-30 22:30:30	증발	dlwowls4455:포세이든	[268574518]+10돌 장갑
2016-09-30 22:30:30	증발	dlwowls4455:포세이든	[268574735]변신 주문서(4)
2016-09-30 22:35:14	버리기	wjsdlf:[테르]	[268574994]마법인형 : 데스나이트
2016-09-30 22:38:20	버리기	wjsdlf:[테르]	[268570062]변신 주문서(3)
2016-09-30 22:38:34	증발	dlwowls4455:포세이든	[268575080]오만의 탑 \aG[2층]\aA 이동 주문서(2)
2016-09-30 22:38:34	증발	dlwowls4455:포세이든	[268576699]빈 주문서 (레벨 2)(2)
2016-09-30 22:42:37	버리기	xotqj11:[메티스]	[268578042]+50달의 장궁
2016-09-30 22:42:52	삭제	xotqj11:[메티스]	[268578107]달의 장궁
2016-09-30 22:42:52	삭제	xotqj11:[메티스]	[268578106]달의 장궁
2016-09-30 22:42:52	삭제	xotqj11:[메티스]	[268578102]달의 장궁
2016-09-30 22:42:52	삭제	xotqj11:[메티스]	[268578103]달의 장궁
2016-09-30 22:42:52	삭제	xotqj11:[메티스]	[268578104]달의 장궁
2016-09-30 22:42:52	삭제	xotqj11:[메티스]	[268578105]달의 장궁
2016-09-30 22:42:52	삭제	xotqj11:[메티스]	[268578101]달의 장궁
2016-09-30 22:42:52	삭제	xotqj11:[메티스]	[268578100]달의 장궁
2016-09-30 22:42:52	삭제	xotqj11:[메티스]	[268578099]달의 장궁
2016-09-30 22:42:53	삭제	xotqj11:[메티스]	[268578098]달의 장궁
2016-09-30 22:42:53	삭제	xotqj11:[메티스]	[268578094]달의 장궁
2016-09-30 22:42:53	삭제	xotqj11:[메티스]	[268578095]달의 장궁
2016-09-30 22:42:53	삭제	xotqj11:[메티스]	[268578096]달의 장궁
2016-09-30 22:42:53	삭제	xotqj11:[메티스]	[268578097]달의 장궁
2016-09-30 22:42:53	삭제	xotqj11:[메티스]	[268578093]달의 장궁
2016-09-30 22:42:53	삭제	xotqj11:[메티스]	[268578092]달의 장궁
2016-09-30 22:42:53	삭제	xotqj11:[메티스]	[268578091]달의 장궁
2016-09-30 22:42:53	삭제	xotqj11:[메티스]	[268578090]달의 장궁
2016-09-30 22:43:02	버리기	xotqj11:[메티스]	[268578139]+60달의 장궁
2016-09-30 22:43:16	삭제	xotqj11:[메티스]	[268578086]달의 장궁
2016-09-30 22:43:16	삭제	xotqj11:[메티스]	[268578087]달의 장궁
2016-09-30 22:43:16	삭제	xotqj11:[메티스]	[268578088]달의 장궁
2016-09-30 22:43:16	삭제	xotqj11:[메티스]	[268578089]달의 장궁
2016-09-30 22:43:16	삭제	xotqj11:[메티스]	[268578085]달의 장궁
2016-09-30 22:43:16	삭제	xotqj11:[메티스]	[268578084]달의 장궁
2016-09-30 22:43:16	삭제	xotqj11:[메티스]	[268578083]달의 장궁
2016-09-30 22:43:16	삭제	xotqj11:[메티스]	[268578082]달의 장궁
2016-09-30 22:43:16	삭제	xotqj11:[메티스]	[268578078]달의 장궁
2016-09-30 22:43:16	삭제	xotqj11:[메티스]	[268578079]달의 장궁
2016-09-30 22:43:16	삭제	xotqj11:[메티스]	[268578080]달의 장궁
2016-09-30 22:43:16	삭제	xotqj11:[메티스]	[268578081]달의 장궁
2016-09-30 22:43:16	삭제	xotqj11:[메티스]	[268578077]달의 장궁
2016-09-30 22:43:17	삭제	xotqj11:[메티스]	[268578076]달의 장궁
2016-09-30 22:43:17	삭제	xotqj11:[메티스]	[268578070]달의 장궁
2016-09-30 22:43:17	삭제	xotqj11:[메티스]	[268578071]달의 장궁
2016-09-30 22:43:17	삭제	xotqj11:[메티스]	[268578075]달의 장궁
2016-09-30 22:43:17	삭제	xotqj11:[메티스]	[268578074]달의 장궁
2016-09-30 22:43:17	삭제	xotqj11:[메티스]	[268578072]달의 장궁
2016-09-30 22:43:17	삭제	xotqj11:[메티스]	[268578073]달의 장궁
2016-09-30 22:43:17	삭제	xotqj11:[메티스]	[268578069]달의 장궁
2016-09-30 22:43:17	삭제	xotqj11:[메티스]	[268578068]달의 장궁
2016-09-30 22:43:17	삭제	xotqj11:[메티스]	[268578067]달의 장궁
2016-09-30 22:43:17	삭제	xotqj11:[메티스]	[268578066]달의 장궁
2016-09-30 22:43:17	삭제	xotqj11:[메티스]	[268578062]달의 장궁
2016-09-30 22:43:17	삭제	xotqj11:[메티스]	[268578063]달의 장궁
2016-09-30 22:43:17	삭제	xotqj11:[메티스]	[268578064]달의 장궁
2016-09-30 22:43:17	삭제	xotqj11:[메티스]	[268578065]달의 장궁
2016-09-30 22:43:17	삭제	xotqj11:[메티스]	[268578061]달의 장궁
2016-09-30 22:43:17	삭제	xotqj11:[메티스]	[268578060]달의 장궁
2016-09-30 22:43:17	삭제	xotqj11:[메티스]	[268578059]달의 장궁
2016-09-30 22:43:17	삭제	xotqj11:[메티스]	[268578058]달의 장궁
2016-09-30 22:43:17	삭제	xotqj11:[메티스]	[268578054]달의 장궁
2016-09-30 22:43:17	삭제	xotqj11:[메티스]	[268578055]달의 장궁
2016-09-30 22:43:17	삭제	xotqj11:[메티스]	[268578056]달의 장궁
2016-09-30 22:43:17	삭제	xotqj11:[메티스]	[268578057]달의 장궁
2016-09-30 22:43:17	삭제	xotqj11:[메티스]	[268578053]달의 장궁
2016-09-30 22:43:17	삭제	xotqj11:[메티스]	[268578052]달의 장궁
2016-09-30 22:43:17	삭제	xotqj11:[메티스]	[268578051]달의 장궁
2016-09-30 22:43:17	삭제	xotqj11:[메티스]	[268578048]달의 장궁
2016-09-30 22:43:17	삭제	xotqj11:[메티스]	[268578049]달의 장궁
2016-09-30 22:43:17	삭제	xotqj11:[메티스]	[268578050]달의 장궁
2016-09-30 22:44:47	버리기	xotqj11:[메티스]	[268575067]마법인형 : 데몬
2016-09-30 22:44:49	버리기	xotqj11:[메티스]	[268572832]마법인형 : 리치
2016-09-30 22:48:22	삭제	hoan27:[소유]	[268570880]+9룸티스의 검은빛 귀걸이
2016-09-30 22:48:27	삭제	hoan27:[소유]	[268570870]+9룸티스의 검은빛 귀걸이
2016-09-30 22:49:19	삭제	hoan27:[소유]	[268573387]훈련소 열쇠
2016-09-30 22:49:24	삭제	hoan27:[소유]	[268573388]훈련소 열쇠
2016-09-30 22:49:27	삭제	hoan27:[소유]	[268573385]훈련소 열쇠
2016-09-30 22:49:31	삭제	hoan27:[소유]	[268573386]훈련소 열쇠
2016-09-30 22:49:37	삭제	hoan27:[소유]	[268573768]마법인형 : 허수아비
2016-09-30 22:49:41	삭제	hoan27:[소유]	[268573201]마법인형 : 허수아비
2016-09-30 22:54:00	증발	dlwowls4455:포세이든	[268576886]수련의 닭고기 스프(3)
2016-09-30 22:54:00	증발	dlwowls4455:포세이든	[268574517]+10거대 여왕 개미의 금빛 날개
2016-09-30 23:00:19	줍기	dlwowls4455:[포세이든]	[268610247]파멸자의 체인소드
2016-09-30 23:00:21	줍기	dlwowls4455:[포세이든]	[268610243]기운을 잃은 파괴의 장궁(1)
2016-09-30 23:00:54	줍기	dlwowls4455:[포세이든]	[268610270]기운을 잃은 파괴의 장궁(1)
2016-09-30 23:04:00	삭제	dlwowls4455:[담덕]	[268574948]단검
2016-09-30 23:04:05	삭제	dlwowls4455:[담덕]	[268574953]아크프리패스 상자(0)
2016-09-30 23:06:36	삭제	dlwowls4455:[도끼]	[268610533]속도향상 물약(13)
2016-09-30 23:06:36	삭제	dlwowls4455:[도끼]	[268610541]용기의 물약(10)
2016-09-30 23:06:36	삭제	dlwowls4455:[도끼]	[268610530]단검
2016-09-30 23:06:36	삭제	dlwowls4455:[도끼]	[268610547]+6수련자의 견고한 망토
2016-09-30 23:06:36	삭제	dlwowls4455:[도끼]	[268610546]+6수련자의 견고한 갑옷
2016-09-30 23:06:36	삭제	dlwowls4455:[도끼]	[268610545]+6수련자의 견고한 투구
2016-09-30 23:06:36	삭제	dlwowls4455:[도끼]	[268610548]+6수련자의 견고한 장갑
2016-09-30 23:06:36	삭제	dlwowls4455:[도끼]	[268610549]+6수련자의 견고한 부츠
2016-09-30 23:06:36	삭제	dlwowls4455:[도끼]	[268610554]신속 체력 회복제(100)
2016-09-30 23:06:36	삭제	dlwowls4455:[도끼]	[268610556]순간이동 주문서(100)
2016-09-30 23:06:36	삭제	dlwowls4455:[도끼]	[268610559]+5수련자의 견고한 각반
2016-09-30 23:06:36	삭제	dlwowls4455:[도끼]	[268610558]+5수련자의 티셔츠
2016-09-30 23:06:36	삭제	dlwowls4455:[도끼]	[268610562]클라우디아 마을 귀환 주문서(3)
2016-09-30 23:06:36	삭제	dlwowls4455:[도끼]	[268610542]+9수련자의 한손검
2016-09-30 23:06:36	삭제	dlwowls4455:[도끼]	[268610543]+9수련자의 단검
2016-09-30 23:06:36	삭제	dlwowls4455:[도끼]	[268610544]+9수련자의 양손검
2016-09-30 23:06:36	삭제	dlwowls4455:[도끼]	[268610557]수련자의 벨트
2016-09-30 23:12:23	삭제	dlwowls4455:[도끼]	[268610535]마법인형 : 쫄법사(0)
2016-09-30 23:14:44	버리기	hoan27:[소유]	[268610996]싸울아비 장검
2016-09-30 23:14:46	버리기	hoan27:[소유]	[268611000]녹색 해츨링 알
2016-09-30 23:15:00	삭제	dlwowls4455:[도끼]	[268610988]수련자의 귀걸이
2016-09-30 23:15:00	삭제	dlwowls4455:[도끼]	[268610972]용기의 벨트
2016-09-30 23:15:00	삭제	dlwowls4455:[도끼]	[268610978]수련자의 반지
2016-09-30 23:15:00	삭제	dlwowls4455:[도끼]	[268610971]데스 블레이드
2016-09-30 23:15:00	삭제	dlwowls4455:[도끼]	[268610981]수련자의 반지
2016-09-30 23:15:00	삭제	dlwowls4455:[도끼]	[268610986]수련자의 목걸이
2016-09-30 23:19:58	버리기	hoan27:[소유]	[268611060]마법서 (매스 텔레포트)(1)
2016-09-30 23:23:49	버리기	wjsdlf:[테르]	[268611065]기술서 (카운터 배리어)(1)
2016-09-30 23:23:55	버리기	wjsdlf:[테르]	[268611065]기술서 (카운터 배리어)(1)
2016-09-30 23:23:57	버리기	wjsdlf:[테르]	[268610998]전사의 인장(타이탄 매직)
2016-09-30 23:29:05	삭제	hoan27:[소유]	[268578374]+9룸티스의 검은빛 귀걸이
2016-09-30 23:33:22	버리기	wjsdlf:[테르]	[268569924]픽시의깃털(1115790720)
2016-09-30 23:33:26	줍기	wjsdlf:[테르]	[268569924]픽시의깃털(1115790720)
2016-09-30 23:37:50	줍기	hoan27:[소유]	[268611969]기운을 잃은 론드의 이도류(1)
2016-09-30 23:38:16	줍기	hoan27:[소유]	[268611862]마법의 투구: 힘
2016-09-30 23:38:17	줍기	hoan27:[소유]	[268611865]순간이동 주문서(1)
2016-09-30 23:38:18	줍기	hoan27:[소유]	[268611866]영혼석(데스나이트)
2016-09-30 23:39:04	버리기	wjsdlf:[테르]	[268569924]픽시의깃털(10000000)
2016-09-30 23:39:06	줍기	wjsdlf1:[군주]	[268612172]픽시의깃털(10000000)
2016-09-30 23:41:54	버리기	hoan27:[소유]	[268612261]마법서 (리절렉션)(1)
2016-09-30 23:42:36	증발	kokoa1:꼬요정	[268611268]픽시의깃털(3)
2016-09-30 23:42:36	증발	kokoa1:꼬요정	[268577639]블랙 미스릴 원석(3)
2016-09-30 23:42:49	버리기	hoan27:[소유]	[268577639]블랙 미스릴 원석(3)
2016-09-30 23:45:20	버리기	hoan27:[소유]	[268612253]기운을 잃은 데스나이트의 갑옷(1)
2016-09-30 23:45:23	버리기	hoan27:[소유]	[268612255]기운을 잃은 데스나이트의 불검(1)
2016-09-30 23:45:27	삭제	hoan27:[소유]	[268612257]기운을 잃은 데스나이트의 투구(0)
2016-09-30 23:45:31	삭제	hoan27:[소유]	[268612251]데스나이트의 갑옷
2016-09-30 23:46:34	삭제	kokoa1:[꼬요정]	[268612327]던전 초기화 : 기감/본던(0)
2016-09-30 23:50:28	삭제	wjsdlf:[테르]	[268612407]생명의 나뭇잎(6)
2016-09-30 23:50:28	삭제	wjsdlf:[테르]	[268612409]전사의 인장(타이탄 블릿)
2016-09-30 23:50:28	삭제	wjsdlf:[테르]	[268612354]데스나이트의 장갑
2016-09-30 23:50:28	삭제	wjsdlf:[테르]	[268612262]마법서 (디케이 포션)(0)
2016-09-30 23:50:28	삭제	wjsdlf:[테르]	[268612252]데스나이트의 부츠
2016-09-30 23:50:28	삭제	wjsdlf:[테르]	[268612250]악운의 단검
2016-09-30 23:50:28	삭제	wjsdlf:[테르]	[268611258]지룡 비늘 갑옷
2016-09-30 23:50:28	삭제	wjsdlf:[테르]	[268612199]훈련소 열쇠
2016-09-30 23:50:28	삭제	wjsdlf:[테르]	[268611263]전사의 인장(타이탄 매직)
2016-09-30 23:50:28	삭제	wjsdlf:[테르]	[268611262]전사의 인장(타이탄 블릿)
2016-09-30 23:50:28	삭제	wjsdlf:[테르]	[268611286]지룡의 표식(2)
2016-09-30 23:50:28	삭제	wjsdlf:[테르]	[268611067]풍룡의 표식(2)
2016-09-30 23:50:28	삭제	wjsdlf:[테르]	[268610997]물결의 망토
2016-09-30 23:50:28	삭제	wjsdlf:[테르]	[268610948]상아탑 마법의 정수(31)
2016-09-30 23:50:28	삭제	wjsdlf:[테르]	[268610398]고급 루비(0)
2016-09-30 23:51:31	삭제	hoan27:[소유]	[268611862]마법의 투구: 힘
2016-09-30 23:54:20	증발	wjsdlf:테르	[268576699]빈 주문서 (레벨 2)(2)
2016-09-30 23:54:51	증발	wjsdlf:테르	[268570050]+15\aH섬멸자의 체인소드
2016-09-30 23:54:51	증발	wjsdlf:테르	[268611312]숫돌(3)
2016-09-30 23:55:51	삭제	wjsdlf:[테르]	[268612528]키메라의 가죽 (용)(0)
2016-09-30 23:55:51	삭제	wjsdlf:[테르]	[268612529]키메라의 가죽 (산양)(0)
2016-09-30 23:55:51	삭제	wjsdlf:[테르]	[268612531]키메라의 가죽 (뱀)(0)
2016-09-30 23:55:51	삭제	wjsdlf:[테르]	[268612530]키메라의 가죽 (사자)(0)
2016-09-30 23:56:14	버리기	hoan27:[소유]	[268569900]픽시의깃털(10000000)
2016-09-30 23:56:15	줍기	kokoa1:[미]	[268612615]픽시의깃털(10000000)
2016-09-30 23:56:38	버리기	wjsdlf:[테르]	[268574995]마법인형 : 데스나이트
2016-09-30 23:56:48	버리기	wjsdlf:[테르]	[268569924]픽시의깃털(99999999)
2016-09-30 23:56:48	줍기	kokoa1:[미]	[268574995]마법인형 : 데스나이트
2016-09-30 23:56:49	줍기	kokoa1:[미]	[268612645]픽시의깃털(99999999)
